<?xml version="1.0" encoding="UTF-8" standalone="no"?>
<svg
   xmlns:dc="http://purl.org/dc/elements/1.1/"
   xmlns:cc="http://creativecommons.org/ns#"
   xmlns:rdf="http://www.w3.org/1999/02/22-rdf-syntax-ns#"
   xmlns:svg="http://www.w3.org/2000/svg"
   xmlns="http://www.w3.org/2000/svg"
   xmlns:sodipodi="http://sodipodi.sourceforge.net/DTD/sodipodi-0.dtd"
   xmlns:inkscape="http://www.inkscape.org/namespaces/inkscape"
   version="1.1"
   id="svg3699"
   xml:space="preserve"
   width="816"
   height="1056"
   viewBox="0 0 816 1056"
   inkscape:version="0.91 r13725"
   sodipodi:docname="ML-159(6-16).svg"><sodipodi:namedview
     pagecolor="#ffffff"
     bordercolor="#666666"
     borderopacity="1"
     objecttolerance="10"
     gridtolerance="10"
     guidetolerance="10"
     inkscape:pageopacity="0"
     inkscape:pageshadow="2"
     inkscape:window-width="1794"
     inkscape:window-height="960"
     id="namedview78"
     showgrid="false"
     inkscape:zoom="0.75"
     inkscape:cx="814.64353"
     inkscape:cy="494.182"
     inkscape:window-x="41"
     inkscape:window-y="24"
     inkscape:window-maximized="0"
     inkscape:current-layer="svg3699" /><metadata
     id="metadata3705"><rdf:RDF><cc:Work
         rdf:about=""><dc:format>image/svg+xml</dc:format><dc:type
           rdf:resource="http://purl.org/dc/dcmitype/StillImage" /><dc:title /></cc:Work></rdf:RDF></metadata><defs
     id="defs3703" /><text y="61.760025" x="268.23999"
     id="text3713"
     style="font-variant:normal;font-weight:bold;font-stretch:semi-condensed;font-size:14.71999931px;font-family:Calibri;-inkscape-font-specification:Calibri-Bold;writing-mode:lr-tb;fill:#000000;fill-opacity:1;fill-rule:nonzero;stroke:none"><tspan y="61.760025" x="238">MOTORISTS LIFE INSURANCE COMPANY </tspan><tspan y="79.674263" x="224">471 East Broad Street, Columbus Ohio 43215 </tspan></text>
<text y="119.52002" x="65.68"
     id="text3719"
     style="font-variant:normal;font-weight:bold;font-stretch:semi-condensed;font-size:18.71999931px;font-family:Calibri;-inkscape-font-specification:Calibri-Bold;writing-mode:lr-tb;fill:#000000;fill-opacity:1;fill-rule:nonzero;stroke:none;"><tspan y="119.52002" x="35">Authorization for Release of Health-Related Information to Motorists Life Insurance </tspan><tspan y="142.24609" x="353">Company </tspan></text>
<text y="162.56001" x="203.43999"
     id="text3723"
     style="font-variant:normal;font-weight:bold;font-stretch:semi-condensed;font-size:16px;font-family:Calibri;-inkscape-font-specification:Calibri-Bold;writing-mode:lr-tb;fill:#000000;fill-opacity:1;fill-rule:nonzero;stroke:none"><tspan y="162.56001" x="173">This authorization complies with the HIPAA Privacy Rule </tspan></text>
<text y="199.04002" x="30"
     id="text3729"
     style="font-variant:normal;font-weight:normal;font-stretch:semi-condensed;font-size:13px;font-family:Calibri;-inkscape-font-specification:Calibri;writing-mode:lr-tb;fill:#000000;fill-opacity:1;fill-rule:nonzero;stroke:none"><tspan y="199.04002" x="30">________________________________________</tspan><tspan y="199.04002" x="432">____/____/______ </tspan><tspan y="215.20178" x="30">Name of proposed Insured/Patient (please print)</tspan><tspan y="215.20178" x="434">Date of Birth</tspan></text>
<text y="247.84402" x="30"
     id="text3733"
     style="font-variant:normal;font-weight:normal;font-stretch:semi-condensed;font-size:13px;font-family:Calibri;-inkscape-font-specification:Calibri;writing-mode:lr-tb;fill:#000000;fill-opacity:1;fill-rule:nonzero;stroke:none; letter-spacing:-0.06em;"><tspan y="247.84402" x="30">I, for myself, my heirs, my beneficiaries and my personal representatives, authorize any health plan, physician, health care </tspan><tspan y="264.16513" x="30">professional, hospital, clinic, laboratory, pharmacy, pharmacy benefit manager, or other health care provider that has provided </tspan><tspan y="280.3269" x="30">payment, treatment or services to me or on my behalf within the past 10 years (hereinafter referred to as “My Providers”) to </tspan><tspan y="296.64801" x="30">disclose my entire medical record and any other protected health information concerning me to the Motorists Life Insurance </tspan><tspan y="312.96915" x="30">Company (Motorists Life), its agents, employees and representatives. This includes, but is not limited to, information on the </tspan><tspan y="329.13089" x="30">diagnosis or treatment of Human Immunodeficiency Virus (HIV) infection; sexually transmitted diseases; the use of alcohol, drugs </tspan><tspan y="345.45203" x="30">and tobacco; or, the diagnosis and treatment of mental illness, but excludes psychotherapy notes. </tspan></text>
<text y="378.09427" x="30"
     id="text3753"
     style="font-variant:normal;font-weight:normal;font-stretch:semi-condensed;font-size:13px;font-family:Calibri;-inkscape-font-specification:Calibri;writing-mode:lr-tb;fill:#000000;fill-opacity:1;fill-rule:nonzero;stroke:none; letter-spacing:-0.06em;"><tspan y="378.09427" x="30">By my signature below, I acknowledge that any agreements I have made to restrict my protected health information do not apply to </tspan><tspan y="394.25604" x="30">this authorization and I instruct My Providers to release and disclose my entire medical record without restriction. </tspan></text>
<text y="426.89828" x="30"
     id="text3763"
     style="font-variant:normal;font-weight:normal;font-stretch:semi-condensed;font-size:13px;font-family:Calibri;-inkscape-font-specification:Calibri;writing-mode:lr-tb;fill:#000000;fill-opacity:1;fill-rule:nonzero;stroke:none; letter-spacing:-0.06em;"><tspan y="426.89828" x="30">This protected information is to be disclosed under this Authorization so that Motorists Life may: underwrite my application for </tspan><tspan y="443.21939" x="30">coverage, make eligibility, risk rating, policy issuance and enrollment determinations; obtain reinsurance; administer claims and </tspan><tspan y="459.38116" x="30">determine or fulfill responsibility for coverage and provision of benefits; administer coverage; and conduct other legally permissible </tspan><tspan y="475.70227" x="30">activities that relate to any coverage I have in force or have applied for with Motorists Life. </tspan></text>
<text y="508.18509" x="30"
     id="text3777"
     style="font-variant:normal;font-weight:normal;font-stretch:semi-condensed;font-size:13px;font-family:Calibri;-inkscape-font-specification:Calibri;writing-mode:lr-tb;fill:#000000;fill-opacity:1;fill-rule:nonzero;stroke:none; letter-spacing:-0.06em;"><tspan y="508.18509" x="30">I understand that my information will be kept confidential and will not be disclosed to other persons or organizations, without this </tspan><tspan y="524.50623" x="30">written permission, for the purposes stated herein, except to the extent necessary for Motorists Life and its affiliates, </tspan><tspan y="540.82733" x="30">representatives, agencies, reinsurers and others (including, but not limited to those persons, businesses, or professionals providing </tspan><tspan y="557.14844" x="30">insurance services) as required for Motorists Life to conduct business. This information may also be used by the representative to </tspan><tspan y="573.31018" x="30">aid in updating and improving my insurance program. The information collected may be disclosed to other insurance companies to </tspan><tspan y="589.63129" x="30">which I have applied or may apply, reinsurance companies, the MIB, Inc., or other persons or organizations performing business, </tspan><tspan y="605.95245" x="30">professional, or insurance functions, or as may be otherwise allowed by law. </tspan></text>
<text y="638.43536" x="30"
     id="text3797"
     style="font-variant:normal;font-weight:normal;font-stretch:semi-condensed;font-size:13px;font-family:Calibri;-inkscape-font-specification:Calibri;writing-mode:lr-tb;fill:#000000;fill-opacity:1;fill-rule:nonzero;stroke:none; letter-spacing:-0.06em;"><tspan y="638.43536" x="30">This authorization shall remain in force for 30 months following the date of my signature below, or the time period allowed by law in </tspan><tspan y="654.75647" x="30">the state in which the policy is issued, and shall continue in full force and effect after my death. A copy of this authorization is as </tspan><tspan y="671.07758" x="30">valid as the original. I understand that I have the right to revoke this authorization in writing at any time by sending a written </tspan><tspan y="687.23932" x="30">request for revocation to Motorists Life Insurance Company (at the above address), Attention: Privacy Official. I understand that a </tspan><tspan y="703.56049" x="30">revocation is not effective to the extent that any of My Providers has relied on this Authorization or to the extent that Motorists Life </tspan><tspan y="719.88159" x="30">has a legal right to contest a claim under an insurance policy or to contest the policy itself. I understand that any information that is </tspan><tspan y="736.2027" x="30">disclosed pursuant to this authorization may be redisclosed and no longer covered by federal rules governing privacy and </tspan><tspan y="752.36444" x="30">confidentiality of health information. </tspan></text>
<text y="785.00665" x="30"
     id="text3819"
     style="font-variant:normal;font-weight:bold;font-stretch:semi-condensed;font-size:12px;font-family:Calibri;-inkscape-font-specification:Calibri-Bold;writing-mode:lr-tb;fill:#000000;fill-opacity:1;fill-rule:nonzero;stroke:none; letter-spacing:-0.06em;">
     <tspan y="785.00665" x="30">I understand that if I refuse to sign this authorization to release my complete medical record, Motorists Life may not be able to </tspan><tspan y="801.16852" x="30">process my application, or if coverage has been issued, may not be able to make any benefit payments.</tspan>
     <tspan
       style="font-variant:normal;font-weight:normal;font-stretch:semi-condensed;font-size:13px;font-family:Calibri;-inkscape-font-specification:Calibri;writing-mode:lr-tb;fill:#000000;fill-opacity:1;fill-rule:nonzero;stroke:none; letter-spacing:-0.06em;" y="801.16852" x="624">I acknowledge that I have </tspan>
     <tspan
       style="font-variant:normal;font-weight:normal;font-stretch:semi-condensed;font-size:13px;font-family:Calibri;-inkscape-font-specification:Calibri;writing-mode:lr-tb;fill:#000000;fill-opacity:1;fill-rule:nonzero;stroke:none; letter-spacing:-0.06em;" y="817.48962" x="30">received a copy of this authorization </tspan>
</text>
<text y="866.29358" x="50.026531"
     id="text3835"
     style="font-variant:normal;font-weight:normal;font-stretch:semi-condensed;font-size:13px;font-family:Calibri;-inkscape-font-specification:Calibri;writing-mode:lr-tb;fill:#000000;fill-opacity:1;fill-rule:nonzero;stroke:none"><tspan y="866.29358" x="50.026531 56.586853">__</tspan></text>
<text y="866.29358" x="63.306557"
     id="text3841"
     style="font-variant:normal;font-weight:normal;font-stretch:semi-condensed;font-size:13px;font-family:Calibri;-inkscape-font-specification:Calibri;writing-mode:lr-tb;fill:#000000;fill-opacity:1;fill-rule:nonzero;stroke:none"><tspan y="866.29358" x="30">______________________________________________________</tspan><tspan y="866.29358" x="487">____/____/______</tspan><tspan y="882.61475" x="30">Signature of Proposed Insured/Patient or Personal Representative</tspan><tspan y="882.61475" x="489.97321">Date</tspan></text>
<text y="931.4187" x="63.306557"
     id="text3851"
     style="font-variant:normal;font-weight:normal;font-stretch:semi-condensed;font-size:13px;font-family:Calibri;-inkscape-font-specification:Calibri;writing-mode:lr-tb;fill:#000000;fill-opacity:1;fill-rule:nonzero;stroke:none"><tspan y="931.4187" x="30">_______________________________________________________________________________ </tspan><tspan y="947.73987" x="30">Description of Personal Representative’s Authority or Relationship to Patient/Proposed Insured </tspan></text>
<text y="980.22266" x="50.026531"
     id="text3855"
     style="font-variant:normal;font-weight:bold;font-stretch:semi-condensed;font-size:13px;font-family:Calibri;-inkscape-font-specification:Calibri-Bold;writing-mode:lr-tb;fill:#000000;fill-opacity:1;fill-rule:nonzero;stroke:none"><tspan y="980.22266" x="30">When completing this Form:</tspan></text>
<text y="980.22272" x="242.02879"
     id="text3865"
     style="font-variant:normal;font-weight:normal;font-stretch:semi-condensed;font-size:13px;font-family:Calibri;-inkscape-font-specification:Calibri;writing-mode:lr-tb;fill:#000000;fill-opacity:1;fill-rule:nonzero;stroke:none"><tspan y="980.22272" x="230">Send original to Motorists Life. </tspan><tspan y="996.54382" x="230">Give copy to the Person who signs this. </tspan></text>
<text y="1024.6573" x="53.386665"
     id="text3869"
     style="font-variant:normal;font-weight:normal;font-stretch:semi-condensed;font-size:13px;font-family:Calibri;-inkscape-font-specification:Calibri;writing-mode:lr-tb;fill:#000000;fill-opacity:1;fill-rule:nonzero;stroke:none"><tspan y="1024.6573" x="30">ML-159 (6-16)</tspan></text>
</svg>