<?xml version="1.0" encoding="UTF-8" standalone="no"?>
<svg
  xmlns:dc="http://purl.org/dc/elements/1.1/"
  xmlns:cc="http://creativecommons.org/ns#"
  xmlns:rdf="http://www.w3.org/1999/02/22-rdf-syntax-ns#"
  xmlns:svg="http://www.w3.org/2000/svg"
  xmlns="http://www.w3.org/2000/svg"
  viewBox="0 0 765 990"
  height="990"
  width="765"
  xml:space="preserve"
  version="1.1"
  id="svg6674">
  <metadata id="metadata6680">
    <rdf:RDF><cc:Work rdf:about=""><dc:format>image/svg+xml</dc:format><dc:type rdf:resource="http://purl.org/dc/dcmitype/StillImage" /><dc:title></dc:title></cc:Work></rdf:RDF>
  </metadata>
  <defs id="defs6678">
    <style>
      text{
        font-variant:normal;
        font-weight:normal;
        font-size:11px;
        font-family:PT Sans Narrow;
        letter-spacing:-0.06em;
        writing-mode:lr-tb;
        fill:#000000;
        fill-opacity:1;
        fill-rule:nonzero;
        stroke:none;
      }
    </style>
    <clipPath
    id="clipPath6696"
    clipPathUnits="userSpaceOnUse"><path
    id="path6698"
    d="m 0,0 611.951,0 0,791.981 L 0,791.981 0,0 Z" /></clipPath><clipPath
    id="clipPath6704"
    clipPathUnits="userSpaceOnUse"><path
    id="path6706"
    d="m 0,0 611.951,0 0,791.981 L 0,791.981 0,0 Z" /></clipPath><clipPath
    id="clipPath6716"
    clipPathUnits="userSpaceOnUse"><path
    id="path6718"
    d="m 0,0 611.951,0 0,791.981 L 0,791.981 0,0 Z" /></clipPath><clipPath
    id="clipPath6846"
    clipPathUnits="userSpaceOnUse"><path
    id="path6848"
    d="m 49.56,58.8 517.44,0 0,70.44 -517.44,0 0,-70.44 z" /></clipPath><clipPath
    id="clipPath6854"
    clipPathUnits="userSpaceOnUse"><path
    id="path6856"
    d="m 49.56,58.8 517.44,0 0,70.44 -517.44,0 0,-70.44 z" /></clipPath><clipPath
    id="clipPath6862"
    clipPathUnits="userSpaceOnUse"><path
    id="path6864"
    d="m 49.56,58.8 517.44,0 0,70.44 -517.44,0 0,-70.44 z" /></clipPath><clipPath
    id="clipPath6870"
    clipPathUnits="userSpaceOnUse"><path
    id="path6872"
    d="m 49.56,58.8 517.44,0 0,70.44 -517.44,0 0,-70.44 z" /></clipPath><clipPath
    id="clipPath6878"
    clipPathUnits="userSpaceOnUse"><path
    id="path6880"
    d="m 49.56,58.8 517.44,0 0,70.44 -517.44,0 0,-70.44 z" /></clipPath><clipPath
    id="clipPath6886"
    clipPathUnits="userSpaceOnUse"><path
    id="path6888"
    d="m 49.56,58.8 517.44,0 0,70.44 -517.44,0 0,-70.44 z" /></clipPath><clipPath
    id="clipPath6894"
    clipPathUnits="userSpaceOnUse"><path
    id="path6896"
    d="m 567,58.8 43.2,0 0,70.44 -43.2,0 0,-70.44 z" /></clipPath><clipPath
    id="clipPath6902"
    clipPathUnits="userSpaceOnUse"><path
    id="path6904"
    d="m 610.2,58.8 1.751,0 0,70.44 -1.751,0 0,-70.44 z" /></clipPath><clipPath
    id="clipPath6910"
    clipPathUnits="userSpaceOnUse"><path
    id="path6912"
    d="m 0,0 611.951,0 0,791.981 L 0,791.981 0,0 Z" /></clipPath><clipPath
    id="clipPath6918"
    clipPathUnits="userSpaceOnUse"><path
    style="clip-rule:evenodd"
    id="path6920"
    d="m 882.96,129.24 48,0 0,-70.44 -48,0 0,70.44 z" /></clipPath><clipPath
    id="clipPath6926"
    clipPathUnits="userSpaceOnUse"><path
    id="path6928"
    d="m 882.96,129.24 48,0 0,-70.44 -48,0 0,70.44 z" /></clipPath><clipPath
    id="clipPath6934"
    clipPathUnits="userSpaceOnUse"><path
    style="clip-rule:evenodd"
    id="path6936"
    d="m 930.96,129.24 48,0 0,-70.44 -48,0 0,70.44 z" /></clipPath><clipPath
    id="clipPath6942"
    clipPathUnits="userSpaceOnUse"><path
    id="path6944"
    d="m 930.96,129.24 48,0 0,-70.44 -48,0 0,70.44 z" /></clipPath>
  </defs>
  <g transform="matrix(1.25,0,0,-1.25,0,990)"
    id="g6682">
    <text
    id="text6684"
    style="font-size:11px;"
    transform="matrix(1,0,0,-1,49.56,39.12)">
      <tspan y="0" x="0 9.4833603 14.16432 17.39904 23.04048 28.56048 34.20192 36.71904 39.953758 45.5952 48.962399 54.482399 60.12384 63.48">ML-635 (7-15) </tspan>
    </text>
    <text
    id="text6688"
    style="font-size:11px;"
    transform="matrix(1,0,0,-1,522.8448,39.12)">
      <tspan y="0" x="0 6.2375998 11.63616 17.034719 22.433281 24.84">Page 1</tspan>
    </text>
    <text y="-749.03998" x="178.67999"
    id="text6708"
    style="font-size:14px;"
    transform="scale(1,-1)">
      <tspan y="-749.03998" x="178.67999 190.08047 199.20648 207.49008 216.61607 225.37704 229.94003 236.90388 245.18747 252.15132 255.2682 262.82172 267.3847 274.93823 282.98315 285.9877 290.55072 300.02771 306.99155 316.10352 324.86447 333.49908 343.10245 351.021 358.93958 362.05643 369.97501 379.10101 390.5015 398.42004 407.181 416.65799">MOTORISTS LIFE INSURANCE COMPANY</tspan>
    </text>
    <text
    id="text6720"
    style="font-size:12px;"
    transform="matrix(1,0,0,-1,169.8,734.52)">
      <tspan y="0" x="0 7.9200001 11.76 17.76 24.48 30.959999 38.759998 44.759998 52.560001 60 66.959999 69.599998 76.080002 83.879997 91.32 93.959999 101.4 108.12 114.84 121.8 128.28 135.24001 142.67999 150.12 157.2 164.16 172.08 174.72 182.03999 189 197.16 204.12 210.60001 214.44 221.52 224.16 231.60001 235.44 243.36 250.32001 257.76001 263.64001">DISCLOSURE FOR ACCELERATED BENEFIT RIDERS </tspan>
    </text>
    <text
    id="text6724"
    style="font-size:10px;"
    transform="matrix(1,0,0,-1,49.56,708.24)">
      <tspan y="0" x="0 3.8346 9.4719601 13.55556 18.83436 24.3522 29.631001 34.073158 38.873878 44.39172 48.226318 50.387642 53.74416 59.262001 63.584641 69.102478 73.305603 78.106323 83.624161 85.785477 90.227638 92.388962 99.231483 104.15172 112.42848 117.2292 119.51004 123.22512 126.9402 130.65527 134.37036 138.08543 141.80052 145.51559 149.23068 152.94576 156.66084 160.37592 164.091 167.68655 171.40164 175.11671 178.8318 182.54688 186.26196 189.97704 193.69212 197.28767 201.00276 204.71783 208.43292 212.14799 215.86308 219.57816 223.29324 227.00832 230.60388 234.31895 238.03404 241.62959 245.34468 249.05975 252.77484 256.48993 260.20499 263.92007 267.63516 271.35025 275.06531 278.7804 280.94171 286.57907 291.85788 294.61679 297.37573 301.81787 306.85764 309.01895 314.5368 320.05463 328.33139 333.84924 338.64996 342.85309 345.0144 348.849 351.60791 354.60587 356.76721 362.16553 367.68335 372.96216 380.76083 386.27869 390.12323 392.28455 395.99963 399.71472 403.42981 407.14487 410.85995 414.57504 418.29013 422.00519 425.72028 429.43536 433.15045 436.86551 440.5806 444.29568 448.01077 451.72583 455.44092 459.15601 462.87109 466.58615 470.18173 473.89679 477.61188 481.20743 484.92252 488.6376 492.35269 496.06775 500.04181">(Proposed) Insured’s Name ___________________________________________ Policy number (if known) _____________________________ </tspan>
      <tspan y="23.406" x="0 6.2349601 11.87232 17.50968 23.26656 28.664881 34.421761 40.656719 46.891682 52.768082 58.52496 65.128441 67.289757 73.405197 79.162079 86.044441 91.801323 97.199638 100.43664 106.31304 111.23328 113.3946 119.15148 125.3964 131.03375 137.26872 143.38416 148.78249 154.53935 156.70068 163.18465 170.02716 176.63065 182.38753 188.62248 190.7838 196.6602 203.50272 209.2596 214.17984 219.93672 222.09804 228.33299 231.57001 238.293 244.04988 250.28484 255.24492 257.40625 265.56348 271.79843 277.43579 279.59711 285.71255 291.46945 293.75027 299.62668 305.86163 311.49899 317.73395 323.8494 329.24771 335.00461 337.04639 339.32724 344.9646 351.44855 358.05203 360.33289 365.25311 372.09564 378.57959 385.06357 390.46188 397.06537 399.22668 404.98355 411.46753 418.31003 423.23029 429.71423 435.12253 440.99893 443.27975 448.91711 455.40109 461.88504 468.12">ACCELERATED BENEFITS PAYABLE UNDER THESE RIDERS MAY BE TAXABLE. YOU SHOULD CONSULT YOUR </tspan>
      <tspan y="35.168758" x="0 5.6373601 11.39424 17.6292 22.54944 29.0334 35.875919 42.110882 47.509201 49.670521 55.546921 61.781879 67.538757 69.700081 75.935043 82.538521 88.534439 91.890961 96.811203 103.29516 109.53012 111.69144 117.9264 123.68328 129.0816 135.56557 141.80052 147.5574 149.71872 155.4756 160.87392 166.6308 172.26816 178.14456 181.38156 188.22408 194.33952 196.50084 202.37724 208.85124 211.01256 217.24751 223.00439 228.64175 234.39864 237.75516 243.75108 249.50797 251.66928 257.78473 263.5416 270.38412 276.14099 281.53931 284.77631 290.65271 295.57297 297.61475">PERSONAL TAX ADVISOR BEFORE ELECTING TO RECEIVE BENEFITS. </tspan>
      <tspan y="46.931519" x="0 3.237 8.6353197 10.79664 16.434 22.917959 29.40192 31.56324 37.798199 43.55508 49.19244 54.949322 58.186321 64.182243 70.05864 72.219963 78.454918 85.29744 87.458763 93.693718 99.331078 104.96844 110.36676 116.12364 122.3586 128.59357 134.46996 140.22684 146.83032 148.99164 155.10709 160.86395 167.70648 173.46336 178.86168 182.09868 187.97508 190.01688 192.17821 197.81557 204.05052 208.97076 215.9328 218.09412 224.09004 230.325 235.72331 242.3268 248.08368 253.0836 255.1254 257.28671 262.68503 269.16901 275.40396 282.24649 284.40781 290.40372 296.63867 302.03699 308.52097 314.27783 319.19809 321.35941 325.194 328.431 333.82932 335.99063 342.22559 349.18765 354.82501 358.66956 360.71136 362.99219 369.22717 376.06967 382.67316 384.83447 390.71088 397.55341 403.31027 405.47159 412.07507 417.83197 424.06693 430.06284 436.90536 439.06668 445.18213 450.939 457.78152 463.53839 468.93671 472.17371 478.05011 480.33096 489.45432 492.69131 498.08963 503.48795">IF YOU RECEIVE AN ACCLERATED BENEFIT, CASH VALUES, LOAN VALUES (IF ANY), AND THE DEATH BENEFIT WILL </tspan>
      <tspan y="58.57476" x="0.0099600004 6.1254001 11.88228 14.0436 20.278561 26.03544 32.63892 39.122879 44.760239 50.51712 57.120602 59.281921 65.765877 72.608398 74.769722 81.004677 83.285522 88.922882 95.157837 101.65176 105.00828 111.24324 117.4782 123.3546 129.58955 131.75089 137.86632 144.10127 149.02151 152.25851 157.17876 159.34007 161.5014 167.37781 174.22032 180.09673 182.25804 187.8954 194.13036 199.88724 208.04448 211.28148 217.76544 225.92268 230.84293 233.12376 239.72723 246.56976 248.73108 254.96603 257.12735 262.52567 267.92401 273.68088 279.31824 282.55524 288.73044 294.12875 299.88565 302.04697 307.68433 313.91928 319.67615 327.8334 331.0704 337.5444 345.70163 347.86295 353.50031 360.10379 365.50211 368.73911 374.37646 380.01385 382.17517 388.41013 394.64508 400.40195 402.56329 409.40579 415.88977 421.76617 423.92749 430.16245 435.56076 440.95908 446.71597 452.35333 458.22971 463.9866 470.59009 472.7514">BE REDUCED ON A PRO-RATA BASIS. THE PREMIUMS ON A FLEXIBLE PREMIUM POLICY ARE NOT AFFECTED. </tspan>
      <tspan y="82.100281" x="0.0099600004 5.8863602 11.4042 14.16312 18.48576 20.647079 24.969721 30.48756 38.76432 47.04108 51.961319 56.044922 61.204201 63.36552 69.002876 73.086479 78.36528 83.405037 86.163963 91.801323 96.602043 100.92468 103.086 108.00624 110.28708 115.6854 119.769 122.64744 127.44816 130.44612 132.60744 138.2448 143.04552 147.36816 151.81032 155.89392 158.77235 164.29021 167.64671 170.40564 175.80396 181.32179 183.48312 188.88144 191.87939 194.04073 197.39725 203.03461 207.83533 210.11617 215.51448 220.43472 224.75735 227.51628 231.95844 234.11977 237.11772 242.03796 246.95821 250.31471 255.83257 259.91617 264.71689 269.03952 271.20084 276.59915 279.59711 281.75845 285.11496 290.75232 295.55304 297.71436 303.94931 308.39148 312.83365 317.63437 320.51279 325.31351 329.39713 334.31735 337.7934 342.59412 348.11197 350.27328 356.50824 361.42847 366.94632 371.74704 374.86453 377.62344 380.97995 383.14127 389.37625 392.13516 397.77252 402.57324 406.65683 411.099 413.26031 416.01923 418.77817 423.1008 426.45731 431.25803 436.89539 439.05673 444.57455 449.37527 452.13419 457.41299 465.09216 467.25348 469.41479 475.2912 480.80905 483.68747 488.01013 490.17145 492.93036 497.25299">This summary provides a brief description of the basic features of the Accelerated Benefit Riders listed below. This is </tspan>
      <tspan y="93.863037" x="0.0099600004 5.5278001 10.8066 14.16312 16.32444 21.364201 26.88204 29.04336 31.921801 37.43964 41.76228 47.280121 51.36372 56.283958 61.8018 66.243958 71.1642 73.325523 77.767677 83.046478 88.564323 92.040359 96.123962 101.0442 105.48636 108.84288 110.88468 113.046 118.56384 124.08168 126.8406 129.59952 131.76083 137.9958 140.75471 146.27255 151.07327 155.15688 157.31821 162.95557 167.75629 171.11279 176.03304 178.79196 181.55087 185.87352 188.03484 192.95508 198.47292 204.11028 206.27161 210.71376 215.99255 221.51041 224.98643 229.07004 233.99028 238.43243 241.78896 243.95029 246.7092 251.62944 257.14728 262.0675 267.58536 272.50562 277.42584 282.22656 284.38788 288.83005 293.75027 299.38763 301.54895 306.94727 312.46512 315.22403 320.26379 322.42511 327.94296 332.74368 334.905 338.02249 343.30127 348.81912 354.33698 359.97433 362.13565 364.89456 370.41241 372.69324 376.04977 381.5676 386.48785 388.64917 394.88412 397.64304 403.16089 408.08112 412.21451 414.37585 417.13477 422.05499 427.57285 432.49307 438.01093 442.93115 447.97092 452.77164 454.93295 459.85321 463.20972 466.56625 471.48648 475.92865 481.56601 486.36673 491.88455 494.04587 497.52191 502.80072">not an insurance contract. Full Rider details and contract language can only be found in the Rider language attached to </tspan>
      <tspan y="105.50628" x="0.019920001 5.05968 10.33848 15.85632 19.93992 22.10124 27.7386 33.017399 35.776321 38.53524 42.977402">your policy</tspan>
    </text>
    <text
    id="text6742"
    style="font-size:10px;"
    transform="matrix(1,0,0,-1,97.57716,602.73372)">
      <tspan y="0" x="0 2.2808399 6.723 13.20696 15.36828 21.364201 27.00156 30.11904 33.236519 37.917721 43.31604 45.47736 54.351719 59.750038 65.028839 67.190163 73.305603 78.942963 82.538521 84.699837 87.936836 93.932762 98.61396 101.73144 107.72736 113.72328 119.00208 121.1634 126.4422 131.72099 137.11932 141.681 146.95979 149.24065 155.72459 160.40581 165.08701 170.3658 173.48328 178.76208 183.44328 188.72208 192.43716 197.71596 203.71188 205.8732 212.35716 217.63596 223.63188 229.0302 232.2672 235.38467 239.09976 241.26108 247.86456 250.98204 256.97797 262.25677 266.93796 269.09927 275.09521 280.37399 284.93567 289.73639 294.29807 297.41556 303.29196 308.57077 314.68619 316.84753 319.965 325.96091 328.24176 331.83731 337.83325 340.95071 345.51239 347.67371 352.23541 358.23132 367.23517 376.11948 381.51779 386.07947 391.35828 393.75864">. A policy may not include every Accelerated Benefit Rider described in this summary. </tspan>
    </text>
    <text
    id="text6746"
    style="font-size:10px;"
    transform="matrix(1,0,0,-1,49.57992,579.2082)">
      <tspan y="0" x="0 6.2349601 10.67712 15.11928 19.92 22.678921 27.479639 31.56324 36.483479 39.84 44.760239 50.27808 52.4394 58.674358 63.475079 69.112442 73.913162 76.911118 79.670036 83.14608 85.307404 93.703682 98.504402 103.42464 108.94248 113.26512 115.42644 118.90248 124.42032 129.22104 131.38235 136.90021 141.82043 146.8602 155.25648 160.17673 165.69456 169.05109 171.09288 173.2542 178.77203 184.40939 188.493 191.37144 196.88928 201.80952 203.97084 207.32736 212.96472 217.76544 219.92676 223.28328 228.80112 233.12376 238.76112 242.84473 247.64545 253.28281 255.44412 259.79663 261.95795 264.71689 267.4758 270.59329 275.39401 278.75052 281.50943 289.90573 294.70645 296.74823 299.02908 304.30789 307.30585 309.46716 314.38739 316.66824 322.18607 327.46487 331.668 335.02451 337.78345 343.06223 348.69958 350.86093 356.13971 359.2572 361.53802 364.89456 370.41241 375.21313 377.37445 383.01181 387.81253 392.73276 396.08929 401.60712 403.88797 409.40579 414.20651 419.84387 424.64459 427.64255 430.40149 433.87753 436.03885 440.95908 445.28171 447.44305 452.96088 457.7616 462.08423 466.5264 470.72952 473.48843 479.00629 483.92651 489.44437 491.60568 494.36459 500.00195">Accelerated Benefit means the payment, during the Insured’s lifetime, of a portion of the death benefit as described in </tspan>
      <tspan y="11.64324" x="-0 3.3565199 8.8743601 13.67508 15.8364 22.07136 26.513519 30.955681 35.756401 38.634838 43.435558 47.519161 52.4394 55.91544 60.71616 66.234001 68.395317 74.63028 79.431 85.068359 89.86908 92.867043 95.625961 99.121918 101.28324 107.5182 110.27712 115.91448 120.83472 124.91832 126.96012 129.12144 133.44408 138.96191 144.24072 149.75856 152.51749 158.03532 160.19664 163.55316 169.19052 173.99124 176.27208 179.03101 184.54884 188.87148 194.38931 198.59244 203.39316 209.03052 211.19183 215.99255 220.9128 226.43063 231.35088 235.43448 238.31293 243.23315 248.75101 253.19316 257.99387 260.15521 265.07544 267.23676 271.67892 276.95773 282.117 286.91772 291.12085 295.92157 301.55893 303.72025 309.11856 314.63641 319.55664 322.31555 325.07449 328.07245 333.11221 335.99063 341.50848 346.42871 348.70956 353.51028 358.55005 363.47028 368.98813 372.36456 374.40637 376.56769 380.89032 386.52768 391.92599 394.5654 399.36612 403.80829 407.28433 409.44565 412.80215 418.20047 420.36179 423.71832 429.23615 434.1564 436.31772 441.95508 446.03867 451.31747 456.35724 459.11615 463.43881 466.19772 471.59604 477.11389 481.43652">the Accelerated Benefit Rider, should the insured experience a covered qualifying event, subject to the provisions </tspan>
      <tspan y="23.406" x="0 4.9202399 8.2767601 11.63328 16.55352 20.99568 26.513519 31.31424 36.832081 38.993401 42.349918 47.748241 49.909561 53.266079 58.78392 63.704159 65.865479 71.383324 76.662117 79.421043 82.179962 86.622124 91.66188 93.703682 95.864998 101.50236 106.78116 111.94044 116.86068 121.0638 125.86452 131.38235 133.66319 139.06152 144.57936 149.4996 152.25851 155.01744 158.0154 163.05516 165.81409 171.33192 176.37167 178.533 183.33372 188.493 193.41324 198.93108 202.2876 206.64012 208.80144 213.8412 218.76144 222.84505 227.8848 230.16563 235.56396 240.60371 242.88457 246.96815 249.72708 255.36444 260.16516 264.24875 266.29056 268.45187 273.37213 277.69476 279.85608 285.49344 290.29416 294.61679 299.05896 303.14255 306.021 311.53885 316.33957 321.85739 324.13824 329.53656 334.33728 337.09619 342.49451 350.17368 352.92264">attached to the policy. Covered qualifying events vary by rider, as described below: </tspan>
    </text>
    <text
    id="text6754"
    style="font-size:10px;"
    transform="matrix(1,0,0,-1,49.56,532.44)">
      <tspan y="0" x="0 6.4839602 11.16516 15.84636 21.12516 24.24264 29.521441 34.202641 39.481441 43.077 48.355801 54.351719 56.632561 63.11652 68.395317 74.401199 79.799522 83.036522 86.153999 89.86908 92.030403 98.633881 101.75136 107.74728 113.02608 117.70728 119.99808 125.03784 127.19916 133.5636 138.84241 143.40408 152.28841 155.52541 161.52132 166.80013 169.9176 172.07892 175.55496 178.67244 181.78992 187.78584 193.18416 197.74583 202.30753 204.47881 207.95483">Accelerated Benefit Rider – Terminal Illness - </tspan>
    </text>
    <text
    id="text6758"
    style="font-size:10px;"
    transform="matrix(1,0,0,-1,259.67616,532.44)">
      <tspan y="0" x="0 9.2428799 14.0436 16.32444 24.003599 26.76252 29.521441 32.280361 34.441681 39.959518 44.879761 49.919521 52.080841 57.00108 62.518921 64.680237 70.915199 75.357361 79.799522 84.600243 87.478683 92.279404 96.362999 101.28324 104.75928 109.56 115.07784 117.23916 123.47412 128.27484 133.9122 138.71292 141.71088 144.58932 147.94585 150.22668 155.74452 159.82812 165.10692 170.14668 172.90559 178.54295 183.34367 188.86153">We will pay an Accelerated Benefit provided:</tspan>
    </text>
    <path
    id="path6762"
    style="fill:#000000;fill-opacity:1;fill-rule:nonzero;stroke:none"
    d="m 49.56,531.24 202.32,0 0,0.72 -202.32,0 0,-0.72 z" />
    <text
    id="text6764"
    style="font-size:10px;"
    transform="matrix(1,0,0,-1,49.56,520.68)">
      <tspan y="0" x="0 5.5178399 7.5596399 9.7209597 15.96588 21.483721 23.764561 26.523479 32.041321 36.36396 41.881802 46.084919 50.885639 56.522999 58.684319 61.443241 65.765877 67.9272 73.445038 76.203957 81.124199 86.163963 91.681801 96.960602 101.28324 106.20348 111.72132 114.00216 119.52 124.55976 126.72108 131.64133 133.80264 142.07941 146.99963 152.51749 155.2764 159.71857 164.63879 167.39772 169.55904 175.07687 180.35568 184.79784 188.15436 193.43317 197.63628 199.79761 204.71783 209.04048 211.2018 216.71964 221.63988 226.67964 229.43855 234.95641 239.87663 242.15749 247.07771 249.23904 255.11543 260.03568 264.11929 272.39603 275.27448 280.79233 285.71255 288.47147 290.63281 293.86981 296.62872 299.38763 304.90549 309.70621 314.02884 318.35147 320.99088 323.15219 328.07245 333.59027 339.10812">1. An insured is diagnosed by a medical doctor as having a Terminal Illness; and </tspan>
      <tspan y="11.76276" x="0.0099600004 5.5278001 7.5696001 9.7309198 14.65116 19.5714 22.33032 27.84816 30.129 35.646839 38.405762 43.326 48.246239 53.76408 59.042881 63.36552 66.124443 70.447083 72.727921 75.486839 79.809479 81.970802 90.247559 95.167801 100.80516 105.60588 107.7672 112.68744 115.6854 119.16144 123.96216 128.04576 130.3266 133.68312 139.20096 144.1212 146.28252 151.20276 154.20071 157.19868 161.9994 166.44156 169.9176 172.67651 177.71628 182.63652 184.79784 190.31567 195.23592 198.59244 203.51268 205.674 210.9528 213.95076 216.2316 219.58812 225.10596 227.86488 232.18752 234.34885 238.55196 241.4304 246.94824 251.74896 255.95209 258.1134 263.03363 268.55148 274.06931 276.35016 284.02933 289.54715 292.30609 295.065 299.98523 302.14655 305.50308 311.02094 313.77985 318.10248 320.38333 324.46692 327.22583 332.86319 337.66391 341.86703 344.02835 348.94861 354.46643 359.98428 362.26511 365.62164 371.13947 375.94019 378.22104 383.73889 389.01767 391.77661 394.53552 398.97769 404.01743 406.17877 409.53528 414.81409 417.09491 424.77408 430.29193 433.05084 437.49301 443.01083 445.17215 448.09045 451.44696 453.60828 456.36719 460.68985 462.85117 467.77139 471.12793 474.48444 479.40469 483.96637 489.48419 494.28491 499.80276">2. Said diagnosis is made after the effective date of this rider and while this rider and the policy to which it is attached </tspan>
      <tspan y="23.406" x="13.57548 18.49572 22.579321 27.380039 29.541361 32.4198 37.937641 40.098961 43.216438 48.495239 52.578838 57.140518 61.931278 64.092598">are in force. </tspan></text>
    <text
    id="text6772"
    style="font-size:10px;"
    transform="matrix(1,0,0,-1,49.56996,473.74848)">
      <tspan y="0" x="0 6.36444 11.64324 16.20492 25.079281 28.31628 34.312199 39.591 42.708481 44.869801 48.34584 51.463322 54.580799 60.576721 65.975037 70.53672 75.098396">Terminal Illness </tspan></text>
    <text
    id="text6776"
    style="font-size:10px;"
    transform="matrix(1,0,0,-1,126.82968,473.74848)">
      <tspan y="0" x="0 8.3962803 13.197 18.117241 23.63508 28.07724 30.23856 35.158798 37.320122 42.957481 48.236279 53.75412 58.196281 63.475079 67.6782 71.761803 76.562523 81.004677 84.361198 89.400963 94.799278 97.558197 102.35892 104.63976 112.91652 117.71724 123.3546 126.11352 130.55568 135.47592 138.23483 140.39616 144.83832 150.11713 155.63496 161.1528 164.03123 167.38776 170.14668 175.42548 180.94331 183.22417 186.58067 192.09853 197.01875 200.37527 203.01468">means a noncorrectable medical condition that: </tspan>
      <tspan y="11.76276" x="-77.25972 -71.741882 -69.700081 -67.538757 -59.8596 -57.100681 -53.74416 -48.1068 -45.94548 -41.742359 -36.941639 -32.0214 -27.698759 -22.41996 -16.902121 -11.86236 -6.4640398 -3.7051201 1.0956 3.2569201 11.6532 16.45392 22.09128 24.850201 29.29236 34.212601 36.971519 39.132839 43.575001 48.375721 52.45932 55.815842 60.73608 63.614521 69.132362 72.488876 77.528641 79.570442 81.85128 89.530441 92.28936 95.048279 97.807198 99.968521 104.17164 108.97236 113.295 118.81284 121.57176 124.92828 127.0896 129.84853 135.48589 137.6472 141.00372 146.64108 151.4418 153.60312 159.24048 164.16072 169.08096 172.43748 177.95532 180.11664 185.39545 188.3934 190.55472 193.91124 199.5486 204.34932 206.51064 209.38908 214.90692 219.22955 224.74741 228.95052 233.75124 239.26907 241.54993 244.30884 249.82668 251.98801 254.86644 259.66714 263.98981 268.31244 270.47375 273.83029 279.34811 284.38788 289.90573 292.06705 297.58487 303.22223 305.38354 313.66031 319.05865 324.57648 327.93301 333.45084 337.77347 339.93481 343.05228 347.13589 352.41467 360.81097 362.97229 366.3288 371.84665 376.76688 378.92819 384.44604 389.36627 392.84232 397.64304 399.80435 405.20267 408.20065 410.36197 413.71848 419.23633 424.15656">1. with reasonable medical certainty, will result in the death of the insured in less than 12 months from the date of the </tspan>
      <tspan y="23.406" x="-68.255882 -61.652401 -56.3736 -51.931438 -48.574921 -43.29612 -39.212521 -37.051201 -32.609039 -30.44772 -25.527479 -22.170959 -17.250719 -13.77468 -8.9739599 -0.57767999 4.2230401 9.74088 13.0974 15.86628">Doctor’s Statement; </tspan>
      <tspan y="35.168758" x="-77.249763 -71.731918 -69.690117 -67.528801 -59.84964 -54.929401 -50.606758 -48.445438 -42.927601 -40.168678 -35.24844 -30.208679 -24.69084 -19.412041 -15.0894 -10.16916 -4.65132 -2.3704801 5.3086801 10.82652 13.58544 16.34436 21.145081 23.42592 26.78244 32.300282 37.22052 39.38184 42.260281 47.778118 52.100761 57.618599 61.702202 66.622437 72.140282 74.42112 82.100281 87.020523 91.343163 93.504478 97.94664 103.22544 108.2652 113.18544 117.26904 122.06976 127.70712 129.86844 135.38628 141.02364 146.54147 151.46172 155.54532 157.70663 161.18268 166.70052 169.45944 173.78207 175.94341 180.02699 182.78592 188.42328 193.23396 197.31757 200.07648">2. was diagnosed while the insured was covered under this rider; </tspan>
      <tspan y="46.931519" x="-77.239799 -71.721962 -69.680161 -67.518837 -59.720161 -54.919441 -52.638599 -48.555 -43.75428 -39.1926 -34.39188 -31.632959 -26.593201 -21.67296 -19.511641 -16.155121 -10.51776 -5.7170401 -3.5557201 0.88643998 6.1652398 11.68308 16.12524 20.925961 26.56332 29.91984 32.081161 37.359959 40.47744 42.758282 47.67852 50.437439 53.196362 55.357681 58.1166 62.200199 66.283798 71.084518 76.124283 81.403084 85.845238 90.76548 96.163803 99.042236 103.84296 106.1238 111.52212 116.44236 121.9602 126.88044 129.8784 132.63731 137.07948 139.83839 144.75864 148.84224 151.72067 156.52139 160.84404 163.12488 168.04512 173.56296 179.0808 184.00104 189.27985 193.36343 195.52477 200.44501 203.20392 205.96284 208.12416 213.0444 217.36703 221.68968 224.44859 229.36884 234.88667 239.80692 244.60764 248.93028 251.0916 254.44812 259.96597 262.2468 271.37015 275.57327 278.33221 281.68872 284.56717 290.08499 295.00525 297.64465 299.80597 304.7262 310.24405 315.88141">3. we receive the consent of all irrevocable beneficiaries and/or all assignees In Writing; and </tspan>
      <tspan y="60.975121" x="-77.239799 -71.721962 -69.680161 -67.518837 -62.598598 -59.600639 -56.244122 -51.323879 -47.24028 -44.959438 -37.280281 -32.360039 -30.198721 -24.68088 -19.760639 -14.72088 -9.9201603 -7.6393199 -3.4361999 1.36452 5.8066802 10.6074 13.36632 18.5256 23.326321 28.84416 31.125 36.642841 40.845959 46.12476 51.403561 54.40152 56.56284 61.961159 64.959122 67.120438 69.879356 75.158157 79.480797 83.803436 85.96476 88.962723 94.361038 98.444641 100.60596 103.96248 109.48032 112.23924 116.56188 118.7232 124.95816 129.8784 135.39624 140.19696 143.31444 146.07336 149.42989 151.5912 157.10904 162.7464 166.83 169.58891 175.10677 180.14651 182.30785 185.66435 191.30173 196.10245 198.26376 201.02267 203.7816 206.89908 211.6998 213.86111 219.13992 222.2574 224.41872 227.77524 233.4126 238.21332 240.37463 243.25308 248.77092 253.09357 258.61139 262.69501 267.61523 273.13309 275.2944 280.69272 286.21057 288.37189 296.05103 301.68839 306.96719 311.28983 316.09055 318.25189 321.0108 323.76971 326.88721 331.68793 333.96875 337.32529 342.84311 347.76337 349.92468 354.36685 357.12576 362.04599 364.80493 373.08167 375.24301 378.00192 382.32455 384.48587 390.00372 394.80444 397.68289 403.32025 408.24048">4. after we have received proof of loss for this Benefit during the life of the insured on whose life the claim is being </tspan>
      <tspan y="72.737877" x="-68.235962 -59.959202 -55.03896 -49.521118 -44.720402 -42.6786">made. </tspan>
      <tspan y="96.143883" x="-77.239799 -71.363403 -65.845558 -60.92532 -56.841721 -51.921478 -49.760159 -47.00124 -42.6786 -40.517281 -34.879921 -29.60112 -27.4398 -21.802441 -17.71884 -12.7986 -4.5218401 -1.76292 3.75492 12.1512 14.31252 18.754681 24.27252 29.19276 33.27636 38.196602 43.11684 45.397678 48.395641 53.674438 57.758041 59.919361 63.275879 68.913239 71.672157 75.994797 78.15612 83.673958 88.5942 94.112038 98.912758 102.03024 104.78916 108.14568 110.18748 112.46832 118.34472 123.86256 128.78281 130.94412 139.22089 142.09932 147.61716 150.37608 158.65285 164.29021 172.56696 174.72829 180.24612 185.04684 190.6842 195.48492 198.6024 201.36131 204.71783 206.87917 211.79939 220.07616 225.35497 230.99232 236.51016 239.86668 242.14752 244.90643 249.22908 251.3904 256.43015 261.948 263.98981 269.50763 275.14499 280.66284 282.70465 284.98547 288.34201 293.85983 298.66055 300.94141 309.21817 314.1384 318.93912 321.69803 329.97479 335.49265 343.88892 346.05023 351.56808 356.48831 362.00616 366.80688 369.92435 372.68329 376.03979 378.20111 383.12137 391.39813 396.67691 402.31427 407.83212 411.18863 413.34995 416.10889 420.43152">There is no premium charge for this benefit. The minimum benefit amount is $5,000, the maximum benefit amount is </tspan>
      <tspan y="107.90664" x="-77.239799 -73.883278 -68.36544 -63.56472 -61.4034 -58.644482 -53.843761 -49.521118 -45.07896 -40.27824 -36.075119 -33.913799 -28.635 -25.637039 -23.356199 -17.83836 -12.32052 -10.1592 -4.5218401 0.27888 4.3624802 8.92416 13.72488 19.36224 22.71876 24.880079 30.15888 33.27636 35.437679 38.794201 44.431561 49.232281 51.3936 58.1166 62.91732 67.837563 71.194077 76.711922 78.873238 85.1082 89.90892 95.54628 100.347 103.34496 106.10388 109.57992 111.74124 117.02004 121.22316 123.38448 128.42424 133.94208 139.45992 144.97775 147.13908 152.65692 158.17476 163.6926 165.85393 168.01524 177.25812 182.05884 184.33968 192.01884 194.77776 197.53668 200.29559 202.45692 207.97476 213.25356 216.7296 218.89091 223.81116 226.57008 229.32899 234.6078 242.28696 244.44827 249.96613 254.88635 260.40421 265.20493 268.32239 271.08133 274.43784 278.76047 280.92181 286.55917 292.077 297.59485 302.51508 306.59869 308.76001 312.11652 317.75388 320.51279 324.83545 326.99677 331.08035 333.9588 339.47665 344.39688 348.48047 350.64182 353.40073 356.51819 358.67953 362.03604 367.6734 372.47412 374.63544 377.51389 383.03171 387.35437 392.87219 397.07532 401.87604 407.5134 409.67471 413.99734">the lesser of 55 percent of the Death Benefit or $100,000. We will not allow benefits under this rider if the insured’s </tspan>
      <tspan y="119.54988" x="-77.239799 -73.883278 -69.082558 -64.87944 -56.60268 -53.843761 -48.32592 -43.405682 -40.646759 -38.485439 -35.726521 -32.967602 -30.208679 -24.57132 -19.770599 -15.44796 -11.12532 -8.9639997 -3.6852 0.51792002 2.67924 6.0357599 10.956 15.0396 23.31636 26.194799 31.712641 36.632881 39.3918 41.55312 44.431561 49.949402 52.588799 58.10664 62.190239 67.359482 69.520798 73.723923 78.524643 82.847282 88.36512 91.124039 94.48056 98.8032 100.96452 106.48236 109.24128 113.4444 118.24512 122.68728 126.0438 128.80272 133.84248 136.0038 141.40211 145.48572 147.64703 150.52548 156.04332 161.56116 164.43961 168.52319 173.32391 177.76608 181.1226 183.88152 188.92128 191.0826 194.20007 198.28368 203.56248 211.95876 214.12009 216.879 222.51636 225.87288 230.79312 236.31096 239.66748 242.42641 247.82472 253.34256 258.26279 261.02173 263.18304 267.50568 272.3064 275.06531 278.08319 281.43973 284.31815 289.836 292.83395 295.59286 298.35181 302.79395 306.15048 310.9512 316.58856 318.74988 321.50879 327.14615 329.78555 335.30341 339.38699 344.42676 346.46857 348.75937 354.63577 360.27313 365.07385 367.23517 372.1554 380.43216 385.71097 391.34833 396.86615 400.22269">terminal illness or terminal injury results directly or indirectly from intentional self-inflicted injury. The amount </tspan>
      <tspan y="131.31264" x="-77.239799 -72.319557 -66.80172 -61.761959 -56.841721 -51.323879 -46.881721 -42.081001 -36.56316 -34.282318 -28.884001 -24.083281 -19.641121 -14.2428 -5.9660401 -1.16532 3.27684 5.4381599 10.3584 12.51972 15.27864 18.03756 22.83828 28.475639 30.636959 36.035278 41.55312 43.833961 47.190479 52.708321 57.509041 59.789879 65.307716 70.586517 73.345444 76.104362 80.546516 85.586281 87.747597 95.426758 98.305199 101.66172 107.17956 109.34088 114.26112 119.77896 122.0598 124.81872 130.33656 133.81261 138.61333 142.81644 147.61716 151.9398 155.29633 157.45764 162.01932 167.53716 172.4574 176.541 181.46124 186.26196 188.5428 193.82159 196.81956 198.98088 204.49872 213.50256 215.54436">advanced becomes a lien on the policy with an interest charge of 8%. </tspan>
    </text>
    <text
    id="text6800"
    style="font-size:10px;"
    transform="matrix(1,0,0,-1,49.56,318.9601)">
      <tspan y="0" x="0 5.7568798 11.7528 16.31448 21.951839 27.94776 31.065241 35.746441 37.907761 41.383801 44.501282 47.618759 53.614681 59.013 63.57468 68.13636 70.297684 77.020683 80.138161 86.134079 91.41288 95.974564">Chronic Illness Rider </tspan>
    </text>
    <path
    id="path6804"
    style="fill:#000000;fill-opacity:1;fill-rule:nonzero;stroke:none"
    d="m 49.56,317.76 95.999,0 0,0.72 -95.999,0 0,-0.72 z" />
    <text
    id="text6806"
    style="font-size:10px;"
    transform="matrix(1,0,0,-1,49.56,307.32)">
      <tspan y="0" x="0 5.6373601 10.91616 16.434 18.59532 26.87208 31.79232 36.951599 39.112919 43.913639 46.672562 51.473282 55.91544 59.391479 61.552799 64.909317 70.30764 72.468964 76.672081 81.472801 85.914963 90.715683 93.474602 98.633881 103.4346 105.59592 110.51616 112.67748 118.43436 123.9522 128.0358 133.31461 138.83244 141.59135 146.03352 148.19484 151.43184 154.19077 156.94968 162.58704 167.38776 171.7104 176.03304 178.19437 184.43929 188.88144 193.32359 198.12431 200.88324 205.80348 209.88708 214.80733 218.16383 222.96455 228.60191 230.76324 237.48624 242.28696 247.2072 250.56372 256.08157 258.24289 264.35831 269.27856 274.91592 279.71664 282.7146 285.47351 288.94955 291.11087 296.38968 302.02704 304.18835 307.54489 313.18225 317.98297 320.14429 325.5426 330.46283 334.91495 339.71567 341.87701 344.75543 350.27328 354.59592 360.23328 364.31689 369.11761 374.75497 376.91629 382.55365 386.63724 391.91605 396.95581 399.71472 405.35208 410.1528 415.67065 418.31003">You may elect to receive a Chronic Illness Accelerated Death Benefit on the base insured provided: </tspan>
      <tspan y="11.76276" x="-0.0099600004 5.5078802 7.5496802 9.7110004 15.5874 21.22476 26.02548 28.1868 33.94368 36.702599 39.461521 47.738281 50.616718 56.13456 61.054798 64.411324 67.170242 72.449043 78.086403 80.247719 86.004601 90.805321 94.888924 97.767357 103.04616 108.564 110.72532 116.24316 121.28292 125.60556 127.76688 133.16521 138.08543 143.00568 148.52351 150.68484 159.08112 163.88184 167.23836 169.87776 172.03908 177.07884 182.59668 188.11452">1. The Elimination Period has been met; and </tspan>
      <tspan y="23.52552" x="-0.0099600004 5.5078802 7.5496802 9.7110004 15.5874 21.22476 26.02548 28.1868 31.54332 37.061161 41.383801 46.901642 50.985241 55.905479 61.423321 63.584641 69.222 74.142242 78.225838 82.548477 87.827278 93.345123 95.625961 98.38488 102.70752 104.86884 109.311 114.23124 118.31484 121.79088 124.5498 127.54776 130.30669 135.10741 140.74477 142.90608 148.3044 153.46368 155.625 160.54524 162.70656 168.34392 173.86176 178.90152 183.22417 185.98308 190.42525 193.18416 198.1044 203.74176 205.90308 211.18188 215.38499 217.54633 222.94464 229.78716 235.42451 241.06187 243.34271 246.69923 251.97804 254.13936 259.6572 264.45792 266.61923 272.25659 277.89395 281.97757 287.25635 292.89371 295.65265 300.09479 305.01505 307.77396 310.53287 315.57263 317.73395 320.97095 323.72989 326.4888 329.1282 331.28952 336.20975 341.7276 347.24545">2. The Insured person is certified by a Physician or LHCP to be Chronically Ill; and </tspan>
      <tspan y="35.168758" x="-0.0099600004 5.5078802 7.5496802 9.7110004 18.95388 23.754601 26.03544 30.23856 35.03928 39.481441 44.282162 47.04108 52.200359 57.00108 59.162399 62.518921 68.156281 72.957001 75.237839 82.917 87.000603 89.879044 93.235558 96.592079 101.51232 107.03016 109.19148 113.63364 119.03196 124.5498 128.87244 133.67316 139.31052 142.66704 144.82835 150.22668 153.22464 155.38596 160.3062 163.06512 165.82404 167.98537 170.74428 174.82788 179.03101 183.83173 188.87148 194.15028 198.59244 203.51268 208.911 211.66992 216.59016 218.75148 224.26932 229.18956 234.7074 239.62764 242.6256 245.38452 249.82668 252.5856 257.50583 261.58945 264.34836 269.14908 273.47171 275.63303 280.67279 286.19064 291.70847 296.62872 301.90753 306.11063 308.27197 313.1922 317.51483 321.83749 324.59641 329.51663 335.15399 339.95471 344.75543 349.07809 351.11987">3. We receive the written consent of all irrevocable beneficiaries and/or assignees. </tspan>
    </text>
    <text
    id="text6816"
    style="font-size:10px;"
    transform="matrix(1,0,0,-1,49.55004,248.62572)">
      <tspan y="0" x="0 5.7568798 11.7528 16.31448 21.951839 27.94776 31.065241 35.865959 41.14476 44.262241 47.379719 52.65852 54.819839 58.295879 61.413361 64.530838">Chronically Ill </tspan>
    </text>
    <text
    id="text6820"
    style="font-size:10px;"
    transform="matrix(1,0,0,-1,116.2422,248.62572)">
      <tspan y="0" x="0 8.3066397 13.10736 18.14712 23.664961 27.9876 30.14892 33.50544 39.023281 43.94352 47.300041 49.461361 54.501122 56.662441 62.180279 67.69812 72.737877 77.060516 79.819443 84.261597 87.020523 91.940758 97.458603 99.619919 105.01824 109.10184 111.26316 116.66148 119.4204 123.86256 128.78281 134.30064 138.62328 143.54352 149.06136 151.22269 158.18472 162.98544 167.90569 170.6646 174.02112 179.53896 181.70029 187.33765 192.25787 196.34148 201.1422 203.42303 209.06039 213.144 218.06424 222.50639 225.86292 228.62184 231.97836 234.8568 240.1356 245.77296 250.57368 254.77679 256.93811 262.45596 267.37619 271.69885 273.86017 278.30231 283.10303 287.18665 290.66269 293.4216 296.53909 299.298 304.09872 309.61655 311.8974 319.57657 322.33548 325.69199 331.20984 334.08829 339.60611 341.76743 345.12396 350.76132 355.56204 357.72336 360.48227 365.40253 369.72516 373.08167 375.24301 380.76083 386.39819 388.55951 396.83627 402.23459 407.75244 411.10895 416.74631 421.06897">means that a physician or Licensed Health Care Practitioner has certified within the last 12 months </tspan>
      <tspan y="11.64324" x="-66.692162 -63.33564 -57.817799 -52.89756 -49.541039 -47.379719 -44.023201 -38.50536 -33.585121 -31.4238 -28.1868 -22.668961 -18.346319 -12.82848 -8.6253595 -3.82464 1.6932 4.4521198">that the Insured: </tspan>
      <tspan y="23.406" x="-66.692162 -62.857559 -57.937321 -54.092758 -51.931438 -48.694439 -44.371799 -42.21048 -36.57312 -31.7724 -27.569281 -19.292521 -14.37228 -8.7349195 -3.9342 1.58364 4.9401598 7.69908 12.73884 14.90016 20.537519 26.055361 30.975599 36.37392 39.132839 44.053082 46.214401 49.570919 54.969238 57.130562 62.648399 67.568642 71.652237 74.6502 80.048523 84.132118 92.408882 94.68972 102.36888 105.1278 108.48432 114.12168 119.40048 124.91832 128.27484 130.43616 135.47592 140.99376 146.39207 150.71472 154.07124 158.99149 164.62885 167.98537 170.74428 175.66452 178.42345 180.58476 186.81972 191.14236 195.465 198.22392 202.54655 205.90308 210.82332 216.34116 220.78333 225.58405 227.74536 230.74332 234.94644 240.22523 248.502 250.66331 255.58356 261.22092 266.49973 269.85623 275.49359 280.29431 284.37793 286.65875 292.17661 297.09683 301.18045 305.50308 310.78189 316.29971 318.46103 323.38129 326.85733 329.01865 331.77756 336.57828 341.49854 345.82117 349.17767 351.33899 354.81503 362.4942 367.77301 369.93433 376.17923 380.6214 383.97791 386.73685 391.77661 394.65503 398.01157 400.77048 405.5712 410.01337 412.17468 417.573 420.57095">(a) Is Permanently unable to perform without Substantial Assistance from another person at least two Activities of </tspan>
      <tspan y="35.168758" x="-53.1366 -46.533119 -41.612881 -38.853958 -36.095039 -31.055281 -28.893961 -23.49564 -20.736719 -15.69696 -12.93804 -7.4201999 -2.4999599 -0.33864 3.5059199 9.2628002 14.18304 17.53956 20.298479 25.935841 30.856079 32.897881 35.0592 41.065079 46.34388 49.102798 51.861721 56.662441 60.018959 62.8974 68.53476 73.455002 75.496803 77.658119 83.534523 87.618118 92.657883 98.17572 102.49836 105.49632 110.41656 114.50016 118.58376 121.4622 126.98004 131.90028 134.0616 136.22292 142.33836 147.25861 150.61513 156.13297 158.89188 164.40971 169.32996 171.49129 173.6526 180.25607 184.4592 189.37944 193.70209 198.02472 200.78365 206.30148 211.22173 213.38304 218.30328 223.82112 229.45848 231.6198 237.25716 242.53596 248.0538 251.52985 254.28876 259.92612 264.72684 270.24469 274.80637 279.62701 281.78833 285.62292 287.78424 290.90173 296.18051 300.26413 302.42545 307.46521 309.74603 315.26389 320.06461 324.26773 327.02664 332.30545 337.82327 340.10413 345.38293 348.38089 350.54221 356.17957 361.69739 363.85873 368.30087 373.57968 379.09753 383.53967 388.34039 392.78256 398.30042 401.65692 404.41583 409.57513 414.37585 416.53717 422.05499 426.97525 432.13452 436.45715">Daily Living (Eating, Toileting, Transferring, Bathing, Dressing and Continence ) for a period of 90 consecutive days </tspan>
      <tspan y="46.812" x="-53.1366 -48.216358 -42.698521 -37.180679 -35.01936 -31.66284 -26.02548 -21.22476 -17.021641 -12.22092 -7.3006802 -4.3027201 -0.82668 3.97404 8.0576401 10.69704 12.97788 18.25668 22.340281">and thereafter; or </tspan>
      <tspan y="58.57476" x="-66.702118 -62.867519 -57.4692 -53.624641 -51.463322 -45.218399 -40.298161 -34.899841 -29.382 -26.623079 -22.41996 -17.61924 -13.2966 -11.13528 -6.2150402 -0.57767999 4.8206401 9.14328 12.4998 17.42004 22.93788 26.413919 29.17284 34.093079 36.852001 39.013321 43.933559 49.451401 55.08876 59.889481 63.97308 69.01284 71.771759 76.094398 78.853317 84.25164 89.769478 92.050323 95.048279 100.32708 104.5302 106.69152 112.20936 116.41248 121.69128 125.16732 129.96803 134.4102 137.76672 140.52563 145.80444 151.4418 153.60312 156.60107 160.8042 166.08299 174.35976 176.64059 179.99712 185.51495 189.59856 194.39928 199.31952 202.67604 206.99867 209.27953 212.63605 217.91484 220.07616 225.71352 230.51424 235.43448 238.19341 241.54993 247.06776 249.22908 254.14932 259.66714 265.185 267.34631 271.66895 276.5892 279.70667 284.50739 287.86392 292.90369 295.18451 300.70236 306.22021 311.02094 313.18225 316.65829 321.93707 324.09839 329.85529 334.65601 338.85913 347.13589 352.05612 357.69348 362.4942 368.01205 371.48807 373.64941 378.56964 384.08749 389.72485 391.88617 396.92593 401.72665 406.76639 411.68665 415.88977 420.69049">(b) Requires Substantial Supervision for protection from threats to health and safety due to Permanent and Severe </tspan>
      <tspan y="70.337517" x="-53.146561 -47.509201 -42.2304 -37.310162 -31.79232 -29.0334 -25.67688 -22.917959 -17.75868 -12.95796 -10.79664 -7.4401202 0.83664 6.3544798 11.27472 14.03364 18.236759 26.513519 31.43376 36.951599 40.308121 42.349918">Cognitive Impairment. </tspan>
      <tspan y="93.743523" x="-66.712082 -60.596642 -55.795921 -50.148602 -45.347881 -42.349918 -39.591 -36.11496 -33.95364 -28.435801 -23.51556 -18.4758 -10.07952 -5.2788 0.23904 3.5955601 8.0377197 10.19904 17.878201 20.637119 23.39604 26.154961 28.435801 33.834122 38.75436 40.91568 46.433521 51.35376 54.232201 59.750038 61.911362 64.67028 70.30764 72.468964 77.269676 80.148117 83.504639 89.022476 93.942719 98.026321 100.18764 105.70548 114.70932 116.87064 125.1474 130.54572 136.06355 139.42007 144.93793 147.69684 152.7366 154.89792 157.77637 163.2942 167.61684 170.97336 175.8936 178.65253 181.41144 189.6882 194.48892 200.00676 203.36328 207.68591 209.84724 215.24556 219.32916 221.49048 226.41072 232.04808 237.56592 243.08376 248.004 250.76292 252.92424 255.68317 261.20099 269.47775 274.99561 277.15692 281.47955 286.99741 295.39368 299.71631 301.87766 307.15643 310.15439 312.31573 317.83356 323.35141 332.35526 334.51657 339.79535 342.91284 345.07416 348.43069 353.94852 358.86877 361.03009 367.75308 372.5538 377.47403 380.83057 386.34839 388.50974 394.62515 399.54541 405.18277 409.98349 412.98145 415.85989 419.2164 421.25821 423.41953 428.93735 434.4552">Benefit payments will be paid in either 4% monthly installments or annual lump sums of 48% of the Death Benefit, up </tspan>
      <tspan y="105.50628" x="-66.712082 -63.35556 -58.076759 -55.91544 -52.558922 -46.921558 -42.120838 -39.959518 -31.68276 -26.76252 -21.9618 -19.083361 -10.8066 -5.2887602 3.1075201 5.2688398 10.78668 15.5874 21.22476 26.02548 29.023439 31.90188 35.2584 37.41972 42.339958 50.616718 56.015041 61.532879 67.05072 70.407242 72.449043 74.729881 80.606277 86.124123 88.883041 93.205681 95.366997 101.60196 104.36088 109.99824 114.79896 118.88256 121.04388 125.48604 130.88435 136.40221 139.75871 144.67896 147.5574 153.07524 157.39787 159.5592 164.47945 166.64076 172.1586 177.79596 179.95728 185.47511 190.39536 195.43512 197.59644 202.39716 205.15608 207.91499 216.31128 219.07021 224.58804 229.50829 232.86481 235.62372 241.02203 246.53989 248.82072 254.33856 259.25879 263.34241 266.10132 271.38013 276.89795 279.05927 281.22061 284.45761 287.45557 289.73639 293.09293 298.73029 303.53101 305.81183 311.21017 316.1304 321.64825 326.56848 329.56644 332.32535 335.68188 337.96271 340.72165 345.04428 347.2056 352.00632 354.88477 359.68549 364.12766 367.48416 372.28488 377.92224 380.08356 385.00381 390.52164 396.159">to the maximum benefit amount. This Rider contains a 90 day elimination period. If the benefit is elected and </tspan>
      <tspan y="117.26904" x="-66.712082 -61.194241 -56.273998 -51.234241 -42.957481 -38.037239 -32.519402 -29.16288 -24.84024 -22.678921 -17.75868 -13.55556 -8.7548399 -6.474 -1.07568 3.72504 6.6034799 12.12132 17.161079 19.322399 23.52552 28.326241 32.768398 37.569118 40.328041 45.48732 50.28804 55.9254 58.08672 63.006962 65.765877 68.524803 70.686119 76.203957 81.482758 84.241676 87.000603 91.442757 96.482521 98.643837 104.16168 108.3648 113.16552 121.44228 124.2012 129.71904 137.9958 142.43796 144.59927 149.51952 153.60312 158.52336 160.68468 168.36385 173.28407 176.16252 181.20229 186.00301 191.52084 193.69212">payments are being received all policy premiums are waived. </tspan>
    </text>
  </g>
</svg>