<svg id="Layer_1" data-name="Layer 1" xmlns="http://www.w3.org/2000/svg" xmlns:xlink="http://www.w3.org/1999/xlink" viewBox="0 0 612 792">
<defs>
<style>
  .cls-1,.cls-3{fill:none;}.cls-2{clip-path:url(#clip-path);}.cls-3{stroke:#000;stroke-miterlimit:10;stroke-width:0.96px;}
  .cls-4{
    font-size:11px;
    font-family:PT Sans;
    letter-spacing:-0.06em;
  }
</style>
<clipPath id="clip-path">
<rect class="cls-1" width="612" height="792"/>
</clipPath>
</defs>
<title>ML-IN-A_(2-04)page2</title>
<g class="cls-2">
<line class="cls-3" x1="338.16" y1="318.48" x2="574.8" y2="318.48"/>
<line class="cls-3" x1="338.88" y1="391.92" x2="575.52" y2="391.92"/>
<line class="cls-3" x1="338.88" y1="344.4" x2="575.52" y2="344.4"/>
<line class="cls-3" x1="338.16" y1="278.88" x2="574.8" y2="278.88"/>
<line class="cls-3" x1="338.88" y1="368.16" x2="575.52" y2="368.16"/>
<line class="cls-3" x1="338.88" y1="432.24" x2="575.52" y2="432.24"/>
<line class="cls-3" x1="0" y1="318.48" x2="276" y2="318.48"/>
<line class="cls-3" x1="0" y1="278.88" x2="276" y2="278.88"/>
</g>
<text class="cls-4" transform="translate(0 102.96)">Indiana Department of Insurance Regulation, 760 IAC 1-16.1 requires that the company making the replacement notify </text>
<text class="cls-4" transform="translate(0 116.64)">
<tspan xml:space="preserve">your existing insurance company that you may be replacing your existing policy.  (You have the right, within twenty days </tspan>
</text>
<text class="cls-4" transform="translate(0 130.32)">after delivery of a replacement policy, to return it to the company and to claim an unconditional refund of all premiums </text>
<text class="cls-4" transform="translate(0 144)">paid on it.)</text>
<text class="cls-4" transform="translate(0 289.44)">Applicant&apos;s/Insured&apos;s Signature</text>
<text class="cls-4" transform="translate(339.6 290.16)">Replacing Agent&apos;s Signature</text>
<text class="cls-4" transform="translate(0 329.76)">Date</text>
<text class="cls-4" transform="translate(130.8 330.48)">Address</text>
<text class="cls-4" transform="translate(339.6 403.2)">Telephone Number</text>
<text class="cls-4" transform="translate(339.6 443.52)">Indiana License Number</text>
</svg>