<svg xmlns="http://www.w3.org/2000/svg" xmlns:xlink="http://www.w3.org/1999/xlink" id="Layer_1" data-name="Layer 1" viewBox="0 0 765 990">
  <defs>
    <!--
      At current rendering engine versions, Chrome renders sub-pixel letter-spacing adjustments, but not fonts for SVG images.
      Similarly, wkhtmltopdf renders installed fonts but not subpixel lette-spacing adjustments.
      If either of these changes, the styling of these forms will likely need to change.
      The web format is lower priority than the pdf, since browser and font variations are expected, as long as it is readable.
    -->
    <style>
        text{
            font-variant:normal;
            font-weight:normal;
            font-family:Arial;
            writing-mode:lr-tb;
            fill:#000000;
            fill-opacity:1;
            fill-rule:nonzero;
            stroke:none;
          }
      .cls-1,.cls-3,.cls-4{fill:none;}.cls-2{clip-path:url(#clip-path);}.cls-3,.cls-4{stroke:#000;stroke-miterlimit:10;}.cls-3{stroke-width:0.48px;}.cls-4{stroke-width:0.96px;}
    </style>
    <clipPath id="clip-path">
      <rect class="cls-1" width="765" height="990"/>
    </clipPath>
  </defs>
  <title>ML-KY-A(1-06)page1</title>
  <g class="cls-2">
    <rect class="cls-3" x="585" y="666" width="9.12" height="9.12"/>
    <rect class="cls-3" x="585" y="679.2" width="9.12" height="9.12"/>
    <rect class="cls-3" x="585" y="691.92" width="9.12" height="9.12"/>
    <line class="cls-4" x1="265" y1="726.72" x2="325" y2="726.72"/>
    <line class="cls-4" x1="39.36" y1="696" x2="550" y2="696"/>
    <line class="cls-4" x1="270" y1="101.76" x2="620" y2="101.76"/>
    <line class="cls-4" x1="39.36" y1="612.48" x2="550" y2="612.48"/>
    <line class="cls-4" x1="341" y1="572.16" x2="702" y2="572.16"/>
    <line class="cls-4" x1="600" y1="700.8" x2="714" y2="700.8"/>
  </g>
  <text style="font-size:14px;">
    <tspan x="225" y="24.24">MOTORISTS LIFE INSURANCE COMPANY</tspan>
    <tspan x="200" y="39.12">471 East Broad Street, Columbus, Ohio 43215-3861</tspan>
    <tspan x="320" y="55.68">(614) 225-8358</tspan>
    <tspan x="318" y="77.28">OFFICE FORM A</tspan>
    <tspan x="122.64" y="98.88">IMPORTANT NOTICE:  REPLACEMENT OF LIFE INSURANCE OR ANNUITIES</tspan>
  </text>
  <text style="font-size:12px;">
    <tspan x="83.52" y="116.16">This document must be signed by the applicant and the agent, if there is one, and a copy left with the applicant.</tspan>
    <tspan x="39.36" y="134.4">You are contemplating the purchase of a life insurance policy or annuity contract. In some cases this purchase may involve</tspan>
    <tspan x="39.36" y="146.88">discontinuing or changing an existing policy or contract. If so, a replacement is occurring. Financed purchases are also considered</tspan>
    <tspan x="39.36" y="159.36">replacements.</tspan>
    <tspan x="39.36" y="177.36">A replacement occurs when a new policy or contract is purchased and, in connection with the sale, you discontinue making premium</tspan>
    <tspan x="39.36" y="189.84">payments on the existing policy or contract, or an existing policy or contract is surrendered, forfeited, assigned to the replacing</tspan>
    <tspan x="39.36" y="202.32">insurer, or otherwise terminated or used in a financed purchase.</tspan>
    <tspan x="39.36" y="221.52">A financed purchase occurs when the purchase of a new life insurance policy involves the use of funds obtained by the withdrawal</tspan>
    <tspan x="39.36" y="234">or surrender of or by borrowing some or all of the policy values, including accumulated dividends, of an existing policy to pay all</tspan>
    <tspan x="39.36" y="246.48">or part of any premium or payment due on the new policy. A financed purchase is a replacement.</tspan>
    <tspan x="39.36" y="266.4">You should carefully consider whether a replacement is in your best interests. You will pay acquisition costs and there may be</tspan>
    <tspan x="39.36" y="278.88">surrender costs deducted from your policy or contract. You may be able to make changes to your existing policy or contract to</tspan>
    <tspan x="39.36" y="291.36">meet your insurance needs at less cost. A financed purchase will reduce the value of your existing policy and may reduce the</tspan>
    <tspan x="39.36" y="303.84">amount paid upon the death of the insured.</tspan>
    <tspan x="39.36" y="324">We want you to understand the effects of replacements before you make your purchase decision and ask that you answer the</tspan>
    <tspan x="39.36" y="336.48">following questions and consider the questions on the back of this form.</tspan>
    <tspan x="51.84" y="354.72">1.</tspan>
    <tspan x="68.64" y="354.72">Are you considering discontinuing making premium payments, surrendering, forfeiting, assigning to the insurer, or otherwise</tspan>
    <tspan x="68.64" y="367.2">terminating your existing policy or contract?   ____ Yes   ___ No</tspan>
    <tspan x="51.84" y="383.52">2.</tspan>
    <tspan x="68.64" y="383.52">Are you considering using funds from your existing policies or contracts to pay premiums due on the new policy or contract?</tspan>
    <tspan x="68.64" y="396">___ Yes   ___ No</tspan>
    <tspan x="39.36" y="415.44">If you answered "yes" to either of the above questions, list each existing policy or contract you are contemplating replacing (include</tspan>
    <tspan x="39.36" y="427.92">the name of the insurer, the insured or annuitant, and the policy or contract number if available) and whether each policy or</tspan>
    <tspan x="39.36" y="440.4">contract will be replaced or used as a source of financing: </tspan>
    <tspan x="120" y="458.4">INSURER</tspan>
    <tspan x="280" y="458.4">CONTRACT OR</tspan>
    <tspan x="440" y="458.4">INSURED OR</tspan>
    <tspan x="590" y="458.4">REPLACED (R) OR</tspan>
    <tspan x="128" y="470.16">NAME</tspan>
    <tspan x="294" y="470.16">POLICY #</tspan>
    <tspan x="443" y="470.16">ANNUITANT</tspan>
    <tspan x="597" y="470.16">FINANCING (F)</tspan>
    <tspan x="51.84" y="480.72">1.</tspan>
    <tspan x="51.84" y="494.16">2.</tspan>
    <tspan x="51.84" y="507.84">3.</tspan>
    <tspan x="39.36" y="524.16">Make sure you know the facts. Contact your existing company or its agent for information about the old policy or contract. If you</tspan>
    <tspan x="39.36" y="536.64">request one, an in force illustration, policy summary or available disclosure documents must be sent to you by the existing insurer.</tspan>
    <tspan x="39.36" y="549.12">Ask for and retain all sales material used by the agent in the sales presentation. Be sure that you are making an informed decision.</tspan>
    <tspan x="39.36" y="570.96">The existing policy or contract is being replaced because</tspan>
    <tspan x="39.36" y="591.6">I certify that the responses herein are, to the best of my knowledge, accurate:</tspan>
    <tspan x="39.36" y="623.04">Applicant's Signature and Printed Name</tspan>
    <tspan x="475" y="623.04">Date</tspan>
    <tspan x="39.36" y="643.68">I have complied with the procedures stated by the Kentucky Office of Insurance and Motorists Life relating to life and annuity policy</tspan>
    <tspan x="39.36" y="656.16">placements and financed purchases.</tspan>
    <tspan x="600" y="672.96">client brochure</tspan>
    <tspan x="39.36" y="674.16">All sales materials I used are Motorists Life approved and a copy of the followling was left with my client:</tspan>
    <tspan x="600" y="686.16">illustration</tspan>
    <tspan x="39.36" y="706.56">Agent's Signature and Printed Name</tspan>
    <tspan x="475" y="706.56">Date</tspan>
    <tspan x="600" y="709.92">other (please specify)</tspan>
    <tspan x="39.36" y="726.24">I do not want this notice read aloud to me.</tspan>
    <tspan x="38.16" y="738.48">(Applicants must initial only if they do not want the notice read aloud.)</tspan>
    <tspan x="463.44" y="752.16">(one copy home office)</tspan>
    <tspan x="463.44" y="764.88">(one copy applicant)</tspan>
    <tspan x="39.36" y="765.84">ML-KY-A (1-06)</tspan>
  </text>
</svg>