<svg
  xmlns:dc="http://purl.org/dc/elements/1.1/"
  xmlns:cc="http://creativecommons.org/ns#"
  xmlns:rdf="http://www.w3.org/1999/02/22-rdf-syntax-ns#"
  xmlns:svg="http://www.w3.org/2000/svg"
  xmlns="http://www.w3.org/2000/svg"
  viewBox="0 0 765 990"
  height="990"
  width="765"
  xml:space="preserve"
  version="1.1"
  id="svg4190">
  <metadata id="metadata4196">
    <rdf:RDF><cc:Work rdf:about=""><dc:format>image/svgxml</dc:format><dc:type rdf:resource="http://purl.org/dc/dcmitype/StillImage" /><dc:title></dc:title></cc:Work></rdf:RDF>
  </metadata>
  <defs id="defs4194">
    <style>
      text{
        font-variant:normal;
        font-weight:normal;
        font-size:11px;
        font-family:PT Sans;
        letter-spacing:-0.06em;
        writing-mode:lr-tb;
        fill:#000000;
        fill-opacity:1;
        fill-rule:nonzero;
        stroke:none;
      }
    </style>
  </defs>
  <g transform="matrix(1.25,0,0,-1.25,0,990)"
    id="g4198">
    <path
    d="m 487,116.88 9.12,0 0,9.12 -9.12,0 0,-9.12 z"
    style="fill:none;stroke:#000000;stroke-width:0.47999999;stroke-linecap:butt;stroke-linejoin:miter;stroke-miterlimit:10;stroke-dasharray:none;stroke-opacity:1"
    id="path4202" />
    <path
    d="m 487,103.68 9.12,0 0,9.12 -9.12,0 0,-9.12 z"
    style="fill:none;stroke:#000000;stroke-width:0.47999999;stroke-linecap:butt;stroke-linejoin:miter;stroke-miterlimit:10;stroke-dasharray:none;stroke-opacity:1"
    id="path4204" />
    <path
    d="m 487,90.96 9.12,0 0,9.12 -9.12,0 0,-9.12 z"
    style="fill:none;stroke:#000000;stroke-width:0.47999999;stroke-linecap:butt;stroke-linejoin:miter;stroke-miterlimit:10;stroke-dasharray:none;stroke-opacity:1"
    id="path4206" />
    <path
    d="m 219.12,65.28 58.56,0"
    style="fill:none;stroke:#000000;stroke-width:0.95999998;stroke-linecap:square;stroke-linejoin:round;stroke-miterlimit:10;stroke-dasharray:none;stroke-opacity:1"
    id="path4208" />
    <path
    d="m 0,96 418,0"
    style="fill:none;stroke:#000000;stroke-width:0.95999998;stroke-linecap:square;stroke-linejoin:round;stroke-miterlimit:10;stroke-dasharray:none;stroke-opacity:1"
    id="path4210" />
    <path
    d="m 203,690.24 270,0"
    style="fill:none;stroke:#000000;stroke-width:0.95999998;stroke-linecap:square;stroke-linejoin:round;stroke-miterlimit:10;stroke-dasharray:none;stroke-opacity:1"
    id="path4212" />
    <path
    d="m 0,179.52 418,0"
    style="fill:none;stroke:#000000;stroke-width:0.95999998;stroke-linecap:square;stroke-linejoin:round;stroke-miterlimit:10;stroke-dasharray:none;stroke-opacity:1"
    id="path4214" />
    <path
    d="m 265,219.84 305,0"
    style="fill:none;stroke:#000000;stroke-width:0.95999998;stroke-linecap:square;stroke-linejoin:round;stroke-miterlimit:10;stroke-dasharray:none;stroke-opacity:1"
    id="path4216" />
    <path
    d="m 500,91.2 83.52,0"
    style="fill:none;stroke:#000000;stroke-width:0.95999998;stroke-linecap:square;stroke-linejoin:round;stroke-miterlimit:10;stroke-dasharray:none;stroke-opacity:1"
    id="path4218" />
    <path
    d="m 64,276 504,0 0,48 -543,0 0,-48 z"
    style="fill:none;stroke:#000000;stroke-width:0.47999999;stroke-linecap:butt;stroke-linejoin:round;stroke-miterlimit:10;stroke-dasharray:none;stroke-opacity:1"
    id="path4330" />
    <path
    d="m 175,324 0,-48"
    style="fill:none;stroke:#000000;stroke-width:0.47999999;stroke-linecap:butt;stroke-linejoin:round;stroke-miterlimit:10;stroke-dasharray:none;stroke-opacity:1"
    id="path4332" />
    <path
    d="m 25,307.98 543,0"
    style="fill:none;stroke:#000000;stroke-width:0.47999999;stroke-linecap:butt;stroke-linejoin:round;stroke-miterlimit:10;stroke-dasharray:none;stroke-opacity:1"
    id="path4336" />
    <path
    d="m 25,291 543,0"
    style="fill:none;stroke:#000000;stroke-width:0.47999999;stroke-linecap:butt;stroke-linejoin:round;stroke-miterlimit:10;stroke-dasharray:none;stroke-opacity:1"
    id="path4338" />
    <path
    d="m 450,324 0,-48"
    style="fill:none;stroke:#000000;stroke-width:0.47999999;stroke-linecap:butt;stroke-linejoin:round;stroke-miterlimit:10;stroke-dasharray:none;stroke-opacity:1"
    id="path4340" />
    <path
    d="m 307,324 0,-48"
    style="fill:none;stroke:#000000;stroke-width:0.47999999;stroke-linecap:butt;stroke-linejoin:round;stroke-miterlimit:10;stroke-dasharray:none;stroke-opacity:1"
    id="path4346" />
    <text y="-767.76001" x="205.92"
      transform="scale(1,-1)"
      class="text"
      style="font-size:12px;"
      id="text4220">
      <tspan x="206" y="-767.76001">MOTORISTS LIFE INSURANCE COMPANY</tspan>
      <tspan x="190" y="-752.88">471 East Broad Street, Columbus, Ohio 43215-3861</tspan>
      <tspan x="270" y="-736.32001">(614) 225-8358</tspan>
      <tspan x="93" y="-693.12">IMPORTANT NOTICE: REPLACEMENT OF LIFE INSURANCE OR ANNUITIES</tspan>
    </text>
    <text y="-675.84003" x="83.519997"
      transform="scale(1,-1)"
      class="text"
      style="font-size:10px;"
      id="text4232">
      <tspan x="54" y="-675.84003">This document must be signed by the applicant and the producer, if there is one, and a copy left with the applicant.</tspan>
      <tspan x="0" y="-657.59998">You are contemplating the purchase of a life insurance policy or annuity contract. In some cases this purchase may involve</tspan>
      <tspan x="0" y="-645.12">discontinuing or changing an existing policy or contract. If so, a replacement is occurring. Financed purchases are also considered</tspan>
      <tspan x="0" y="-632.64001">replacements.</tspan>
      <tspan x="0" y="-614.64001">A replacement occurs when a new policy or contract is purchased and, in connection with the sale, you discontinue making premium</tspan>
      <tspan x="0" y="-602.15997">payments on the existing policy or contract, or an existing policy or contract is surrendered, forfeited, assigned to the replacing</tspan>
      <tspan x="0" y="-589.67999">insurer, or otherwise terminated or used in a financed purchase.</tspan>
      <tspan x="0" y="-570.47998">A financed purchase occurs when the purchase of a new life insurance policy involves the use of funds obtained by the withdrawal</tspan>
      <tspan x="0" y="-558">or surrender of or by borrowing some or all of the policy values, including accumulated dividends, of an existing policy to pay all</tspan>
      <tspan x="0" y="-545.52002">or part of any premium or payment due on the new policy. A financed purchase is a replacement.</tspan>
      <tspan x="0" y="-525.59998">You should carefully consider whether a replacement is in your best interests. You will pay acquisition costs and there may be</tspan>
      <tspan x="0" y="-513.12">surrender costs deducted from your policy or contract. You may be able to make changes to your existing policy or contract to</tspan>
      <tspan x="0" y="-500.64001">meet your insurance needs at less cost. A financed purchase will reduce the value of your existing policy and may reduce the</tspan>
      <tspan x="0" y="-488.16">amount paid upon the death of the insured.</tspan>
      <tspan x="0" y="-468">We want you to understand the effects of replacements before you make your purchase decision and ask that you answer the</tspan>
      <tspan x="0" y="-455.51999">following questions and consider the questions on the back of this form.</tspan>
      <tspan x="13" y="-437.28">1.</tspan>
      <tspan x="30" y="-437.28">Are you considering discontinuing making premium payments, surrendering, forfeiting, assigning to the insurer, or otherwise</tspan>
      <tspan x="30" y="-424.79999">terminating your existing policy or contract? ____ Yes ___ No</tspan>
      <tspan x="13" y="-408.48001">2.</tspan>
      <tspan x="30" y="-408.48001">Are you considering using funds from your existing policies or contracts to pay premiums due on the new policy or contract?</tspan>
      <tspan x="30" y="-396">___ Yes ___ No</tspan>
      <tspan x="0" y="-376.56">If you answered &quot;yes&quot; to either of the above questions, list each existing policy or contract you are contemplating replacing (include</tspan>
      <tspan x="0" y="-364.07999">the name of the insurer, the insured or annuitant, and the policy or contract number if available) and whether each policy or</tspan>
      <tspan x="0" y="-351.60001">contract will be replaced or used as a source of financing: </tspan>
      <tspan x="71" y="-338.64001">INSURER</tspan>
      <tspan x="196" y="-338.64001">CONTRACT OR</tspan>
      <tspan x="341" y="-338.64001">INSURED OR</tspan>
      <tspan x="456" y="-338.64001">REPLACED (R) OR</tspan>
      <tspan x="81" y="-326.88">NAME</tspan>
      <tspan x="215" y="-326.88">POLICY #</tspan>
      <tspan x="346" y="-326.88">ANNUITANT</tspan>
      <tspan x="468" y="-326.88">FINANCING (F)</tspan>
      <tspan x="0" y="-264">Make sure you know the facts. Contact your existing company or its agent for information about the old policy or contract. If you</tspan>
      <tspan x="0" y="-251.52">request one, an in force illustration, policy summary or available disclosure documents must be sent to you by the existing insurer.</tspan>
      <tspan x="0" y="-239.03999">Ask for and retain all sales material used by the agent in the sales presentation. Be sure that you are making an informed decision.</tspan>
      <tspan x="0" y="-221.03999">The existing policy or contract is being replaced because</tspan>
      <tspan x="0" y="-200.39999">I certify that the responses herein are, to the best of my knowledge, accurate:</tspan>
      <tspan x="0" y="-168.96001">Applicant's Signature and Printed Name</tspan>
      <tspan x="389" y="-168.96001">Date</tspan>
      <tspan x="0" y="-148.32001">I have complied with the procedures stated by the Nebraska Department of Insurance and Motorists Life relating to life and annuity</tspan>
      <tspan x="0" y="-135.84">policy replacements and financed purchases.</tspan>
      <tspan x="0" y="-117.84">All sales materials I used are Motorists Life approved and a copy of the following was left with my client:</tspan>
      <tspan x="500" y="-119.04">client brochure</tspan>
      <tspan x="500" y="-105.84">illustration</tspan>
      <tspan x="0" y="-85.440002">Producer's Signature and Printed Name</tspan>
      <tspan x="389" y="-85.440002">Date</tspan>
      <tspan x="500" y="-82.080002">other (please specify)</tspan>
      <tspan x="0" y="-65.760002">I do not want this notice read aloud to me.</tspan>
      <tspan x="0" y="-53.52">(Applicants must initial only if they do not want the notice read aloud.)</tspan>
      <tspan x="463" y="-39.84">(one copy home office)</tspan>
      <tspan x="463" y="-27.120001">(one copy applicant)</tspan>
    </text>
    <text y="-24" x="39.599998"
      transform="scale(1,-1)"
      class="text"
      id="text4318">
      <tspan x="0" y="-24">ML-NE (10-09)</tspan>
      <tspan x="270" y="-24">PAGE 1 OF 2</tspan>
    </text>
    <text y="-312.48001" x="51.84"
      transform="scale(1,-1)"
      class="text"
      id="text4322">
      <tspan x="13" y="-312.48001">1.</tspan>
      <tspan x="13" y="-295.67999">2.</tspan>
      <tspan x="13" y="-279.12">3.</tspan>
    </text>
  </g>
</svg>