<svg
  xmlns:dc="http://purl.org/dc/elements/1.1/"
  xmlns:cc="http://creativecommons.org/ns#"
  xmlns:rdf="http://www.w3.org/1999/02/22-rdf-syntax-ns#"
  xmlns:svg="http://www.w3.org/2000/svg"
  xmlns="http://www.w3.org/2000/svg"
  viewBox="0 0 765 990"
  height="990"
  width="765"
  xml:space="preserve"
  version="1.1"
  id="svg4190">
  <metadata id="metadata4196">
    <rdf:RDF><cc:Work rdf:about=""><dc:format>image/svgxml</dc:format><dc:type rdf:resource="http://purl.org/dc/dcmitype/StillImage" /><dc:title></dc:title></cc:Work></rdf:RDF>
  </metadata>
  <defs id="defs4194">
    <style>
      text{
        font-variant:normal;
        font-weight:normal;
        font-size:11px;
        font-family:PT Sans;
        letter-spacing:-0.06em;
        writing-mode:lr-tb;
        fill:#000000;
        fill-opacity:1;
        fill-rule:nonzero;
        stroke:none;
      }
    </style>
  </defs>
  <g transform="matrix(1.25,0,0,-1.25,0,990)"
    id="g7970">
    <text y="-740" x="39.4"
      transform="scale(1,-1)"
      class="text"
      style="font-size:10px;"
      id="text7974">
      <tspan x="15" y="-740">A replacement may not be in your best interest, or your decision could be a good one. You should make a careful comparison of the</tspan>
      <tspan x="15" y="-727.6">costs and benefits of your existing policy or contract and the proposed policy or contract. One way to do this is to ask the company</tspan>
      <tspan x="15" y="-715">or agent that sold you your existing policy or contract to provide you with information concerning your existing policy or contract.</tspan>
      <tspan x="15" y="-702.7">This may include an illustration of how your existing policy or contract is working now and how it would perform in the future based</tspan>
      <tspan x="15" y="-690">on certain assumptions. Illustrations should not, however, be used as a sole basis to compare policies or contracts. You should</tspan>
      <tspan x="15" y="-677.76001">discuss the following with your agent to determine whether replacement or financing your purchase makes sense:</tspan>
      <tspan x="15" y="-644">PREMIUMS:</tspan>
      <tspan x="105" y="-644">Are they affordable?</tspan>
      <tspan x="105" y="-626.9">Could they change?</tspan>
      <tspan x="105" y="-609.6">You're older--are premiums higher for the proposed new policy?</tspan>
      <tspan x="105" y="-592">How long will you have to pay premiums on the new policy? On the old policy?</tspan>
      <tspan x="15" y="-557.5">POLICY VALUES:</tspan>
      <tspan x="105" y="-557.5">New policies usually take longer to build cash values and to pay dividends.</tspan>
      <tspan x="105" y="-540">Acquisition costs for the old policy may have been paid, you will incur costs for the new one.</tspan>
      <tspan x="105" y="-523">What surrender charges do the policies have?</tspan>
      <tspan x="105" y="-505.7">What expense and sales charges will you pay on the new policy?</tspan>
      <tspan x="105" y="-487.9">Does the new policy provide more insurance coverage?</tspan>
      <tspan x="15" y="-454">INSURABILITY:</tspan>
      <tspan x="105" y="-454">If your health has changed since you bought your old policy, the new one could cost you more, or you</tspan>
      <tspan x="105" y="-441.6">could be turned down.</tspan>
      <tspan x="105" y="-424">You may need a medical exam for a new policy.</tspan>
      <tspan x="105" y="-406.8">Claims on most new policies for up to the first two years can be denied based on inaccurate statements.</tspan>
      <tspan x="105" y="-389.5">Suicide limitations may begin anew on the new coverage.</tspan>
      <tspan x="15" y="-357">IF YOU ARE KEEPING THE OLD POLICY AS WELL AS THE NEW POLICY:</tspan>
      <tspan x="105" y="-339.8">How are premiums for both policies being paid?</tspan>
      <tspan x="105" y="-322.6">How will the premiums on your existing policy be affected?</tspan>
      <tspan x="105" y="-305">Will a loan be deducted from death benefits?</tspan>
      <tspan x="105" y="-288.5">What values from the old policy are being used to pay premiums?</tspan>
      <tspan x="15" y="-254.9">IF YOU ARE SURRENDERING AN ANNUITY OR INTEREST SENSITIVE LIFE PRODUCT:</tspan>
      <tspan x="105" y="-237.6">Will you pay surrender charges on your old contract?</tspan>
      <tspan x="105" y="-220">What are the interest rate guarantees for the new contract?</tspan>
      <tspan x="105" y="-203">Have you compared the contract charges or other policy expenses?</tspan>
      <tspan x="15" y="-171">OTHER ISSUES TO CONSIDER FOR ALL TRANSACTIONS:</tspan>
      <tspan x="105" y="-153.8">What are the tax consequences of buying the new policy?</tspan>
      <tspan x="105" y="-136.6">Is this a tax-free exchange? (See your tax advisor.)</tspan>
      <tspan x="105" y="-119">Is there a benefit from favorable &quot;grandfathered&quot; treatment of the old policy under the federal tax code?</tspan>
      <tspan x="105" y="-101.5">Will the existing insurer be willing to modify the old policy?</tspan>
      <tspan x="105" y="-84.7">How does the quality and financial stability of the new company compare with your existing company?</tspan></text>
    <text y="-26.16" x="39.4"
      transform="scale(1,-1)"
      class="text"
      id="text8046">
      <tspan x="15" y="-26.16">ML-NE (10-09)</tspan>
      <tspan x="266" y="-26.16">PAGE 2 OF 2</tspan>
    </text>
  </g>
</svg>