<?xml version="1.0" encoding="UTF-8" standalone="no"?>
<svg
  xmlns:dc="http://purl.org/dc/elements/1.1/"
  xmlns:cc="http://creativecommons.org/ns#"
  xmlns:rdf="http://www.w3.org/1999/02/22-rdf-syntax-ns#"
  xmlns:svg="http://www.w3.org/2000/svg"
  xmlns="http://www.w3.org/2000/svg"
  viewBox="0 0 765 990"
  height="990"
  width="765"
  xml:space="preserve"
  version="1.1"
  id="svg11106">
  <metadata id="metadata11112">
    <rdf:RDF>
    <cc:Work rdf:about="">
    <dc:format>image/svg+xml</dc:format>
    <dc:type rdf:resource="http://purl.org/dc/dcmitype/StillImage" />
    <dc:title>
    </dc:title>
    </cc:Work>
    </rdf:RDF>
  </metadata>
  <defs id="defs11110">
    <clipPath
      id="clipPath11124"
      clipPathUnits="userSpaceOnUse">
      <path id="path11126"
        d="m 0,0 2550,0 0,3300 L 0,3300 0,0 Z" />
    </clipPath>
    <style>
      text{
        font-variant:normal;
        font-weight:normal;
        font-size:11px;
        font-family:Arial;
        letter-spacing:-0.06em;
        writing-mode:lr-tb;
        fill:#000000;
        fill-opacity:1;
        fill-rule:nonzero;
        stroke:none;
      }
    </style>
  </defs>
  <g transform="matrix(1.25,0,0,-1.25,0,990)"
    id="g11114">
    <g transform="scale(0.24,0.24)"
      id="g11128">
      <path id="path11130"
      style="fill:none;stroke:#000000;stroke-width:4;stroke-linecap:butt;stroke-linejoin:miter;stroke-miterlimit:10;stroke-dasharray:none;stroke-opacity:1"
      d="m 1796,803 602,0" />
      <path id="path11132"
      style="fill:none;stroke:#000000;stroke-width:4;stroke-linecap:butt;stroke-linejoin:miter;stroke-miterlimit:10;stroke-dasharray:none;stroke-opacity:1"
      d="m 317,803 1046,0" />
      <path id="path11134"
      style="fill:none;stroke:#000000;stroke-width:4;stroke-linecap:butt;stroke-linejoin:miter;stroke-miterlimit:10;stroke-dasharray:none;stroke-opacity:1"
      d="m 821,1714 908,0" />
      <path id="path11136"
      style="fill:none;stroke:#000000;stroke-width:4;stroke-linecap:butt;stroke-linejoin:miter;stroke-miterlimit:10;stroke-dasharray:none;stroke-opacity:1"
      d="m 821,1604 908,0" />
      <path id="path11138"
      style="fill:none;stroke:#000000;stroke-width:4;stroke-linecap:butt;stroke-linejoin:miter;stroke-miterlimit:10;stroke-dasharray:none;stroke-opacity:1"
      d="m 821,1494 908,0" />
      <path id="path11140"
      style="fill:none;stroke:#000000;stroke-width:4;stroke-linecap:butt;stroke-linejoin:miter;stroke-miterlimit:10;stroke-dasharray:none;stroke-opacity:1"
      d="m 821,1384 908,0" />
      <path id="path11142"
      style="fill:none;stroke:#000000;stroke-width:4;stroke-linecap:butt;stroke-linejoin:miter;stroke-miterlimit:10;stroke-dasharray:none;stroke-opacity:1"
      d="m 821,1274 908,0" />
      <path id="path11144"
      style="fill:none;stroke:#000000;stroke-width:4;stroke-linecap:butt;stroke-linejoin:miter;stroke-miterlimit:10;stroke-dasharray:none;stroke-opacity:1"
      d="m 1817,1934 575,0" />
      <path id="path11146"
      style="fill:none;stroke:#000000;stroke-width:4;stroke-linecap:butt;stroke-linejoin:miter;stroke-miterlimit:10;stroke-dasharray:none;stroke-opacity:1"
      d="m 1817,1824 575,0" />
      <path id="path11148"
      style="fill:none;stroke:#000000;stroke-width:4;stroke-linecap:butt;stroke-linejoin:miter;stroke-miterlimit:10;stroke-dasharray:none;stroke-opacity:1"
      d="m 1817,1714 575,0" />
      <path id="path11150"
      style="fill:none;stroke:#000000;stroke-width:4;stroke-linecap:butt;stroke-linejoin:miter;stroke-miterlimit:10;stroke-dasharray:none;stroke-opacity:1"
      d="m 1817,1604 575,0" />
      <path id="path11152"
      style="fill:none;stroke:#000000;stroke-width:4;stroke-linecap:butt;stroke-linejoin:miter;stroke-miterlimit:10;stroke-dasharray:none;stroke-opacity:1"
      d="m 1817,1494 575,0" />
      <path id="path11154"
      style="fill:none;stroke:#000000;stroke-width:4;stroke-linecap:butt;stroke-linejoin:miter;stroke-miterlimit:10;stroke-dasharray:none;stroke-opacity:1"
      d="m 1817,1384 575,0" />
      <path id="path11156"
      style="fill:none;stroke:#000000;stroke-width:4;stroke-linecap:butt;stroke-linejoin:miter;stroke-miterlimit:10;stroke-dasharray:none;stroke-opacity:1"
      d="m 1817,1274 575,0" />
      <path id="path11158"
      style="fill:none;stroke:#000000;stroke-width:4;stroke-linecap:butt;stroke-linejoin:miter;stroke-miterlimit:10;stroke-dasharray:none;stroke-opacity:1"
      d="m 164,1274 575,0" />
      <path id="path11160"
      style="fill:none;stroke:#000000;stroke-width:4;stroke-linecap:butt;stroke-linejoin:miter;stroke-miterlimit:10;stroke-dasharray:none;stroke-opacity:1"
      d="m 164,1384 575,0" />
      <path id="path11162"
      style="fill:none;stroke:#000000;stroke-width:4;stroke-linecap:butt;stroke-linejoin:miter;stroke-miterlimit:10;stroke-dasharray:none;stroke-opacity:1"
      d="m 164,1494 575,0" />
      <path id="path11164"
      style="fill:none;stroke:#000000;stroke-width:4;stroke-linecap:butt;stroke-linejoin:miter;stroke-miterlimit:10;stroke-dasharray:none;stroke-opacity:1"
      d="m 164,1604 575,0" />
      <path id="path11166"
      style="fill:none;stroke:#000000;stroke-width:4;stroke-linecap:butt;stroke-linejoin:miter;stroke-miterlimit:10;stroke-dasharray:none;stroke-opacity:1"
      d="m 164,1714 575,0" />
      <path id="path11168"
      style="fill:none;stroke:#000000;stroke-width:4;stroke-linecap:butt;stroke-linejoin:miter;stroke-miterlimit:10;stroke-dasharray:none;stroke-opacity:1"
      d="m 164,1824 575,0" />
      <path id="path11170"
      style="fill:none;stroke:#000000;stroke-width:4;stroke-linecap:butt;stroke-linejoin:miter;stroke-miterlimit:10;stroke-dasharray:none;stroke-opacity:1"
      d="m 164,1934 575,0" />
      <path id="path11172"
      style="fill:none;stroke:#000000;stroke-width:4;stroke-linecap:butt;stroke-linejoin:miter;stroke-miterlimit:10;stroke-dasharray:none;stroke-opacity:1"
      d="m 821,1934 908,0" />
      <path id="path11174"
      style="fill:none;stroke:#000000;stroke-width:4;stroke-linecap:butt;stroke-linejoin:miter;stroke-miterlimit:10;stroke-dasharray:none;stroke-opacity:1"
      d="m 821,1824 908,0" />
    </g>
    <text y="-703.44" x="40.080002"
      id="text11178"
      class="text"
      transform="scale(0.95,-1)">
      <tspan y="-703.44" x="40">After we have issued your policy, you will have 20 days from the date the new policy is received by you to notify us </tspan>
      <tspan y="-689.76001" x="40">you are cancelling the policy issued on your application and you will receive all payments you made to us.</tspan>
      <tspan y="-661.67999" x="39.4">You are urged not to take action to terminate or alter your existing life insurance or annuity coverage until you have </tspan>
      <tspan y="-648" x="39.4">been issued the new policy, examined it and have found it acceptable to you.</tspan>
    </text>
    <text y="-559.91998" x="165.12"
      id="text11188"
      class="text"
      style="font-size:12px;"
      transform="scale(1,-1)">
      <tspan y="-559.91998" x="165">LIST INFORMATION FOR EACH POLICY BEING REPLACED</tspan>
    </text>
    <text y="-507.60001" x="264.72"
      id="text11192"
      class="text"
      transform="scale(1,-1)">
      <tspan y="-507.60001" x="60">NAME OF INSURER</tspan>
      <tspan y="-507.60001" x="264.7">NAME OF INSURED</tspan>
      <tspan y="-507.60001" x="450">CONTRACT NUMBER</tspan>
      <tspan y="-495" x="79">(Company)</tspan>
      <tspan y="-495" x="470">(Policy Number)</tspan>
      <tspan y="-249.12" x="40">I have received and read a copy of this replacement notice.</tspan>
      <tspan y="-194.39999" x="35">(Signed)</tspan>
      <tspan y="-192.96001" x="390">(Dated)</tspan>
      <tspan y="-180.72" x="81">Applicant</tspan>
      <tspan y="-27.360001" x="294">Page 2</tspan>
    </text>
    <text y="-25.200001" x="40.080002"
      id="text11210"
      class="text"
      transform="scale(1,-1)">
      <tspan y="-25.200001" x="40">ML-PA-A (2-04)</tspan>
    </text>
  </g>
</svg>