agent_id,brand_id,full_name,gender,birth,ssn,dln,dl_state_id,marital_status_id,address1.street,address1.city,address1.state_id,address1.zip,phone1.phone_type_id,phone1.value,phone1.ext,email1.value,case1.quoting_details1.carrier_id,case1.policy_number,case1.effective_date,case1.quoting_details1.plan_name,case1.quoting_details1.face_amount,case1.quoting_details1.duration_id,case1.quoting_details1.carrier_health_class,case1.quoting_details1.premium_mode_id,case1.quoting_details1.planned_modal_premium,case1.sales_stage_id,case1.quoting_details1.sales_stage_id,case1.stakeholder_relationship1.entity_type_id,case1.stakeholder_relationship1.relationship_type_id,case1.stakeholder_relationship1.full_name,case1.stakeholder_relationship1.gender,case1.stakeholder_relationship1.birth_or_trust_date,case1.stakeholder_relationship1.ssn,case1.stakeholder_relationship1.trustee,case1.stakeholder_relationship1.is_beneficiary,case1.stakeholder_relationship1.contingent,case1.stakeholder_relationship1.percentage
99,13,Chris Redfield,Male,6/5/1976,7897897890,S23609,13,1,123 Fake St,Detroit Rock City,16,12345,1,9165555555,123,foo@bar.com,1,B123456,11/10/2011,Select-A-Term 20,500000,3,Standard NT,4,53,5,5,1,3,Claire Redfield,Female,1/15/1978,789789789,,1,0,100
2,1,Michael Jackson,Male,8/9/1972,1232344567,D789789,9,2,311 Center St,Fargo,36,45678,2,8025551234,,test@gmail.com,5,TA14521,1/1/1999,TransUL,2500000,12,Standard NT,1,2789,5,5,2,11,My Insurance Trust,,5/6/1999,321321321,Bill Paxton,1,0,100
