<?xml version="1.0" encoding="UTF-8" standalone="no"?>
<svg
   xmlns:dc="http://purl.org/dc/elements/1.1/"
   xmlns:cc="http://creativecommons.org/ns#"
   xmlns:rdf="http://www.w3.org/1999/02/22-rdf-syntax-ns#"
   xmlns:svg="http://www.w3.org/2000/svg"
   xmlns="http://www.w3.org/2000/svg"
   version="1.1"
   id="svg2"
   viewBox="0 0 744.09448819 1052.3622047"
   height="297mm"
   width="210mm">
  <defs
     id="defs4" />
  <metadata
     id="metadata7">
    <rdf:RDF>
      <cc:Work
         rdf:about="">
        <dc:format>image/svg+xml</dc:format>
        <dc:type
           rdf:resource="http://purl.org/dc/dcmitype/StillImage" />
        <dc:title></dc:title>
      </cc:Work>
    </rdf:RDF>
  </metadata>
  <g
     id="layer1">
    <rect
       y="348.40207"
       x="23.039862"
       height="129.92027"
       width="636.92029"
       id="rect3336"
       style="fill:#d5ffd5;fill-rule:evenodd;stroke:#002b00;stroke-width:1.07972467px;stroke-linecap:butt;stroke-linejoin:miter;stroke-opacity:1" />
    <text
       id="text4138"
       y="368.36221"
       x="327"
       style="font-style:normal;font-weight:normal;font-size:40px;line-height:125%;font-family:sans-serif;letter-spacing:0px;word-spacing:0px;fill:#000000;fill-opacity:1;stroke:none;stroke-width:1px;stroke-linecap:butt;stroke-linejoin:miter;stroke-opacity:1"
       xml:space="preserve"><tspan
         style="font-size:12.5px"
         y="368.36221"
         x="327"
         id="tspan4140">app server cluster</tspan></text>
    <rect
       y="389.47845"
       x="48.116241"
       height="77.767517"
       width="243.76752"
       id="rect4142"
       style="fill:#d5ffd5;stroke:#002b00;stroke-width:1.23247969;stroke-opacity:1" />
    <rect
       y="389.36221"
       x="305"
       height="78"
       width="160"
       id="rect4142-3"
       style="fill:#d5ffd5;stroke:#002b00;stroke-opacity:1" />
    <rect
       y="388.36221"
       x="477"
       height="78"
       width="160"
       id="rect4142-6"
       style="fill:#d5ffd5;stroke:#002b00;stroke-opacity:1" />
    <text
       id="text4165"
       y="404.36221"
       x="142"
       style="font-style:normal;font-weight:normal;font-size:40px;line-height:125%;font-family:sans-serif;letter-spacing:0px;word-spacing:0px;fill:#000000;fill-opacity:1;stroke:none;stroke-width:1px;stroke-linecap:butt;stroke-linejoin:miter;stroke-opacity:1"
       xml:space="preserve"><tspan
         style="font-size:12.5px"
         y="404.36221"
         x="142"
         id="tspan4167">app server</tspan></text>
    <rect
       y="414.36221"
       x="137"
       height="42"
       width="71"
       id="rect4169"
       style="fill:#d5ffd5;stroke:#002b00;stroke-opacity:1" />
    <rect
       y="413.43796"
       x="213.07574"
       height="43.848503"
       width="71.848503"
       id="rect4171"
       style="fill:#d5ffd5;stroke:#002b00;stroke-width:1.1514976;stroke-opacity:1" />
    <text
       id="text4173"
       y="432.86221"
       x="171.94824"
       style="font-style:normal;font-weight:normal;font-size:40px;line-height:125%;font-family:sans-serif;letter-spacing:0px;word-spacing:0px;fill:#000000;fill-opacity:1;stroke:none;stroke-width:1px;stroke-linecap:butt;stroke-linejoin:miter;stroke-opacity:1"
       xml:space="preserve"><tspan
         style="font-size:12.5px;text-align:center;text-anchor:middle"
         y="432.86221"
         x="171.94824"
         id="tspan4175">rails</tspan><tspan
         id="tspan4221"
         style="font-size:12.5px;text-align:center;text-anchor:middle"
         y="448.48721"
         x="171.94824">web server</tspan></text>
    <text
       id="text4177"
       y="430.36221"
       x="248.30383"
       style="font-style:normal;font-weight:normal;font-size:40px;line-height:125%;font-family:sans-serif;letter-spacing:0px;word-spacing:0px;fill:#000000;fill-opacity:1;stroke:none;stroke-width:1px;stroke-linecap:butt;stroke-linejoin:miter;stroke-opacity:1"
       xml:space="preserve"><tspan
         style="font-size:12.5px;text-align:center;text-anchor:middle"
         y="430.36221"
         x="248.30383"
         id="tspan4179">nodejs</tspan><tspan
         style="font-size:12.5px;text-align:center;text-anchor:middle"
         id="tspan4181"
         y="445.98721"
         x="248.30383">socket app</tspan></text>
    <rect
       y="578.86218"
       x="304"
       height="78"
       width="160"
       id="rect4142-3-7"
       style="fill:#d5f6ff;stroke:#00222b;stroke-opacity:1" />
    <rect
       y="413.36221"
       x="56.5"
       height="42"
       width="71"
       id="rect4169-5"
       style="fill:#d5ffd5;stroke:#002b00;stroke-opacity:1" />
    <text
       id="text4213"
       y="610.86218"
       x="337"
       style="font-style:normal;font-weight:normal;font-size:40px;line-height:125%;font-family:sans-serif;letter-spacing:0px;word-spacing:0px;fill:#000000;fill-opacity:1;stroke:none;stroke-width:1px;stroke-linecap:butt;stroke-linejoin:miter;stroke-opacity:1"
       xml:space="preserve"><tspan
         style="font-size:12.5px"
         y="610.86218"
         x="337"
         id="tspan4215">redis server</tspan></text>
    <text
       id="text4217"
       y="437.36221"
       x="67"
       style="font-style:normal;font-weight:normal;font-size:40px;line-height:125%;font-family:sans-serif;letter-spacing:0px;word-spacing:0px;fill:#000000;fill-opacity:1;stroke:none;stroke-width:1px;stroke-linecap:butt;stroke-linejoin:miter;stroke-opacity:1"
       xml:space="preserve"><tspan
         style="font-size:12.5px"
         y="437.36221"
         x="67"
         id="tspan4219">sidekiq</tspan></text>
    <text
       transform="matrix(0.76970914,0.63839474,-0.63839474,0.76970914,0,0)"
       id="text4223"
       y="228.61717"
       x="484.44635"
       style="font-style:normal;font-weight:normal;font-size:40px;line-height:125%;font-family:sans-serif;letter-spacing:0px;word-spacing:0px;fill:#000000;fill-opacity:1;stroke:none;stroke-width:1px;stroke-linecap:butt;stroke-linejoin:miter;stroke-opacity:1"
       xml:space="preserve"><tspan
         style="font-size:12.5px"
         y="228.61717"
         x="484.44635"
         id="tspan4225">publish to redis</tspan></text>
    <text
       transform="matrix(0.8765621,0.48128878,-0.48128878,0.8765621,0,0)"
       id="text4227"
       y="353.2908"
       x="378.92218"
       style="font-style:normal;font-weight:normal;font-size:40px;line-height:125%;font-family:sans-serif;letter-spacing:0px;word-spacing:0px;fill:#000000;fill-opacity:1;stroke:none;stroke-width:1px;stroke-linecap:butt;stroke-linejoin:miter;stroke-opacity:1"
       xml:space="preserve"><tspan
         style="font-size:12.5px"
         y="353.2908"
         x="378.92218"
         id="tspan4229">subscribe to redis</tspan></text>
    <path
       id="path4231"
       d="M 314.13496,578.86218 92,454.8622"
       style="fill:none;fill-rule:evenodd;stroke:#000000;stroke-width:1px;stroke-linecap:butt;stroke-linejoin:miter;stroke-opacity:1" />
    <path
       id="path4233"
       d="M 335.30981,578.86218 180.5,454.8622"
       style="fill:none;fill-rule:evenodd;stroke:#000000;stroke-width:1px;stroke-linecap:butt;stroke-linejoin:miter;stroke-opacity:1" />
    <path
       id="path4233-3"
       d="M 349.48529,578.11219 252.51471,457.11221"
       style="fill:none;fill-rule:evenodd;stroke:#000000;stroke-width:1px;stroke-linecap:butt;stroke-linejoin:miter;stroke-opacity:1" />
    <text
       transform="matrix(0.62520432,0.78046112,-0.78046112,0.62520432,0,0)"
       id="text4227-5"
       y="85.947533"
       x="553.75952"
       style="font-style:normal;font-weight:normal;font-size:40px;line-height:125%;font-family:sans-serif;letter-spacing:0px;word-spacing:0px;fill:#000000;fill-opacity:1;stroke:none;stroke-width:1px;stroke-linecap:butt;stroke-linejoin:miter;stroke-opacity:1"
       xml:space="preserve"><tspan
         style="font-size:12.5px"
         y="85.947533"
         x="553.75952"
         id="tspan4229-6">subscribe to redis</tspan></text>
    <rect
       y="185.3622"
       x="303"
       height="78"
       width="160"
       id="rect4142-3-7-2"
       style="fill:#fff6d5;stroke:#2b2200;stroke-opacity:1" />
    <text
       id="text4285"
       y="218.3622"
       x="378.67285"
       style="font-style:normal;font-weight:normal;font-size:40px;line-height:125%;font-family:sans-serif;letter-spacing:0px;word-spacing:0px;fill:#000000;fill-opacity:1;stroke:none;stroke-width:1px;stroke-linecap:butt;stroke-linejoin:miter;stroke-opacity:1"
       xml:space="preserve"><tspan
         style="font-size:12.5px;text-anchor:middle;text-align:center"
         y="218.3622"
         x="339"
         id="tspan4287">user's</tspan><tspan
         id="tspan4289"
         style="font-size:12.5px;text-anchor:middle;text-align:center"
         y="233.9872"
         x="339">web browser</tspan></text>
    <path
       id="path4231-9"
       d="M 204.56748,413.86219 339.93252,263.36222"
       style="fill:none;fill-rule:evenodd;stroke:#000000;stroke-width:1px;stroke-linecap:butt;stroke-linejoin:miter;stroke-opacity:1" />
    <path
       id="path4231-1"
       d="M 258.56748,412.86219 365.43252,263.36222"
       style="fill:none;fill-rule:evenodd;stroke:#000000;stroke-width:1px;stroke-linecap:butt;stroke-linejoin:miter;stroke-opacity:1" />
    <rect
       y="580.36218"
       x="50"
       height="78"
       width="160"
       id="rect4142-3-7-27"
       style="fill:#f4d7d7;stroke:#280b0b;stroke-opacity:1" />
    <text
       id="text4327"
       y="613.36218"
       x="128.29492"
       style="font-style:normal;font-weight:normal;font-size:40px;line-height:125%;font-family:sans-serif;letter-spacing:0px;word-spacing:0px;fill:#000000;fill-opacity:1;stroke:none;stroke-width:1px;stroke-linecap:butt;stroke-linejoin:miter;stroke-opacity:1"
       xml:space="preserve"><tspan
         style="font-size:12.5px;text-align:center;text-anchor:middle"
         y="613.36218"
         x="128.29492"
         id="tspan4329">mariadb</tspan><tspan
         style="font-size:12.5px;text-align:center;text-anchor:middle"
         id="tspan4331"
         y="628.98718"
         x="128.29492">sql server</tspan></text>
    <path
       id="path4231-1-6"
       d="M 116.56748,581.11219 81.43252,454.61222"
       style="fill:none;fill-rule:evenodd;stroke:#000000;stroke-width:1px;stroke-linecap:butt;stroke-linejoin:miter;stroke-opacity:1" />
    <path
       id="path4231-1-0"
       d="M 144.56748,579.11219 167.43252,455.61222"
       style="fill:none;fill-rule:evenodd;stroke:#000000;stroke-width:1px;stroke-linecap:butt;stroke-linejoin:miter;stroke-opacity:1" />
  </g>
</svg>
