<?xml version="1.0" encoding="UTF-8" standalone="no"?>
<svg id="svg2" xmlns:rdf="http://www.w3.org/1999/02/22-rdf-syntax-ns#" xmlns="http://www.w3.org/2000/svg" height="401.03" width="644.84" version="1.1" xmlns:cc="http://creativecommons.org/ns#" xmlns:dc="http://purl.org/dc/elements/1.1/">
 <style id="style4">.node circle {
    fill: #fff;
    stroke: steelblue;
    stroke-width: 3px;
  }
  .node text { font: 12px sans-serif; }
  .link {
    fill: none;
    stroke: #ccc;
    stroke-width: 2px;
  }</style>
 <g id="g6" transform="translate(11.5,-30.318)">
  <path id="path8" d="m360 376.36h180" style="stroke:#ccc;stroke-width:2px;fill:none" class="link"/>
  <path id="path10" d="m180 376.36c90 0 90-41.81 180-41.81" style="stroke:#ccc;stroke-width:2px;fill:none" class="link"/>
  <path id="path12" d="m180 376.36h180" style="stroke:#ccc;stroke-width:2px;fill:none" class="link"/>
  <path id="path14" d="m180 376.36c90 0 90 41.82 180 41.82" style="stroke:#ccc;stroke-width:2px;fill:none" class="link"/>
  <path id="path16" d="m180 250.91h180" style="stroke:#ccc;stroke-width:2px;fill:none" class="link"/>
  <path id="path18" d="m0 209.09c90 0 90-167.27 180-167.27" style="stroke:#ccc;stroke-width:2px;fill:none" class="link"/>
  <path id="path20" d="m0 209.09c90 0 90-125.45 180-125.45" style="stroke:#ccc;stroke-width:2px;fill:none" class="link"/>
  <path id="path22" d="m0 209.09c90 0 90-83.64 180-83.64" style="stroke:#ccc;stroke-width:2px;fill:none" class="link"/>
  <path id="path24" d="m0 209.09c90 0 90-41.82 180-41.82" style="stroke:#ccc;stroke-width:2px;fill:none" class="link"/>
  <path id="path26" d="m0 209.09h180" style="stroke:#ccc;stroke-width:2px;fill:none" class="link"/>
  <path id="path28" d="m0 209.09c90 0 90 41.82 180 41.82" style="stroke:#ccc;stroke-width:2px;fill:none" class="link"/>
  <path id="path30" d="m0 209.09c90 0 90 83.64 180 83.64" style="stroke:#ccc;stroke-width:2px;fill:none" class="link"/>
  <path id="path32" d="m0 209.09c90 0 90 125.46 180 125.46" style="stroke:#ccc;stroke-width:2px;fill:none" class="link"/>
  <path id="path34" d="m0 209.09c90 0 90 167.27 180 167.27" style="stroke:#ccc;stroke-width:2px;fill:none" class="link"/>
  <g id="g36" transform="translate(360,418.18)" class="node">
   <circle id="circle38" cx="0" style="stroke:#4682b4;stroke-width:3px;fill:#fff" r="10" cy="0"/>
   <text id="text40" x="3" style="font-size:12px;font-weight:bold;text-anchor:end;line-height:normal;font-family:sans-serif;fill:#4682b4" dy="5">=</text>
   <text id="text42" x="13" style="font-size:12px;font-family:sans-serif;line-height:normal;font-weight:bold" dy="13">notes</text>
  </g>
  <g id="g44" transform="translate(540,376.36)" class="node">
   <circle id="circle46" cx="0" style="stroke:#4682b4;stroke-width:3px;fill:#fff" r="10" cy="0"/>
   <text id="text48" x="3" style="font-size:12px;font-weight:bold;text-anchor:end;line-height:normal;font-family:sans-serif;fill:#4682b4" dy="5">-</text>
   <text id="text50" x="13" style="font-size:12px;font-family:sans-serif;line-height:normal;font-weight:bold" dy="13">stakeholder</text>
  </g>
  <g id="g52" transform="translate(360,376.36)" class="node">
   <circle id="circle54" cx="0" style="stroke:#4682b4;stroke-width:3px;fill:#fff" r="10" cy="0"/>
   <text id="text56" x="3" style="font-size:12px;font-weight:bold;text-anchor:end;line-height:normal;font-family:sans-serif;fill:#4682b4" dy="5">=</text>
   <text id="text58" x="13" style="font-size:12px;font-family:sans-serif;line-height:normal;font-weight:bold" dy="13">stakeholder_relationships</text>
  </g>
  <g id="g60" transform="translate(360,334.55)" class="node">
   <circle id="circle62" cx="0" style="stroke:#4682b4;stroke-width:3px;fill:#fff" r="10" cy="0"/>
   <text id="text64" x="3" style="font-size:12px;font-weight:bold;text-anchor:end;line-height:normal;font-family:sans-serif;fill:#4682b4" dy="5">=</text>
   <text id="text66" x="13" style="font-size:12px;font-family:sans-serif;line-height:normal;font-weight:bold" dy="13">quoting_details</text>
  </g>
  <g id="g68" transform="translate(180,376.36)" class="node">
   <circle id="circle70" cx="0" style="stroke:#4682b4;stroke-width:3px;fill:#fff" r="10" cy="0"/>
   <text id="text72" x="3" style="font-size:12px;font-weight:bold;text-anchor:end;line-height:normal;font-family:sans-serif;fill:#4682b4" dy="5">=</text>
   <text id="text74" x="13" style="font-size:12px;font-family:sans-serif;line-height:normal;font-weight:bold" dy="13">cases</text>
  </g>
  <g id="g76" transform="translate(180,334.55)" class="node">
   <circle id="circle78" cx="0" style="stroke:#4682b4;stroke-width:3px;fill:#fff" r="10" cy="0"/>
   <text id="text80" x="3" style="font-size:12px;font-weight:bold;text-anchor:end;line-height:normal;font-family:sans-serif;fill:#4682b4" dy="5">=</text>
   <text id="text82" x="13" style="font-size:12px;font-family:sans-serif;line-height:normal;font-weight:bold" dy="13">opportunities</text>
  </g>
  <g id="g84" transform="translate(180,292.73)" class="node">
   <circle id="circle86" cx="0" style="stroke:#4682b4;stroke-width:3px;fill:#fff" r="10" cy="0"/>
   <text id="text88" x="3" style="font-size:12px;font-weight:bold;text-anchor:end;line-height:normal;font-family:sans-serif;fill:#4682b4" dy="5">-</text>
   <text id="text90" x="13" style="font-size:12px;font-family:sans-serif;line-height:normal;font-weight:bold" dy="13">financial_info</text>
  </g>
  <g id="g92" transform="translate(360,250.91)" class="node">
   <circle id="circle94" cx="0" style="stroke:#4682b4;stroke-width:3px;fill:#fff" r="10" cy="0"/>
   <text id="text96" x="3" style="font-size:12px;font-weight:bold;text-anchor:end;line-height:normal;font-family:sans-serif;fill:#4682b4" dy="5">=</text>
   <text id="text98" x="13" style="font-size:12px;font-family:sans-serif;line-height:normal;font-weight:bold" dy="13">family_diseases</text>
  </g>
  <g id="g100" transform="translate(180,250.91)" class="node">
   <circle id="circle102" cx="0" style="stroke:#4682b4;stroke-width:3px;fill:#fff" r="10" cy="0"/>
   <text id="text104" x="3" style="font-size:12px;font-weight:bold;text-anchor:end;line-height:normal;font-family:sans-serif;fill:#4682b4" dy="5">-</text>
   <text id="text106" x="13" style="font-size:12px;font-family:sans-serif;line-height:normal;font-weight:bold" dy="13">health_info</text>
  </g>
  <g id="g108" transform="translate(180,209.09)" class="node">
   <circle id="circle110" cx="0" style="stroke:#4682b4;stroke-width:3px;fill:#fff" r="10" cy="0"/>
   <text id="text112" x="3" style="font-size:12px;font-weight:bold;text-anchor:end;line-height:normal;font-family:sans-serif;fill:#4682b4" dy="5">=</text>
   <text id="text114" x="13" style="font-size:12px;font-family:sans-serif;line-height:normal;font-weight:bold" dy="13">tags</text>
  </g>
  <g id="g116" transform="translate(180,167.27)" class="node">
   <circle id="circle118" cx="0" style="stroke:#4682b4;stroke-width:3px;fill:#fff" r="10" cy="0"/>
   <text id="text120" x="3" style="font-size:12px;font-weight:bold;text-anchor:end;line-height:normal;font-family:sans-serif;fill:#4682b4" dy="5">=</text>
   <text id="text122" x="13" style="font-size:12px;font-family:sans-serif;line-height:normal;font-weight:bold" dy="13">notes</text>
  </g>
  <g id="g124" transform="translate(180,125.45)" class="node">
   <circle id="circle126" cx="0" style="stroke:#4682b4;stroke-width:3px;fill:#fff" r="10" cy="0"/>
   <text id="text128" x="3" style="font-size:12px;font-weight:bold;text-anchor:end;line-height:normal;font-family:sans-serif;fill:#4682b4" dy="5">=</text>
   <text id="text130" x="13" style="font-size:12px;font-family:sans-serif;line-height:normal;font-weight:bold" dy="13">emails</text>
  </g>
  <g id="g132" transform="translate(180,83.636)" class="node">
   <circle id="circle134" cx="0" style="stroke:#4682b4;stroke-width:3px;fill:#fff" r="10" cy="0"/>
   <text id="text136" x="3" style="font-size:12px;font-weight:bold;text-anchor:end;line-height:normal;font-family:sans-serif;fill:#4682b4" dy="5">=</text>
   <text id="text138" x="13" style="font-size:12px;font-family:sans-serif;line-height:normal;font-weight:bold" dy="13">phones</text>
  </g>
  <g id="g140" transform="translate(180,41.818)" class="node">
   <circle id="circle142" cx="0" style="stroke:#4682b4;stroke-width:3px;fill:#fff" r="10" cy="0"/>
   <text id="text144" x="3" style="font-size:12px;font-weight:bold;text-anchor:end;line-height:normal;font-family:sans-serif;fill:#4682b4" dy="5">=</text>
   <text id="text146" x="13" style="font-size:12px;font-family:sans-serif;line-height:normal;font-weight:bold" dy="13">addresses</text>
  </g>
  <g id="g148" transform="translate(0,209.09)" class="node">
   <circle id="circle150" cx="0" style="stroke:#4682b4;stroke-width:3px;fill:#fff" r="10" cy="0"/>
   <text id="text152" x="3" style="font-size:12px;font-weight:bold;text-anchor:end;line-height:normal;font-family:sans-serif;fill:#4682b4" dy="5">-</text>
   <text id="text154" x="13" style="font-size:12px;font-family:sans-serif;line-height:normal;font-weight:bold" dy="13">consumer</text>
  </g>
 </g>
</svg>
