{
  "BenesDesignation": {
    "columns": ["name", "label"],
    "records": [
      ["survive_eq", "survivorship equal shares"],
      ["stirpes_eq", "equal shares to offspring"],
      ["survive_neq", "survivorship by percentage"],
      ["stirpes_neq", "by percentage to offspring"]
    ]
  },
  "BillType": {
    "columns": ["name"],
    "records": ["eft", "cod", "cc"]
  },
  "CaseRequirementType":{
    "columns":["name"],
    "records":[
      ["Delivery"],
      ["Licensing"],
      ["Questionnaire"],
      ["Underwriting"]
    ]
  },
  "CaseReqResponsiblePartyType":{
    "columns":["name"],
    "records":[
      ["Agent"],
      ["Applicant"],
      ["Carrier"],
      ["MGA"],
      ["Vendor"],
      ["Other"]
    ]
  },
  "CaseReqStatus":{
    "columns":["indicates_completed","name"],
    "records":[
      [false,"Outstanding"],
      [true,"Waived"],
      [true,"Received"],
      [true,"Cancelled"]
    ]
  },
  "Country":{
    "columns":["scor_region_id","scor_question_code","two_char_code","name"],
    "records":[
        [7, null, "US", "United States"],
        [2, "RMM09_01_02_01", "AF", "Afghanistan"],
        [null, null, "AX", "Aland Islands"],
        [5, "RMM09_01_05_01", "AL", "Albania"],
        [1, "RMM09_01_01_01", "DZ", "Algeria"],
        [null, null, "AS", "American Samoa"],
        [5, "RMM09_01_05_02", "AD", "Andorra"],
        [1, "RMM09_01_01_02", "AO", "Angola"],
        [3, "RMM09_01_03_01", "AI", "Anguilla"],
        [10, "RMM09_01_10", "AQ", "Antarctica"],
        [3, "RMM09_01_03_02", "AG", "Antigua And Barbuda"],
        [9, "RMM09_01_09_01", "AR", "Argentina"],
        [5, "RMM09_01_05_03", "AM", "Armenia"],
        [3, "RMM09_01_03_03", "AW", "Aruba"],
        [8, "RMM09_01_08_01", "AU", "Australia"],
        [5, "RMM09_01_05_04", "AT", "Austria"],
        [5, "RMM09_01_05_05", "AZ", "Azerbaijan"],
        [3, "RMM09_01_03_04", "BS", "Bahamas"],
        [6, "RMM09_01_06_01", "BH", "Bahrain"],
        [2, "RMM09_01_02_02", "BD", "Bangladesh"],
        [3, "RMM09_01_03_05", "BB", "Barbados"],
        [5, "RMM09_01_05_06", "BY", "Belarus"],
        [5, "RMM09_01_05_07", "BE", "Belgium"],
        [4, "RMM09_01_04_01", "BZ", "Belize"],
        [1, "RMM09_01_01_03", "BJ", "Benin"],
        [3, "RMM09_01_03_07", "BM", "Bermuda"],
        [2, "RMM09_01_02_03", "BT", "Bhutan"],
        [9, "RMM09_01_09_02", "BO", "Bolivia"],
        [5, "RMM09_01_05_08", null, "Bosnia and Herzegowina"],
        [1, "RMM09_01_01_04", "BW", "Botswana"],
        [null, null, "BV", "Bouvet Island"],
        [9, "RMM09_01_09_03", "BR", "Brazil"],
        [null, null, "IO", "British Indian Ocean Territory"],
        [2, "RMM09_01_02_04", "BN", "Brunei Darussalam"],
        [5, "RMM09_01_05_09", "BG", "Bulgaria"],
        [1, "RMM09_01_01_05", "BF", "Burkina Faso"],
        [1, "RMM09_01_01_06", "BI", "Burundi"],
        [2, "RMM09_01_02_05", "KH", "Cambodia"],
        [1, "RMM09_01_01_07", "CM", "Cameroon"],
        [7, "RMM09_01_07_01", "CA", "Canada"],
        [1, "RMM09_01_01_09", "CV", "Cape Verde"],
        [3, "RMM09_01_03_10", "KY", "Cayman Islands"],
        [1, "RMM09_01_01_10", "CF", "Central African Republic"],
        [1, "RMM09_01_01_11", "TD", "Chad"],
        [9, "RMM09_01_09_04", "CL", "Chile"],
        [2, "RMM09_01_02_06", "CN", "China"],
        [null, null, "CX", "Christmas Island"],
        [null, null, "CC", "Cocos (Keeling) Islands"],
        [9, "RMM09_01_09_05", "CO", "Colombia"],
        [1, "RMM09_01_01_12", "KM", "Comoros"],
        [1, "RMM09_01_01_14", "CG", "Congo"],
        [1, "RMM09_01_01_13", null, "Congo, Democratic Republic of the"],
        [8, "RMM09_01_08_02", "CK", "Cook Islands"],
        [4, "RMM09_01_04_02", "CR", "Costa Rica"],
        [null, null, null, "Cote d'Ivoire"],
        [5, "RMM09_01_05_10", "HR", "Croatia"],
        [3, "RMM09_01_03_11", "CU", "Cuba"],
        [5, "RMM09_01_05_11", "CY", "Cyprus"],
        [5, "RMM09_01_05_12", "CZ", "Czech Republic"],
        [5, "RMM09_01_05_13", "DK", "Denmark"],
        [1, "RMM09_01_01_15", "DJ", "Djibouti"],
        [3, "RMM09_01_03_13", "DM", "Dominica"],
        [3, "RMM09_01_03_14", "DO", "Dominican Republic"],
        [9, "RMM09_01_09_06", "EC", "Ecuador"],
        [1, "RMM09_01_01_16", "EG", "Egypt"],
        [4, "RMM09_01_04_03", "SV", "El Salvador"],
        [1, "RMM09_01_01_17", "GQ", "Equatorial Guinea"],
        [1, "RMM09_01_01_18", "ER", "Eritrea"],
        [5, "RMM09_01_05_15", "EE", "Estonia"],
        [1, "RMM09_01_01_19", "ET", "Ethiopia"],
        [null, null, "FK", "Falkland Islands (Malvinas)"],
        [null, null, "FO", "Faroe Islands"],
        [8, "RMM09_01_08_03", "FJ", "Fiji"],
        [5, "RMM09_01_05_16", "FI", "Finland"],
        [5, "RMM09_01_05_17", "FR", "France"],
        [9, "RMM09_01_09_07", "GF", "French Guiana"],
        [8, "RMM09_01_08_04", "PF", "French Polynesia"],
        [null, null, "TF", "French Southern Territories"],
        [1, "RMM09_01_01_20", "GA", "Gabon"],
        [1, "RMM09_01_01_21", "GM", "Gambia"],
        [5, "RMM09_01_05_18", "GE", "Georgia"],
        [5, "RMM09_01_05_19", "DE", "Germany"],
        [1, "RMM09_01_01_22", "GH", "Ghana"],
        [null, null, "GI", "Gibraltar"],
        [5, "RMM09_01_05_20", "GR", "Greece"],
        [7, "RMM09_01_07_02", "GL", "Greenland"],
        [3, "RMM09_01_03_15", "GD", "Grenada"],
        [3, "RMM09_01_03_17", "GP", "Guadeloupe"],
        [8, "RMM09_01_08_05", "GU", "Guam"],
        [4, "RMM09_01_04_04", "GT", "Guatemala"],
        [null, null, "GG", "Guernsey"],
        [1, "RMM09_01_01_23", "GN", "Guinea"],
        [1, "RMM09_01_01_24", "GW", "Guinea-Bissau"],
        [9, "RMM09_01_09_08", "GY", "Guyana"],
        [3, "RMM09_01_03_18", "HT", "Haiti"],
        [null, null, null, "Heard and McDonald Islands"],
        [5, "RMM09_01_05_50", "VA", "Holy See (Vatican City State)"],
        [4, "RMM09_01_04_05", "HN", "Honduras"],
        [2, "RMM09_01_02_07", "HK", "Hong Kong"],
        [5, "RMM09_01_05_21", "HU", "Hungary"],
        [5, "RMM09_01_05_22", "IS", "Iceland"],
        [2, "RMM09_01_02_08", "IN", "India"],
        [2, "RMM09_01_02_09", "ID", "Indonesia"],
        [6, "RMM09_01_06_02", null, "Iran, Islamic Republic of"],
        [6, "RMM09_01_06_03", "IQ", "Iraq"],
        [5, "RMM09_01_05_23", "IE", "Ireland"],
        [null, null, "IM", "Isle of Man"],
        [6, "RMM09_01_06_04", "IL", "Israel"],
        [5, "RMM09_01_05_24", "IT", "Italy"],
        [3, "RMM09_01_03_19", "JM", "Jamaica"],
        [2, "RMM09_01_02_10", "JP", "Japan"],
        [null, null, "JE", "Jersey"],
        [6, "RMM09_01_06_05", "JO", "Jordan"],
        [2, "RMM09_01_02_11", "KZ", "Kazakhstan"],
        [1, "RMM09_01_01_26", "KE", "Kenya"],
        [8, "RMM09_01_08_06", "KI", "Kiribati"],
        [2, "RMM09_01_02_12", null, "Korea, Democratic People's Republic of (North)"],
        [2, "RMM09_01_02_13", null, "Korea, Republic of (South)"],
        [6, "RMM09_01_06_06", "KW", "Kuwait"],
        [2, "RMM09_01_02_14", "KG", "Kyrgyzstan"],
        [null, null, null, "Lao People's Democratic Republic"],
        [5, "RMM09_01_05_25", "LV", "Latvia"],
        [6, "RMM09_01_06_07", "LB", "Lebanon"],
        [1, "RMM09_01_01_27", "LS", "Lesotho"],
        [1, "RMM09_01_01_28", "LR", "Liberia"],
        [1, "RMM09_01_01_29", "LY", "Libyan Arab Jamahiriya"],
        [5, "RMM09_01_05_26", "LI", "Liechtenstein"],
        [5, "RMM09_01_05_27", "LT", "Lithuania"],
        [5, "RMM09_01_05_28", "LU", "Luxembourg"],
        [2, "RMM09_01_02_16", null, "Macao (Macau)"],
        [5, "RMM09_01_05_29", "MK", "Macedonia, The Former Yugoslav Republic Of"],
        [1, "RMM09_01_01_30", "MG", "Madagascar"],
        [1, "RMM09_01_01_31", "MW", "Malawi"],
        [2, "RMM09_01_02_17", "MY", "Malaysia"],
        [8, "RMM09_01_08_07", "MV", "Maldives"],
        [1, "RMM09_01_01_32", "ML", "Mali"],
        [5, "RMM09_01_05_31", "MT", "Malta"],
        [8, "RMM09_01_08_08", "MH", "Marshall Islands"],
        [3, "RMM09_01_03_20", "MQ", "Martinique"],
        [1, "RMM09_01_01_33", "MR", "Mauritania"],
        [1, "RMM09_01_01_34", "MU", "Mauritius"],
        [null, null, "YT", "Mayotte"],
        [7, "RMM09_01_07_03", "MX", "Mexico"],
        [8, "RMM09_01_08_09", null, "Micronesia, Federated States of"],
        [null, null, null, "Moldova, Republic of"],
        [5, "RMM09_01_05_32", "MC", "Monaco"],
        [2, "RMM09_01_02_18", "MN", "Mongolia"],
        [5, "RMM09_01_05_33", "ME", "Montenegro"],
        [null, null, "MS", "Montserrat"],
        [1, "RMM09_01_01_35", "MA", "Morocco"],
        [1, "RMM09_01_01_36", "MZ", "Mozambique"],
        [2, "RMM09_01_02_19", "MM", "Myanmar"],
        [1, "RMM09_01_01_37", "NA", "Namibia"],
        [8, "RMM09_01_08_10", "NR", "Nauru"],
        [2, "RMM09_01_02_20", "NP", "Nepal"],
        [5, "RMM09_01_05_34", null, "Netherlands (Holland)"],
        [3, "RMM09_01_03_22", "AN", "Netherlands Antilles"],
        [8, "RMM09_01_08_11", "NC", "New Caledonia"],
        [8, "RMM09_01_08_13", "NZ", "New Zealand"],
        [4, "RMM09_01_04_06", "NI", "Nicaragua"],
        [1, "RMM09_01_01_38", "NE", "Niger"],
        [1, "RMM09_01_01_39", "NG", "Nigeria"],
        [8, "RMM09_01_08_14", "NU", "Niue"],
        [null, null, "NF", "Norfolk Island"],
        [null, null, "MP", "Northern Mariana Islands"],
        [5, "RMM09_01_05_35", "NO", "Norway"],
        [6, "RMM09_01_06_08", "OM", "Oman"],
        [2, "RMM09_01_02_21", "PK", "Pakistan"],
        [8, "RMM09_01_08_16", "PW", "Palau"],
        [null, null, "PS", "Palestinian Territory, Occupied"],
        [4, "RMM09_01_04_07", "PA", "Panama"],
        [8, "RMM09_01_08_12", "PG", "Papua New Guinea"],
        [9, "RMM09_01_09_09", "PY", "Paraguay"],
        [9, "RMM09_01_09_10", "PE", "Peru"],
        [2, "RMM09_01_02_22", "PH", "Philippines"],
        [null, null, "PN", "Pitcairn"],
        [5, "RMM09_01_05_36", "PL", "Poland"],
        [5, "RMM09_01_05_37", "PT", "Portugal"],
        [3, "RMM09_01_03_23", "PR", "Puerto Rico"],
        [6, "RMM09_01_06_09", "QA", "Qatar"],
        [null, null, "RE", "Reunion"],
        [5, "RMM09_01_05_38", "RO", "Romania"],
        [5, "RMM09_01_05_39", "RU", "Russian Federation"],
        [1, "RMM09_01_01_40", "RW", "Rwanda"],
        [3, "RMM09_01_03_24", "BL", "Saint Barthelemy"],
        [null, null, "SH", "Saint Helena"],
        [3, "RMM09_01_03_26", null, "Saint Kitts and Nevis"],
        [3, "RMM09_01_03_27", "LC", "Saint Lucia"],
        [null, null, null, "Saint Pierre and Miquelon"],
        [3, "RMM09_01_03_16", null, "Saint Vincent and the Grenadines"],
        [8, "RMM09_01_08_17", "WS", "Samoa"],
        [5, "RMM09_01_05_40", "SM", "San Marino"],
        [1, "RMM09_01_01_41", null, "Sao Tome and Principe"],
        [6, "RMM09_01_06_10", "SA", "Saudi Arabia"],
        [1, "RMM09_01_01_42", "SN", "Senegal"],
        [5, "RMM09_01_05_42", "RS", "Serbia"],
        [1, "RMM09_01_01_43", "SC", "Seychelles"],
        [1, "RMM09_01_01_44", "SL", "Sierra Leone"],
        [2, "RMM09_01_02_23", "SG", "Singapore"],
        [5, "RMM09_01_05_43", "SK", "Slovakia"],
        [5, "RMM09_01_05_44", "SI", "Slovenia"],
        [8, "RMM09_01_08_18", "SB", "Solomon Islands"],
        [1, "RMM09_01_01_45", "SO", "Somalia"],
        [1, "RMM09_01_01_46", "ZA", "South Africa"],
        [null, null, null, "South Georgia and the South Sandwich Islands"],
        [5, "RMM09_01_05_45", "ES", "Spain"],
        [2, "RMM09_01_02_24", "LK", "Sri Lanka"],
        [1, "RMM09_01_01_47", "SD", "Sudan"],
        [9, "RMM09_01_09_11", "SR", "Suriname"],
        [null, null, null, "Svalbard and Jan Mayen"],
        [1, "RMM09_01_01_48", "SZ", "Swaziland"],
        [5, "RMM09_01_05_46", "SE", "Sweden"],
        [5, "RMM09_01_05_47", "CH", "Switzerland"],
        [6, "RMM09_01_06_11", "SY", "Syrian Arab Republic"],
        [2, "RMM09_01_02_25", null, "Taiwan"],
        [2, "RMM09_01_02_26", "TJ", "Tajikistan"],
        [1, "RMM09_01_01_49", null, "Tanzania, United Republic of"],
        [2, "RMM09_01_02_27", "TH", "Thailand"],
        [null, null, "TL", "Timor-Leste"],
        [1, "RMM09_01_01_50", "TG", "Togo"],
        [8, "RMM09_01_08_19", "TK", "Tokelau"],
        [8, "RMM09_01_08_20", "TO", "Tonga"],
        [3, "RMM09_01_03_32", null, "Trinidad and Tobago"],
        [1, "RMM09_01_01_51", "TN", "Tunisia"],
        [6, "RMM09_01_06_12", "TR", "Turkey"],
        [2, "RMM09_01_02_29", "TM", "Turkmenistan"],
        [3, "RMM09_01_03_09", null, "Turks and Caicos Islands"],
        [8, "RMM09_01_08_21", "TV", "Tuvalu"],
        [1, "RMM09_01_01_52", "UG", "Uganda"],
        [5, "RMM09_01_05_48", "UA", "Ukraine"],
        [6, "RMM09_01_06_14", "AE", "United Arab Emirates"],
        [5, "RMM09_01_05_49", "GB", "United Kingdom"],
        [null, null, "UM", "United States Minor Outlying Islands"],
        [9, "RMM09_01_09_12", "UY", "Uruguay"],
        [2, "RMM09_01_02_30", "UZ", "Uzbekistan"],
        [8, "RMM09_01_08_22", "VU", "Vanuatu"],
        [9, "RMM09_01_09_13", "VE", "Venezuela"],
        [2, "RMM09_01_02_31", "VN", "Viet Nam"],
        [3, "RMM09_01_03_35", "VG", "Virgin Islands, British"],
        [null, null, "VI", "Virgin Islands, U.S."],
        [null, null, null, "Wallis and Futuna"],
        [1, "RMM09_01_01_53", "EH", "Western Sahara"],
        [6, "RMM09_01_06_15", "YE", "Yemen"],
        [1, "RMM09_01_01_54", "ZM", "Zambia"],
        [1, "RMM09_01_01_55", "ZW", "Zimbabwe"],
        [null, null, "##", "Other"]
      ]
  },
  "Citizenship":{
    "columns":["name"],
    "records":[
      ["US Citizen"],
      ["Permanent Resident"],
      ["Visa"],
      ["Other"]
    ]
  },
  "ContactMethod":{
    "columns":"name",
    "records":[
      ["Phone Call"],
      ["Email"]
    ]
  },
  "DiseaseType":{
    "columns":["name","klass"],
    "records":[
      ["alcohol_abuse"],
      ["anxiety"],
      ["arthritis"],
      ["asthma"],
      ["atrial_fibrillation"],
      ["breast_cancer"],
      ["basal_cell_carcinoma",      "OtherCancer"],
      ["cardiovascular_disease",    "OtherDisease"],
      ["cardiovascular_impairments","OtherDisease"],
      ["cerebrovascular_disease",   "OtherDisease"],
      ["colon_cancer",              "OtherCancer"],
      ["copd"],
      ["coronary_artery_disease",   "OtherDisease"],
      ["crohns"],
      ["depression"],
      ["diabetes_1"],
      ["diabetes_2"],
      ["drug_abuse"],
      ["epilepsy"],
      ["elevated_liver_function"],
      ["emphysema",            "OtherDisease"],
      ["heart_attack",         "OtherDisease"],
      ["heart_murmur"],
      ["hepatitis_c"],
      ["intestinal_cancer",    "OtherCancer"],
      ["irregular_heartbeat"],
      ["kidney_disease",       "OtherDisease"],
      ["malignant_melanoma",   "OtherCancer"],
      ["mental_illness",       "OtherDisease"],
      ["multiple_sclerosis"],
      ["other_heart_condition","OtherDisease"],
      ["other_internal_cancer","OtherCancer"],
      ["other_skin_cancer",    "OtherCancer"],
      ["ovarian_cancer",       "OtherCancer"],
      ["parkinsons"],
      ["prostate_cancer"],
      ["sleep_apnea"],
      ["stroke"],
      ["ulcerative_colitis_iletis","OtherDisease"],
      ["vascular_disease",         "OtherDisease"],
      ["weight_reduction"]
    ]
  },
  "DividendType": {
    "columns": ["name"],
    "records": ["accumulation", "cash", "paid-up additions", "pay premium"]
  },
  "NoteType":{
    "columns":"name",
    "records":[
      ["user created"],
      ["status change"],
      ["follow-up complete"],
      ["transfer to AI"],
      ["critical note change"],
      ["priority note change"],
      ["exam"],
      ["admin"],
      ["licensing"],
      ["api-triggered consumer update"],
      ["reverted consumer update"]
    ]
  },
  "ProductType":{
    "columns":["name","marketech_code","sort_order","active","product_cat_id"],
    "records":[
      ["Term",                 0,1,1,1],
      ["Universal Life",       3,2,1,1],
      ["Whole Life",           1,3,1,1],
      ["Variable Life",        3,4,1,1],
      ["Survivor Term",        0,5,1,1],
      ["Survivor UL",          0,6,1,1],
      ["Guaranteed Issue",     1,7,1,1],
      ["Simplified Issue Term",0,9,1,1],
      ["Simplified Issue UL",  0,10,1,1],
      ["Disability",           3,11,1,4],
      ["Accidental",           3,12,1,1],
      ["Business Expense",     3,13,1,1],
      ["Long-term Care",       0,14,1,3],
      ["Indexed UL",           3,2,1,1],
      ["Annuity",              0,15,1,2]
    ]
  },
  "ProductTypeCat":{
    "columns":["name"],
    "records":[
      ["Life Insurance"],
      ["Annuities"],
      ["Long-Term Care"],
      ["Disability"],
      ["Critical Illness"],
      ["Medicare Supplement"],
      ["Dental"],
      ["Vision"],
      ["Health"],
      ["Home"],
      ["Auto"]
    ]
  },
  "Purpose":{
    "columns":["name","type_id"],
    "records":[
      ["Asset Protection",1],
      ["College Funding",1],
      ["Conversion Term to Perm",1],
      ["Critical Illness",1],
      ["Debt Protection",1],
      ["Disability Income",1],
      ["Final Expense",1],
      ["Life Insurance as an Asset Class",1],
      ["Long-Term Care Planning",1],
      ["Mortgage Protection",1],
      ["Term Laddering ",1],
      ["Business Valuation",2],
      ["Buy/Sell - Cross Purchase",2],
      ["Buy/Sell - Entity Purchase",2],
      ["Buy/Sell - Partnership",2],
      ["Buy/Sell - Wait and See",2],
      ["Deferred Compensation",2],
      ["Disability Buy-out",2],
      ["Disability Overhead",2],
      ["Executive Bonus",2],
      ["Group Life Plans (Section 79 Plans)",2],
      ["Key Person",2],["Overhead Expense",2],
      ["Restricted Endorsement Benefit Arrangements - REBA",2],
      ["Self-Owned Life Insurance Arrangements (SOLAR)",2],
      ["Special Markets Risk",2],
      ["Split Dollar",2],
      ["Succession Planning",2],
      ["Guaranteed Income For Life",3],
      ["IRA Rescue",3],
      ["Life Ins. in Retirement Planning (LIRP)",3],
      ["Pension Max",3],
      ["Retirement Extra",3],
      ["Retirement Plan Review",3],
      ["Social Security Max",3],
      ["Supplement Retirement Income",3],
      ["A/B Trust Planning",4],
      ["Annuity Maximization",4],
      ["Asset Max",4],
      ["B Trust Funding",4],
      ["CD Maximization",4],
      ["Estate Equalization",4],
      ["Estate Planning (General Overview)",4],
      ["Estate Preservation",4],
      ["Gifting Strategies",4],
      ["Income Maximization",4],
      ["Irrevocable Trusts / Trust Owned Life (ILIT / TOLI)",4],
      ["Legacy Maximization",4],
      ["Life Settlements",4],
      ["Muni Bond Maximization",4],
      ["Non U.S Citizen (Spouse)",4],
      ["Private / Self Financed Arrangements",4],
      ["RMD - Required Minimum Distribution Planning",4],
      ["Shared Dollar Planning",4],
      ["Special Needs Trust Planning",4],
      ["Spousal Access Trust",4]
    ]
  },
  "PurposeType":{
    "columns":["name","is_for_business"],
    "records":[
      ["Individual \u0026 Family Planning",false],
      ["Business \u0026 Executive Planning",true],
      ["Retirement Planning",false],
      ["Estate \u0026 Tax Planning",false]
    ]
  },
  "PlanningCat":{
    "columns":["name"],
    "records":[
      ["Business \u0026 Executive Planning"],
      ["Charitable Planning"],
      ["Estate Planning"],
      ["Family Planning"],
      ["Financed Arrangements"],
      ["Liability Protection"],
      ["Policy Review"],
      ["Retirement Planning"],
      ["Health \u0026 Long-Term Care Planning"]
    ]
  },
  "RelationshipType":{
    "columns":"name",
    "records":[
      ["parent"],
      ["sibling"],
      ["spouse/domestic partner"],
      ["other"],
      ["business"],
      ["child"],
      ["grand child"],
      ["sibling"],
      ["step parent"],
      ["step child"],
      ["trust"],
      ["creditors"],
      ["ex-spouse"]
    ]
  },
  "StatusTypeCategory":{
    "columns":["id","sales_stage_id","has_own_timestamp","is_for_policies","name"],
    "records":[
      [1,1,false,true,"New Lead"],
      [2,1,false,true,"Attempting Contact"],
      [3,2,false,true,"Not Quoted"],
      [4,2,false,true,"Quoted"],
      [5,3,false,true,"Sent To App Team"],
      [6,3,false,true,"App Sent (to Client) / Exam Ordered"],
      [7,3,false,true,"App Received"],
      [8,4,false,true,"App Submitted"],
      [9,4,false,true,"Approved As Applied"],
      [10,4,false,true,"Approved Other Than Applied"],
      [11,4,false,true,"Declined / Withdrawn"],
      [12,4,false,true,"Issued / Re-issued"],
      [13,5,false,true,"In Force"],
      [14,null,false,true,"Withdrawn"],
      [15,null,false,true,"Closed"],
      [16,null,false,false,"Recruit"],
      [17,null,false,false,"Active"],
      [18,null,false,false,"Inactive"]
    ]
  },
  "SalesStage":{
    "columns":["id","name"],
    "records":[
      [1,"Opportunity"],
      [2,"Contacted"],
      [3,"App Fulfillment"],
      [4,"Submitted To Carrier"],
      [5,"Placed"]
    ]
  },
  "TaskType":{
    "columns":["created_by_system_only","handled_by_system_only","recipient_type","template_medium","name"],
    "records":[
      [false,false,null,null,"to-do"],
      [false,true,"Consumer","Email","email consumer"],
      [false,true,"User","Email","email agent"],
      [false,false,null,null,"phone dial"],
      [false,false,null,null,"phone broadcast"],
      [false,true,"Consumer","SMS","sms consumer"],
      [false,true,"User","SMS","sms agent"],
      [false,false,null,"Print","letter"],
      [true,false,null,null,"Marketech"]
    ]
  },
  "EntityType":{
    "columns":"name",
    "records":[
      "person","trust","company"]
  },
  "MaritalStatus":{
    "columns":"name",
    "records":["Single","Married","Divorced","Widowed","Separated","Domestic Partner"]
  },
  "MarketingTemplatePurpose":{
    "columns":["id","name","permission","allowed_target_type","allowed_person_type"],
    "records":[
      [2,"Consumer Marketing","comm_template_marketing","Consumer","Consumer"],
      [3,"Agent Marketing","comm_template_recruit","User","User"],
      [4,"Status","comm_template_status","Crm::Case","Consumer"],
      [5,"System","comm_template_system","User","User"]
    ]
  },
  "MarketingDynamicField":{
    "class_description":[
      "These are the methods allowed within marketing templates, to be rendered for marketing messages.",
      "All method chains can be expected to be evaluated by the template instance, using parameters passed from a message, task, or batch instance.",
      "The template expects these method chains to be wrapped in double curly braces.",
      "For those which expect arguments, they will be formatted like {{ arg1, arg2, [...]argN | method_chain }}."
    ],
    "columns":["grouping","method_chain","expected_arg_types"],
    "records":[
      ["recipient",     "recipient.address"    ],
      ["recipient",     "recipient.birth"      ],
      ["recipient",     "recipient.state"      ],
      ["recipient",     "recipient.city"       ],
      ["recipient",     "recipient.zip"        ],
      ["recipient",     "recipient.phone"      ],
      ["recipient",     "recipient.email"      ],
      ["recipient",     "recipient.age"        ],
      ["recipient",     "recipient.anniversary"],
      ["recipient",     "recipient.title"      ],
      ["recipient",     "recipient.first_name" ],
      ["recipient",     "recipient.last_name"  ],
      ["recipient",     "recipient.full_name"  ],
      ["recipient",     "recipient.id"         ],
      ["recipient",     "recipient.saved_quote_list"],
      ["recipient",     "recipient.details_for_quoter"],
      ["recipient",     "recipient.tobacco"],
      ["agent",         "agent.age"         ],
      ["agent",         "agent.birth"       ],
      ["agent",         "agent.custom_field_one"],
      ["agent",         "agent.custom_field_three"],
      ["agent",         "agent.custom_field_two"],
      ["agent",         "agent.email"        ],
      ["agent",         "agent.primary_email"],
      ["agent",         "agent.phone"        ],
      ["agent",         "agent.fax_number"   ],
      ["agent",         "agent.website"      ],
      ["agent",         "agent.address"      ],
      ["agent",         "agent.zip"          ],
      ["agent",         "agent.state"        ],
      ["agent",         "agent.time_zone"    ],
      ["agent",         "agent.id"           ],
      ["agent",         "agent.short_id"     ],
      ["agent",         "agent.title"        ],
      ["agent",         "agent.full_name"    ],
      ["agent",         "agent.first_name"   ],
      ["agent",         "agent.last_name"    ],
      ["agent",         "agent.company"      ],
      ["agent",         "agent.copyright"    ],
      ["agent",         "agent.photo_url"    ],
      ["agent",         "agent.signature_url"],
      ["brand",         "brand.header"       ],
      ["brand",         "brand.header_small" ],
      ["brand",         "brand.header_url"   ],
      ["brand",         "brand.link"         ],
      ["brand",         "brand.logo_medium"  ],
      ["brand",         "brand.logo_thumb"   ],
      ["brand",         "brand.logo_url"     ],
      ["brand",         "brand.company"      ],
      ["brand",         "brand.name"         ],
      ["brand",         "brand.email"        ],
      ["brand",         "brand.phone"        ],
      ["brand",         "brand.address"      ],
      ["brand",         "brand.state"        ],
      ["brand",         "brand.city"         ],
      ["brand",         "brand.zip"          ],
      ["brand",         "brand_fallback_to_agent_address"],
      ["brand",         "brand_specific_fallback_primary_email_for_agent"],
      ["brand",         "brand_specific_fallback_primary_email_for_case_manager"],
      ["brand",         "brand_specific_fallback_primary_phone_for_agent"],
      ["brand",         "brand_specific_fallback_primary_phone_for_case_manager"],
      ["case",          "case.current_details.carrier_name"],
      ["case",          "case.current_details.face_amount"],
      ["case",          "case.current_details.planned_modal_premium"],
      ["case",          "case.current_details.premium_mode_name"],
      ["case",          "case.current_details.product_type_name"],
      ["case",          "case.current_details.plan_name"],
      ["case",          "case.effective_date"       ],
      ["case",          "case.app_sent_at"   ],
      ["case",          "case.entered_stage_app_fulfillment"],
      ["case",          "case.exam_date"            ],
      ["case",          "case.exam_time_of_day"     ],
      ["case",          "case.application_specialist_name"],
      ["case",          "case.insurance_coordinator_name"],
      ["case",          "outstanding_requirements"],
      ["case manager",  "case_manager.address"      ],
      ["case manager",  "case_manager.age"          ],
      ["case manager",  "case_manager.birth"        ],
      ["case manager",  "case_manager.company"      ],
      ["case manager",  "case_manager.copyright"    ],
      ["case manager",  "case_manager.custom_field_one"],
      ["case manager",  "case_manager.custom_field_three"],
      ["case manager",  "case_manager.custom_field_two"],
      ["case manager",  "case_manager.email"        ],
      ["case manager",  "case_manager.fax_number"   ],
      ["case manager",  "case_manager.first_name"   ],
      ["case manager",  "case_manager.full_name"    ],
      ["case manager",  "case_manager.id"           ],
      ["case manager",  "case_manager.last_name"    ],
      ["case manager",  "case_manager.phone"        ],
      ["case manager",  "case_manager.photo_url"    ],
      ["case manager",  "case_manager.primary_email"],
      ["case manager",  "case_manager.short_id"     ],
      ["case manager",  "case_manager.signature_url"],
      ["case manager",  "case_manager.state"     ],
      ["case manager",  "case_manager.time_zone"],
      ["case manager",  "case_manager.title"    ],
      ["case manager",  "case_manager.website"],
      ["case manager",  "case_manager.zip"    ],
      ["miscellaneous", "days_from_now",    ["Integer"]],
      ["miscellaneous", "copyright_year"    ],
      ["miscellaneous", "footer"            ],
      ["miscellaneous", "header"            ],
      ["miscellaneous", "message_public_view_link"],
      ["miscellaneous", "unsubscribe_link"  ],
      ["miscellaneous", "tracking_pixel"    ],
      ["miscellaneous", "privacy_policy"    ],
      ["miscellaneous", "letter_signature"  ],
      ["miscellaneous", "license_info"      ],
      ["miscellaneous", "marketech_esign_url"],
      ["miscellaneous", "quoter_url"        ],
      ["miscellaneous", "rtt_quote_url"     ]
    ]
  },
  "Ownership":{
    "columns":["value","icon_class"],
    "records":[
      ["global","fa fa-globe"],
      ["user","fa fa-user"],
      ["user and descendants","fa fa-users"]
    ]
  },
  "PhoneCarrier":{
    "columns":["name","email_to_sms_domain","email_to_mms_domain"],
    "records":[
      ["Alltel Wireless","text.wireless.alltel.com","mms.wireless.alltel.com"],
      ["AT\u0026T Wireless","txt.att.net","mms.att.net"],
      ["AT\u0026T Mobility (formerly Cingular)","cingularme.com","mobile.mycingular.com"],
      ["Boost Mobile","myboostmobile.com",""],
      ["Cricket","sms.mycricket.com","mms.mycricket.com"],
      ["Metro PCS","mymetropcs.com",""],
      ["Sprint (PCS)","messaging.sprintpcs.com","pm.sprint.com"],
      ["Sprint (Nextel)","page.nextel.com","messaging.nextel.com"],
      ["Straight Talk","VTEXT.COM","mypixmessages.com"],
      ["T-Mobile","tmomail.net",""],
      ["U.S. Cellular","email.uscc.net","mms.uscc.net"],
      ["Verizon","vtext.com","vzwpix.com"],
      ["Virgin Mobile","vmobl.com","vmpix.com"]
    ]
  },
  "PhoneType":{
    "columns":"name",
    "records":[
      "home","work","mobile","fax"]
  },
  "AddressType":{
    "columns":"name",
    "records":[
      "home","work","mailing"]
  },
  "WebType":{
    "columns":["name","url_prefix","icon_class","value_is_called"],
    "records":[
      ["Website","","","url"],
      ["LinkedIn","https://linkedin.com/in/","fa fa-linkedin","custom url fragment"],
      ["Facebook","https://facebook.com/","fa fa-facebook","custom url fragment"],
      ["Twitter","https://twitter.com/","fa fa-twitter","screen name"],
      ["Google+","https://plus.google.com/+","fa fa-google-plus","custom url fragment"]
    ]
  },
  "LastAppliedOutcomeOption":{
    "columns":"name",
    "records":[
      ["Approved"],
      ["Approved with Rating"],
      ["Postponed"],
      ["Declined"],
      ["Pending"],
      ["In force"]
    ]
  },
  "LtcBenefitPeriodOption":{
    "columns":["name","value"],
    "records":[
      ["1 year","1NB"],
      ["2 years","2NB"],
      ["3 years","3NB"],
      ["4 years","4NB"],
      ["5 years","5NB"],
      ["6 years","6NB"],
      ["7 years","7NB"],
      ["8 years","8NB"],
      ["9 years","9NB"],
      ["10 years","10NB"],
      ["12 years","12NB"],
      ["Lifetime","LIFE"]
    ]
  },
  "LtcHealthClassOption":{
    "columns":["name","value"],
    "records":[
      ["Preferred","PREF"],
      ["Standard","STD"],
      ["Substandard I","SUB1"],
      ["Substandard II","SUB2"]
    ]
  },
  "LtcInflationProtectionOption":{
    "columns":["name","value"],
    "records":[
      ["None","NONE"],
      ["Periodic","PERI"],
      ["Simple","SIMP"],
      ["Compound","COMP"],
      ["3%-Compound","3COMP"]
    ]
  },
  "PremiumModeOption":{
    "columns":["name","value","field","human_readable_pay_period","months"],
    "records":[
      ["Annually","YEAR","annual_premium","year",12],
      ["Semi-annl.","SEMI","semiannual_premium","half-year",6],
      ["Quarterly","QTR","quarterly_premium","quarter",3],
      ["Monthly","MONTH","monthly_premium","month",1],
      ["Single","SINGLE","single_premium","single premium",null]
    ]
  },
  "RttHealthClassOption":{
    "columns":["name"],
    "records":[
      ["Premier NT"],
      ["Preferred NT"],
      ["Preferred T"],
      ["N"],
      ["S"]
    ]
  },
  "QuotingWidgetType":{
    "columns":["enabled","abbrev","product_cat_id","permission_name","name","quote_class_name","carrier_whitelist_column","carrier_whitelist_values"],
    "records":[
      [true,"tli",1,"quoter_widget_life","Term Life Insurance","Quoting::Widget::Quote::Life::Term","compulife_code",
        ["AMGE","AMEM","AMNT","AMNY","AMSV","ASSU","AXAA","BANN","CETN","COMP","FIDL","GEAN","GECA","JOHY","JOHU","LNLI","LNNA","METL","METR","MINM","MOTO","MTRU","NATW","NATY","NAWE","NEWY","NORA","PACK","PACL","PRIN","PRIP","PROT","PRUJ","PRUC","RELL","RELR","SAGI","SAVE","SECU","TRAL","TRAN","UTHO","UTOM","WILP","CINN"]
      ],
      [false,"ltc",3,"quoter_widget_ltc","Long Term Care","Quoting::Widget::Quote::Ltc","naic_code",[70025,65838,69515,12967,83437,71412,86231,86231,70688,69868]],
      [true,"cap",null,null,"Lead Capture",null,null,null],
      [true,"rtt",1,null,"Motorists Real Time Term","Quoting::Widget::Quote::Life::Term","id",[88]]
    ]
  },
  "SpiaIncomeOption":{
    "columns":["name","value"],
    "records":[
      ["My life only","lifetime"],
      ["My life + Spouse/partner's life","lifetime_and_someone"],
      ["Number of years only","set_period"]
    ]
  },
  "TliDurationOption":{
    "columns":["duration_category_id","years","cutoff_age","compulife_code","name","name_for_tli_widget","ixn_code"],
    "records":[
      [1,10,0,3,"10 Years","10 Years","10 Year Term"],
      [1,15,0,4,"15 Years","15 Years","15 Year Term"],
      [1,20,0,5,"20 Years","20 Years","20 Year Term"],
      [1,25,0,6,"25 Years",null,"25 Year Term"],
      [1,30,0,7,"30 Years","30 Years","30 Year Term"],
      [1,40,0,0,"40 Years","40 Years","40 Year Term"],
      [3,0,65,"T","To Age 65","To age 65"],
      [3,0,70,"U","To Age 70","To age 70"],
      [3,0,75,"V","To Age 75","To age 75"],
      [3,0,80,"A","To Age 80","To age 80"],
      [3,0,85,"B","To Age 85","To age 85"],
      [3,0,90,"C","To Age 90","To age 90"],
      [3,0,95,"D","To Age 95","To age 95"],
      [3,0,100,"E","To Age 100","To age 100"],
      [3,0,105,"G","To Age 105","To age 105"],
      [3,0,110,"H","To Age 110","To age 110"],
      [3,0,121,"Z:8P","To Age 121 (No Lapse U/L)","Lifetime","To age 121 (No Lapse U/L)"],
      [2,15,0,"J","15-Year Return of Premium","15 Year Term ROP"],
      [2,20,0,"K","20-Year Return of Premium","20 Year ROP","20 Year Term ROP"],
      [2,25,0,"L","25-Year Return of Premium","25 Year Term ROP"],
      [2,30,0,"M","30-Year Return of Premium","30 Year ROP","30 Year Term ROP"],
      [1,5,0,2,"5 Years",null,"5 Year Term"],
      [1,35,0,9,"35 Years","35 Years","35 Year Term"],
      [1,1,0,1,"ART / 1yr Level Term","ART/ 1 Year","1 Year Term"],
      [3,0,121,null,null,null,"To age 121 (Pay to 65)"],
      [3,0,121,null,null,null,"To age 121 (Pay to 100)"],
      [3,0,121,null,null,null,"To age 121 (20 Pay)"],
      [3,0,121,null,null,null,"To age 121 (10 Pay)"],
      [3,0,121,null,null,null,"To age 121 (Single Pay)"],
      [2,0,65,null,null,null,"To age 65 (ROP)"],
      [2,0,70,null,null,null,"To age 70 (ROP)"],
      [2,0,75,null,null,null,"To age 75 (ROP)"],
      [8,10,0,null,null,null,"10 Year Term Simplified Issue"],
      [8,15,0,null,null,null,"15 Year Term Simplified Issue"],
      [8,20,0,null,null,null,"20 Year Term Simplified Issue"],
      [8,25,0,null,null,null,"25 Year Term Simplified Issue"],
      [8,30,0,null,null,null,"30 Year Term Simplified Issue"]
    ]
  },
  "TliHealthClassOption":{
    "columns":["name","value"],
    "records":[
      ["Best Class","PP"],
      ["Preferred","P"],
      ["Standard Plus","RP"],
      ["Standard","R"],
      ["Preferred Tobacco","Preferred Tobacco"],
      ["Standard Tobacco","Standard Tobacco"],
      ["Table 1/A","Table 1/A"],
      ["Table 1/A - Tobacco","Table 1/A - Tobacco"],
      ["Table 2/B","Table 2/B"],["Table 2/B - Tobacco","Table 2/B - Tobacco"],["Table 3/C","Table 3/C"],["Table 3/C - Tobacco","Table 3/C - Tobacco"],["Table 4/D","Table 4/D"],["Table 4/D - Tobacco","Table 4/D - Tobacco"],["Table 5/E","Table 5/E"],["Table 5/E - Tobacco","Table 5/E - Tobacco"],["Table 6/F","Table 6/F"],["Table 6/F - Tobacco","Table 6/F - Tobacco"],["Table 7/G","Table 7/G"],["Table 7/G - Tobacco","Table 7/G - Tobacco"],["Table 8/H","Table 8/H"],["Table 8/H - Tobacco","Table 8/H - Tobacco"],["Table 9/I","Table 9/I"],["Table 9/I - Tobacco","Table 9/I - Tobacco"],["Table 10/J","Table 10/J"],["Table 10/J - Tobacco","Table 10/J - Tobacco"],["Table 11/K","Table 11/K"],["Table 11/K - Tobacco","Table 11/K - Tobacco"],["Table 12/L","Table 12/L"],["Table 12/L - Tobacco","Table 12/L - Tobacco"]]
  },
  "TliTableRatingOption":{
    "columns":["value","code"],
    "records":[
      ["A",1],["B",2],["C",3],["D",4],["E",5],["F",6],["G",7],["H",8],["J",9]]
  },
  "ScorRegion":{
    "columns":["scor_question_code","name"],
    "records":[
      ["RMM09_01_01","Africa"],["RMM09_01_02","Asia"],["RMM09_01_03","Caribbean"],["RMM09_01_04","Central America"],["RMM09_01_05","Europe"],["RMM09_01_06","Middle East"],["RMM09_01_07","North America"],["RMM09_01_08","Australia / Oceania"],["RMM09_01_09","South America"],["RMM09_01_10","Antarctica"]]
  },
  "State":{
    "columns":["id","abbrev","compulife_code","rtt_tc_code","name"],
    "records":[
      [ 1,"AL", 1, 1,"Alabama"],
      [ 2,"AK", 2, 2,"Alaska"],
      [ 3,"AZ", 3, 4,"Arizona"],
      [ 4,"AR", 4, 5,"Arkansas"],
      [ 5,"CA", 5, 6,"California"],
      [ 6,"CO", 6, 7,"Colorado"],
      [ 7,"CT", 7, 8,"Connecticut"],
      [ 8,"DE", 8, 9,"Delaware"],
      [ 9,"DC", 9,10,"District of Columbia"],
      [10,"FL",10,12,"Florida"],
      [11,"GA",11,13,"Georgia"],
      [12,"HI",12,15,"Hawaii"],
      [13,"ID",13,16,"Idaho"],
      [14,"IL",14,17,"Illinois"],
      [15,"IN",15,18,"Indiana"],
      [16,"IA",16,19,"Iowa"],
      [17,"KS",17,20,"Kansas"],
      [18,"KY",18,21,"Kentucky"],
      [19,"LA",19,22,"Louisiana"],
      [20,"ME",20,23,"Maine"],
      [21,"MD",21,25,"Maryland"],
      [22,"MA",22,26,"Massachusetts"],
      [23,"MI",23,27,"Michigan"],
      [24,"MN",24,28,"Minnesota"],
      [25,"MS",25,29,"Mississippi"],
      [26,"MO",26,30,"Missouri"],
      [27,"MT",27,31,"Montana"],
      [28,"NE",28,32,"Nebraska"],
      [29,"NV",29,33,"Nevada"],
      [30,"NH",30,34,"New Hampshire"],
      [31,"NJ",31,35,"New Jersey"],
      [32,"NM",32,36,"New Mexico"],
      [33,"NY",33,37,"New York"],
      [35,"NC",34,38,"North Carolina"],
      [36,"ND",35,39,"North Dakota"],
      [37,"OH",36,41,"Ohio"],
      [38,"OK",37,42,"Oklahoma"],
      [39,"OR",38,43,"Oregon"],
      [40,"PA",39,45,"Pennsylvania"],
      [41,"RI",40,47,"Rhode Island"],
      [42,"SC",41,48,"South Carolina"],
      [43,"SD",42,49,"South Dakota"],
      [44,"TN",43,50,"Tennessee"],
      [45,"TX",44,51,"Texas"],
      [46,"UT",45,52,"Utah"],
      [47,"VT",46,53,"Vermont"],
      [48,"VA",47,55,"Virginia"],
      [49,"WA",48,56,"Washington"],
      [50,"WV",49,57,"West Virginia"],
      [51,"WI",50,58,"Wisconsin"],
      [52,"WY",51,59,"Wyoming"],
      [53,"GU",53,14,"Guam"],
      [54,"PR",54,46,"Puerto Rico"],
      [55,"VI",55,"nil","Virgin Islands"],
      [56,"AS",56,3,"American Samoa"]
    ]
  },
  "TagType":{
    "columns":"name",
    "records":[
      ["tracking"],
      ["marketing"]
    ]
  },
  "Tenant":{
    "columns":["id","name","default_parent_id"],
    "records":[
      [0,"pinney",280],
      [1,"amg",229],
      [2,"ebi",203],
      [3,"ezlife",280],
      [4,"pjp",201],
      [5,"taber",196],
      [6,"bsb",1092],
      [7,"termteam",294],
      [8,"m2",4],
      [9,"orgcorp",18833],
      [10,"nmb",19838]
    ]
  },
  "CommissionLevel":{
    "columns":"name",
    "records":[
      "Special","Elite IV","Elite III","Elite II","Elite I","LPL","Platinum","Gold","Silver"
    ]
  },
  "ContractStatus":{
    "columns":"name",
    "records":[
      "approved","pending number","active w/ application","inactive","pending w/ carrier","terminated","pending w/ agent","rejected","withdrawn"
    ]
  },
  "LicenseStatus":{
    "columns":"name",
    "records":[
      "pending","approved","inactive"]
  },
  "Membership":{
    "columns":["id","pricing","name","stripe_plan_name","description"],
    "records":[
      [-2,0,"Pinney","",""],
      [-1,0,"Free","",""],
      [0,0,"Disabled","",""],
      [1,25,"Basic","Basic","Insureio Basic Account"],
      [2,50,"Basic + Marketing","Basic + Mktg","Insureio Basic Account + Marketing Package"],
      [3,50,"Basic + Agency","Basic + Agency","Insureio Basic Account + Agency Management Package"],
      [4,75,"Basic + Agency + Marketing","Basic + Mktg + Agency","Insureio Basic Account + Marketing \u0026 Agency Management"]
    ]
  },
  "PermissionList":{
    "columns":["name","list"],
    "records":[
      ["Basic",[
        "edit_self",
        "my_account",
        "brand",
        "brand_multiple",
        "submission_options",
        "edit_submission_options",
        "edit_submission_options_self",
        "submit_referral",
        "submit_application",
        "edit_agent_of_record",
        "edit_product_options",
        "l_and_c",
        "my_account_view_licenses",
        "my_account_edit_licenses",
        "my_account_view_contracts",
        "my_account_edit_contracts",
        "email",
        "smtp_multiple",
        "view_own_permissions",
        "click_to_call",
        "sms",
        "dash_opportunities_self",
        "dash_my_business_self",
        "dash_pending_tasks_self",
        "dash_events_self",
        "rapid_quote",
        "skip_quote",
        "contacts_gui",
        "contacts_consumers",
        "contacts_new_consumer",
        "import_consumer_csv",
        "agency_mgmt",
        "status_types",
        "create_status_types",
        "edit_initial_status_type_id",
        "marketing",
        "marketing_custom",
        "marketing_links",
        "marketing_email",
        "marketing_email_self",
        "marketing_email_custom",
        "marketing_custom_email",
        "marketing_canned_print",
        "marketing_custom_print",
        "marketing_canned_social",
        "marketing_custom_social",
        "marketing_canned_sms",
        "marketing_custom_sms",
        "marketing_links_application",
        "marketing_links_referral",
        "marketing_canned_email",
        "marketing_campaigns_custom",
        "comm_template_marketing",
        "custom_url",
        "generate_leads",
        "comm_template_status",
        "quoter_widget",
        "quoter_widget_multiple",
        "quoter_widget_life",
        "quoter_widget_ltc",
        "quoter_widget_lead_capture",
        "resource_library",
        "quoting_product_tools",
        "advanced_planning_tools",
        "professional_development",
        "underwriting_resources",
        "marketplace",
        "reporting_canned",
        "reporting_custom",
        "reporting_export"
      ]
    ],
    ["Mktg",[
      "insurance_division",
      "marketing_canned",
      "marketing_email_search",
      "marketing_campaigns_canned"
      ]
    ],
    ["Team",[
      "dash_my_business_team",
      "dash_opportunities_team",
      "dash_pending_tasks_team",
      "dash_events_team",
      "view_brand_resources",
      "contacts_brands"
      ]
    ],
    ["Agency",[
        "dash_my_business_team",
        "dash_opportunities_team",
        "dash_pending_tasks_team",
        "dash_events_team",
        "view_brand_resources",
        "contacts_brands",
        "recruit",
        "comm_template_recruit",
        "contacts_users",
        "contacts_new_user",
        "user_tree",
        "user_gui_production",
        "user_gui_brands",
        "user_gui_l_and_c",
        "user_gui_permissions",
        "user_gui_marketing",
        "user_gui_tasks",
        "user_gui_notes",
        "edit_user_parent_id",
        "delete_user",
        "have_children",
        "view_descendants",
        "edit_descendants",
        "view_descendants_resources",
        "edit_descendants_resources",
        "user_status_rules_gui",
        "set_access_descendants",
        "lead_distribution",
        "lead_distribution_config"
        ]
      ],
      ["All",[
        "edit_self",
        "super_view",
        "super_edit",
        "impersonate",
        "have_children",
        "view_siblings",
        "view_siblings_resources",
        "view_nephews",
        "view_nephews_resources",
        "edit_siblings",
        "edit_siblings_resources",
        "edit_nephews",
        "edit_nephews_resources",
        "my_account",
        "lead_distribution",
        "lead_distribution_config",
        "dialer",
        "marketing",
        "marketing_canned",
        "marketing_custom",
        "marketing_links",
        "marketing_email",
        "marketing_email_self",
        "marketing_email_custom",
        "marketing_email_search",
        "reporting_canned",
        "reporting_custom",
        "rapid_quote",
        "skip_quote",
        "agency_mgmt",
        "production_summary",
        "recruit",
        "status_types",
        "quoter_widget",
        "generate_leads",
        "submit_referral",
        "submit_application",
        "insurance_division",
        "custom_url",
        "resource_library",
        "quoting_product_tools",
        "advanced_planning_tools",
        "unused_bit1",
        "unused_bit2",
        "brand",
        "brand_multiple",
        "brand_assignments",
        "submission_options",
        "l_and_c",
        "email",
        "view_own_permissions",
        "task_super_edit",
        "pinney",
        "sales_support",
        "moderate_unassigned_tasks",
        "dash_my_business_self",
        "dash_my_business_team",
        "dash_opportunities_self",
        "dash_opportunities_team",
        "dash_pending_tasks_self",
        "dash_pending_tasks_team",
        "dash_events_self",
        "dash_events_team",
        "edit_submission_options",
        "contacts_users",
        "contacts_consumers",
        "contacts_brands",
        "contacts_new_user",
        "contacts_new_consumer",
        "user_gui",
        "user_tree",
        "user_gui_production",
        "user_gui_brands",
        "user_gui_l_and_c",
        "user_gui_permissions",
        "user_gui_marketing",
        "user_gui_tasks",
        "user_gui_notes",
        "edit_user_parent_id",
        "delete_user",
        "edit_initial_status_type_id",
        "create_status_types",
        "edit_status_type_access",
        "set_access_descendants",
        "set_access_global",
        "edit_others_membership_id",
        "quoter_widget_multiple",
        "quoter_widget_life",
        "quoter_widget_ltc",
        "quoter_widget_lead_capture",
        "marketing_links_application",
        "marketing_links_referral",
        "marketing_campaigns_canned",
        "marketing_campaigns_custom",
        "professional_development",
        "underwriting_resources",
        "edit_requirements",
        "user_status_rules_gui",
        "marketplace",
        "reporting_export",
        "my_account_production",
        "my_account_view_licenses",
        "my_account_edit_licenses",
        "my_account_view_contracts",
        "my_account_edit_contracts",
        "brand_edit_owner_id",
        "edit_agent_of_record",
        "edit_product_options",
        "import_consumer_csv",
        "motorists_rtt_process_details",
        "edit_staff_assignment",
        "smtp_multiple",
        "click_to_call",
        "sms",
        "socket_comm",
        "live_xfer_indicator",
        "view_descendants",
        "edit_descendants",
        "view_descendants_resources",
        "edit_descendants_resources",
        "payment_info_view",
        "payment_info_edit",
        "marketing_canned_email",
        "marketing_custom_email",
        "marketing_canned_print",
        "marketing_custom_print",
        "marketing_canned_social",
        "marketing_custom_social",
        "marketing_canned_sms",
        "marketing_custom_sms",
        "comm_template_marketing",
        "comm_template_recruit",
        "comm_template_status",
        "comm_template_system",
        "contacts_gui",
        "edit_submission_options_self",
        "view_brand_resources",
        "edit_staff_assignment_self",
        "motorists_rtt_process"
        ]
      ]
    ]
  },
  "UsageRole":{
    "columns":["name","level"],
    "records":[
      ["system",-1],
      ["developer",-1],
      ["admin",-1],
      ["agent",1],
      ["insurance coordinator",1],
      ["underwriter",1],
      ["application specialist",1],
      ["administrative assistant",1],
      ["case manager",1],
      ["manager",0],
      ["group",1],
      ["recruit",1]
    ]
  },
  "SecurityQuestion":{
    "columns":"value",
    "records":[
      "What is the last name of your favorite athlete?",
      "What is the last name of your best friend from high school?",
      "What was the last name of the maid of honor at your wedding?",
      "What is your oldest child's nickname?",
      "What is the last name of your favorite author?",
      "What is your dream job?",
      "What is your favorite charity?",
      "What was the first name of your first girlfriend/boyfriend?",
      "What school did you attend for sixth grade?",
      "What is your spouse's nickname?",
      "What is the last name of your favorite historical figure?",
      "What is/was the name of your first pet?",
      "What is the first name of your oldest niece or nephew?",
      "What was your favorite place to visit as a child?",
      "What was your favorite book as a child?",
      "What is the last name of your favorite actor?",
      "What is the first name of your date at your Senior Prom?",
      "What is the last name of the best man at your wedding?",
      "Where was the first company Christmas party you ever attended held?",
      "Who was the last name of your first grade teacher?",
      "What was the model of your first car?"
    ]
  },
  "ReportingByCaseModelMapping":{
    "columns":["model_key","assoc_chain_for_join","assoc_chain_for_preload_if_distinct","method_chain_for_access_if_distinct","for_preloading_only","restricted_by_permission"],
    "records":[
      ["case",                                      null,                                null,             null,false],
      ["consumer",                                  "consumer",                          null,             null,false],
      ["consumer_agent",                            ["consumer","agent"],                null,             null,true],
      ["agent",                                     "agent",                             null,             null,false],
      ["brand",                                     ["consumer","brand"],                null,             null,true],
      ["email",                                     ["consumer","emails"],               null,             null,false],
      ["phone",                                     ["consumer","phones"],               null,             null,false],
      ["address",                                   ["consumer","addresses"],            null,             null,false],
      ["website",                                   ["consumer","webs"],                 null,             null,true],
      ["owner",                                     "owner_relationship",                null,             null,true],
      ["owner_contact",                             ["owner_relationship","stakeholder"],null,             null,true],
      ["quoting_details",                           "quoting_details",                   null,             null,false],
      ["current_details",                           "current_details",                   "quoting_details",null,false],
      ["opportunity_details",                       "opportunity_details",               "quoting_details",null,true],
      ["contacted_details",                         "contacted_details",                 "quoting_details",null,true],
      ["app_fulfillment_details",                   "app_fulfillment_details",           "quoting_details",null,true],
      ["submitted_details",                         "submitted_details",                 "quoting_details",null,true],
      ["placed_details",                            "placed_details",                    "quoting_details",null,true],
      ["details_creator",                           ["statuses","creator_name_only"],    null,             null,true],
      ["details_carrier",                           ["quoting_details","carrier"],       null,             null,true],
      ["status",                                    "status",                            "statuses",       null,false],
      ["statuses",                                  "statuses",                          "statuses",       null,false],
      ["first_status_in_stage_contacted",           null,                                "statuses",       null,true],
      ["first_status_in_stage_app_fulfillment",     null,                                "statuses",       null,true],
      ["first_status_in_stage_submitted_to_carrier",null,                                "statuses",       null,true],
      ["first_status_in_stage_placed",              null,                                "statuses",       null,true],
      ["statuses_creator",                          ["statuses","creator_name_only"],    null,             null,true],
      ["staff_assignment",                          "staff_assignment",                  null,             null,false,"sales_support"]
    ]
  },
  "ReportingByOpportunityModelMapping":{
    "columns":["model_key","assoc_chain_for_join","assoc_chain_for_preload_if_distinct","method_chain_for_access_if_distinct","for_preloading_only","restricted_by_permission"],
    "records":[
      ["case",null,null,null,false],["consumer","consumer",null,null,false],["consumer_agent",["consumer","agent"],null,null,true],["agent",["consumer","agent"],null,null,false],["brand",["consumer","brand"],null,null,true],["email",["consumer","emails"],null,null,false],["phone",["consumer","phones"],null,null,false],["address",["consumer","addresses"],null,null,false],["quoting_details",null,null,null,false],["current_details",null,null,null,false],["opportunity_details",null,null,null,true],["status","status","statuses"],["statuses","statuses","statuses"],["staff_assignment",["consumer","agent","staff_assignment"],null,null,false,"sales_support"]]
  },
  "ReportingByCaseCriteriaFields":{
    "columns":["model_mapping_key","field_name","value_primitive_type"],
    "records":[
      ["consumer",        "brand_id",              "string"],
      ["consumer",        "agent_id",              "string"],
      ["consumer",        "lead_type",             "string"],
      ["consumer",        "source",                "string"],
      ["consumer",        "referrer",              "string"],
      ["consumer",        "tags",                  "array"],
      ["consumer",        "quoter_url",            "string"],
      ["consumer",        "full_name",             "string"],
      ["consumer",        "age_min",               "integer"],
      ["consumer",        "age_max",               "integer"],
      ["phone",           "value",                 "string"],
      ["email",           "value",                 "string"],
      ["address",         "city",                  "string"],
      ["address",         "zip",                   "string"],
      ["address",         "state_id",              "string"],
      ["case",            "exclude_test",          "boolean"],
      ["case",            "exclude_dup",           "boolean"],
      ["case",            "include_preexisting",   "boolean"],
      ["case",            "created_at_min",        "string"],
      ["case",            "created_at_max",        "string"],
      ["case",            "sales_stage_id",        "integer"],
      ["status",          "category_id",           "integer"],
      ["current_details", "policy_type_id",        "integer"],
      ["current_details", "carrier_id",            "integer"],
      ["current_details", "duration_id",           "integer"],
      ["current_details", "face_amount_min",       "integer"],
      ["current_details", "face_amount_max",       "integer"],
      ["current_details", "annualized_premium_min","integer"],
      ["current_details", "annualized_premium_max","integer"],
      ["current_details", "effective_date_min",    "string"],
      ["current_details", "effective_date_max",    "string"],
      ["staff_assignment","user_id",               "integer"],
      ["staff_assignment","column_name",           "string"]
    ]
  },
  "ReportingByCaseShowableFieldGroups":{
    "columns":["id","display_name","model_name","speed"],
    "records":[
      [1,"Consumer","consumer",null],
      [2,"Policy Owner","owner",null],
      [3,"Policy","case",null],
      [4,"Status History","case",null],
      [5,"Current Status","status",null],
      [6,"First Contacted Status","first_status_in_stage_contacted","warning"],
      [7,"First App Fulfillment Status","first_status_in_stage_app_fulfillment","warning"],
      [8,"First Submitted Status","first_status_in_stage_submitted_to_carrier","warning"],
      [9,"First Placed Status","first_status_in_stage_placed","warning"],
      [10,"Current Details","current_details",null],
      [11,"Opportunity Details","opportunity_details","warning"],
      [12,"Contacted Details","contacted_details","warning"],
      [13,"App Fulfillment Details","app_fulfillment_details","warning"],
      [14,"Submitted To Carrier Details","submitted_details","warning"],
      [15,"Placed Details","placed_details","warning"],
      [16,"Staff Assignment","staff_assignment",null]
    ]
  },
  "ReportingByCaseShowableFields":{
    "columns":["display_group_id","field_name","display_name","speed","extra_assoc_to_preload"],
    "records":[
      [1,"id","Id",null],
      [1,"test_lead","Test?",null],
      [1,"gender_string","Gender",null],
      [1,"birth","Date of Birth",null],
      [1,"name","Name",null],
      [1,"ssn","SSN",null],
      [1,"dln","Driver's License No.",null],
      [1,"dl_state","Driver's License State",null],
      [1,"lead_type","Lead Type",null],
      [1,"referrer","Referrer",null],
      [1,"source","Source",null],
      [1,"ip_address","IP Address",null],
      [1,"quoter_url","Quoter Url",null],
      [1,"tags_list","Tags List",null],
      [1,"brand_id","Brand Id",null],
      [1,"brand_name","Brand Name","warning","brand"],
      [1,"agent_id","Agent Id",null],
      [1,"agent_name","Agent Name","warning","consumer_agent"],
      [1,"primary_phone","Primary Phone","warning","phone"],
      [1,"primary_address","Primary Address","warning","address"],
      [1,"primary_address_city","Primary Address City","warning","address"],
      [1,"primary_address_state","Primary Address State","warning","address"],
      [1,"primary_address_zip","Primary Address Zip","warning","address"],
      [1,"phones","All Phones","warning","phone"],
      [1,"addresses","All Addresses","warning","address"],
      [1,"emails","All Emails","warning","email"],
      [1,"websites","All Websites","warning","website"],
      [2,"gender_string","Gender",null],
      [2,"age","Age",null],
      [2,"birth","Birth",null],
      [2,"name","Name","warning"],
      [2,"primary_phone","Primary Phone","warning","owner_contact"],
      [3,"record_type","Record Type (Policy/Opportunity)",null],
      [3,"id","Id",null],
      [3,"active","Open?",null],
      [3,"is_test","Test?",null],
      [3,"is_duplicate","Duplicate?",null],
      [3,"is_a_preexisting_policy","Pre-existing Policy?",null],
      [3,"agent_id","Agent Id",null],
      [3,"agent_name","Agent Name","warning"],
      [3,"agent_of_record_id","Agent Of Record Id",null],
      [3,"agent_of_record_name","Agent Of Record Name","warning"],
      [3,"policy_type_name","Policy Type Name",null],
      [3,"face_amount","Face Amount",null],
      [3,"created_at","Date Created",null],
      [3,"effective_date","Effective Date",null],
      [3,"policy_period_expiration","Expiration Date",null],
      [3,"policy_number","Carrier Policy Number",null],
      [3,"agency_works_id","Agency Integrator Id",null],
      [3,"sent_to_agency_works_at","Sent to Agency Integrator At",null],
      [4,"time_in_opportunity_stage","Time In Opportunity Stage",null],
      [4,"entered_stage_contacted","Entered Stage Contacted",null],
      [4,"time_in_contacted_stage","Time In Contacted Stage",null],
      [4,"entered_stage_app_fulfillment","Entered Stage App Fulfillment",null],
      [4,"time_in_app_fulfillment_stage","Time In App Fullfillment Stage",null],
      [4,"entered_stage_submitted_to_carrier","Entered Stage Submitted",null],
      [4,"time_in_submitted_to_carrier_stage","Time In Submitted Stage",null],
      [4,"entered_category_new_lead","Entered Category New Lead","warning"],
      [4,"entered_category_attempting_contact","Entered Category Attempting Contact","warning"],
      [4,"entered_category_not_quoted","Entered Category Not Quoted","warning"],
      [4,"entered_category_quoted","Entered Category Quoted","warning"],
      [4,"entered_category_sent_to_app_team","Entered Category Sent To App Team","warning"],
      [4,"entered_category_app_sent_to_client_exam_ordered","Entered Category App Sent To Consumer Exam Ordered","warning"],
      [4,"entered_category_app_received","Entered Category App Received","warning"],
      [4,"entered_category_app_submitted","Entered Category App Submitted","warning"],
      [4,"entered_category_approved_as_applied","Entered Category Approved As Applied","warning"],
      [4,"entered_category_approved_other_than_applied","Entered Category Approved Other Than Applied","warning"],
      [4,"entered_category_declined_withdrawn","Entered Category Declined Withdrawn","warning"],
      [4,"entered_category_issued_re_issued","Entered Category Issued Re-Issued","warning"],
      [4,"entered_category_in_force","Entered Category In Force","warning"],
      [4,"entered_category_withdrawn","Entered Category Withdrawn","warning"],
      [4,"entered_category_closed","Entered Category Closed","warning"],
      [5,"created_by_name","Created By Name","danger","statuses_creator"],
      [5,"name","Status Name",null],
      [6,"first_status_in_stage_contacted_created_by_name","Created By Name","danger","statuses_creator"],
      [6,"first_status_in_stage_contacted_name","Status Name",null],
      [7,"first_status_in_stage_app_fulfillment_created_by_name","Created By Name","danger","statuses_creator"],
      [7,"first_status_in_stage_app_fulfillment_name","Status Name",null],
      [8,"first_status_in_stage_submitted_to_carrier_created_by_name","Created By Name","danger","statuses_creator"],
      [8,"first_status_in_stage_submitted_to_carrier_name","Status Name",null],
      [9,"first_status_in_stage_placed_created_by_name","Created By Name","danger","statuses_creator"],
      [9,"first_status_in_stage_placed_name","Status Name",null],
      [10,"id","Id",null],
      [10,"created_at","Date Created",null],
      [10,"created_by_name","Created By Name","warning","details_creator"],
      [10,"carrier_name","Carrier Name",null,"details_carrier"],
      [10,"plan_name","Plan Name",null],
      [10,"duration","Duration",null],
      [10,"carrier_health_class","Carrier Health Class",null],
      [10,"face_amount","Face Amount",null],
      [10,"premium_mode","Premium Mode",null],
      [10,"modal_premium","Modal Premium",null],
      [10,"annualized_premium","Annualized Premium",null],
      [11,"id","Id",null],
      [11,"created_at","Date Created",null],
      [11,"created_by_name","Created By Name","warning","details_creator"],
      [11,"carrier_name","Carrier Name",null,"details_carrier"],
      [11,"plan_name","Plan Name",null],
      [11,"duration","Duration",null],
      [11,"carrier_health_class","Carrier Health Class",null],
      [11,"face_amount","Face Amount",null],
      [11,"premium_mode","Premium Mode",null],
      [11,"modal_premium","Modal Premium",null],
      [11,"annualized_premium","Annualized Premium",null],
      [12,"id","Id",null],
      [12,"created_at","Date Created",null],
      [12,"created_by_name","Created By Name","warning","details_creator"],
      [12,"carrier_name","Carrier Name",null,"details_carrier"],
      [12,"plan_name","Plan Name",null],
      [12,"duration","Duration",null],
      [12,"carrier_health_class","Carrier Health Class",null],
      [12,"face_amount","Face Amount",null],
      [12,"premium_mode","Premium Mode",null],
      [12,"modal_premium","Modal Premium",null],
      [12,"annualized_premium","Annualized Premium",null],
      [13,"id","Id",null],
      [13,"created_at","Date Created",null],
      [13,"created_by_name","Created By Name","warning","details_creator"],
      [13,"carrier_name","Carrier Name",null,"details_carrier"],
      [13,"plan_name","Plan Name",null],
      [13,"duration","Duration",null],
      [13,"carrier_health_class","Carrier Health Class",null],
      [13,"face_amount","Face Amount",null],
      [13,"premium_mode","Premium Mode",null],
      [13,"modal_premium","Modal Premium",null],
      [13,"annualized_premium","Annualized Premium",null],
      [14,"id","Id",null],
      [14,"created_at","Date Created",null],
      [14,"created_by_name","Created By Name","warning","details_creator"],
      [14,"carrier_name","Carrier Name",null,"details_carrier"],
      [14,"plan_name","Plan Name",null],
      [14,"duration","Duration",null],
      [14,"carrier_health_class","Carrier Health Class",null],
      [14,"face_amount","Face Amount",null],
      [14,"premium_mode","Premium Mode",null],
      [14,"modal_premium","Modal Premium",null],
      [14,"annualized_premium","Annualized Premium",null],
      [15,"id","Id",null],
      [15,"created_at","Date Created",null],
      [15,"created_by_name","Created By Name","warning","details_creator"],
      [15,"carrier_name","Carrier Name",null,"details_carrier"],
      [15,"plan_name","Plan Name",null],
      [15,"duration","Duration",null],
      [15,"carrier_health_class","Carrier Health Class",null],
      [15,"face_amount","Face Amount",null],
      [15,"premium_mode","Premium Mode",null],
      [15,"modal_premium","Modal Premium",null],
      [15,"annualized_premium","Annualized Premium",null],
      [16,"administrative_assistant_id","Administrative Assistant Id","warning"],
      [16,"administrative_assistant_name","Administrative Assistant Name","danger"],
      [16,"case_manager_id","Case Manager Id","warning"],
      [16,"case_manager_name","Case Manager Name","danger"],
      [16,"manager_id","Manager Id","warning"],
      [16,"manager_name","Manager Name","danger"],
      [16,"policy_specialist_id","Policy Specialist Id","warning"],
      [16,"policy_specialist_name","Policy Specialist Name","danger"],
      [16,"application_specialist_id","Application Specialist Id","warning"],
      [16,"application_specialist_name","Application Specialist Name","danger"],
      [16,"underwriter_id","Underwriter Id","warning"],
      [16,"underwriter_name","Underwriter Name","danger"],
      [16,"insurance_coordinator_id","Insurance Coordinator Id","warning"],
      [16,"insurance_coordinator_name","Insurance Coordinator Name","danger"]
    ]
  }
}
